%!PS-Adobe-3.0 EPSF-3.0
%%Creator: (MATLAB, The Mathworks, Inc. Version 9.10.0.1739362 \(R2021a\) Update 5. Operating System: Linux)
%%Title: ./l5mAvAll.eps
%%CreationDate: 2021-09-24T15:51:19
%%Pages: (atend)
%%BoundingBox:    45    14   521   377
%%LanguageLevel: 3
%%EndComments
%%BeginProlog
%%BeginResource: procset (Apache XML Graphics Std ProcSet) 1.2 0
%%Version: 1.2 0
%%Copyright: (Copyright 2001-2003,2010 The Apache Software Foundation. License terms: http://www.apache.org/licenses/LICENSE-2.0)
/bd{bind def}bind def
/ld{load def}bd
/GR/grestore ld
/GS/gsave ld
/RM/rmoveto ld
/C/curveto ld
/t/show ld
/L/lineto ld
/ML/setmiterlimit ld
/CT/concat ld
/f/fill ld
/N/newpath ld
/S/stroke ld
/CC/setcmykcolor ld
/A/ashow ld
/cp/closepath ld
/RC/setrgbcolor ld
/LJ/setlinejoin ld
/GC/setgray ld
/LW/setlinewidth ld
/M/moveto ld
/re {4 2 roll M
1 index 0 rlineto
0 exch rlineto
neg 0 rlineto
cp } bd
/_ctm matrix def
/_tm matrix def
/BT { _ctm currentmatrix pop matrix _tm copy pop 0 0 moveto } bd
/ET { _ctm setmatrix } bd
/iTm { _ctm setmatrix _tm concat } bd
/Tm { _tm astore pop iTm 0 0 moveto } bd
/ux 0.0 def
/uy 0.0 def
/F {
  /Tp exch def
  /Tf exch def
  Tf findfont Tp scalefont setfont
  /cf Tf def  /cs Tp def
} bd
/ULS {currentpoint /uy exch def /ux exch def} bd
/ULE {
  /Tcx currentpoint pop def
  gsave
  newpath
  cf findfont cs scalefont dup
  /FontMatrix get 0 get /Ts exch def /FontInfo get dup
  /UnderlinePosition get Ts mul /To exch def
  /UnderlineThickness get Ts mul /Tt exch def
  ux uy To add moveto  Tcx uy To add lineto
  Tt setlinewidth stroke
  grestore
} bd
/OLE {
  /Tcx currentpoint pop def
  gsave
  newpath
  cf findfont cs scalefont dup
  /FontMatrix get 0 get /Ts exch def /FontInfo get dup
  /UnderlinePosition get Ts mul /To exch def
  /UnderlineThickness get Ts mul /Tt exch def
  ux uy To add cs add moveto Tcx uy To add cs add lineto
  Tt setlinewidth stroke
  grestore
} bd
/SOE {
  /Tcx currentpoint pop def
  gsave
  newpath
  cf findfont cs scalefont dup
  /FontMatrix get 0 get /Ts exch def /FontInfo get dup
  /UnderlinePosition get Ts mul /To exch def
  /UnderlineThickness get Ts mul /Tt exch def
  ux uy To add cs 10 mul 26 idiv add moveto Tcx uy To add cs 10 mul 26 idiv add lineto
  Tt setlinewidth stroke
  grestore
} bd
/QT {
/Y22 exch store
/X22 exch store
/Y21 exch store
/X21 exch store
currentpoint
/Y21 load 2 mul add 3 div exch
/X21 load 2 mul add 3 div exch
/X21 load 2 mul /X22 load add 3 div
/Y21 load 2 mul /Y22 load add 3 div
/X22 load /Y22 load curveto
} bd
/SSPD {
dup length /d exch dict def
{
/v exch def
/k exch def
currentpagedevice k known {
/cpdv currentpagedevice k get def
v cpdv ne {
/upd false def
/nullv v type /nulltype eq def
/nullcpdv cpdv type /nulltype eq def
nullv nullcpdv or
{
/upd true def
} {
/sametype v type cpdv type eq def
sametype {
v type /arraytype eq {
/vlen v length def
/cpdvlen cpdv length def
vlen cpdvlen eq {
0 1 vlen 1 sub {
/i exch def
/obj v i get def
/cpdobj cpdv i get def
obj cpdobj ne {
/upd true def
exit
} if
} for
} {
/upd true def
} ifelse
} {
v type /dicttype eq {
v {
/dv exch def
/dk exch def
/cpddv cpdv dk get def
dv cpddv ne {
/upd true def
exit
} if
} forall
} {
/upd true def
} ifelse
} ifelse
} if
} ifelse
upd true eq {
d k v put
} if
} if
} if
} forall
d length 0 gt {
d setpagedevice
} if
} bd
/RE { % /NewFontName [NewEncodingArray] /FontName RE -
  findfont dup length dict begin
  {
    1 index /FID ne
    {def} {pop pop} ifelse
  } forall
  /Encoding exch def
  /FontName 1 index def
  currentdict definefont pop
  end
} bind def
%%EndResource
%%BeginResource: procset (Apache XML Graphics EPS ProcSet) 1.0 0
%%Version: 1.0 0
%%Copyright: (Copyright 2002-2003 The Apache Software Foundation. License terms: http://www.apache.org/licenses/LICENSE-2.0)
/BeginEPSF { %def
/b4_Inc_state save def         % Save state for cleanup
/dict_count countdictstack def % Count objects on dict stack
/op_count count 1 sub def      % Count objects on operand stack
userdict begin                 % Push userdict on dict stack
/showpage { } def              % Redefine showpage, { } = null proc
0 setgray 0 setlinecap         % Prepare graphics state
1 setlinewidth 0 setlinejoin
10 setmiterlimit [ ] 0 setdash newpath
/languagelevel where           % If level not equal to 1 then
{pop languagelevel             % set strokeadjust and
1 ne                           % overprint to their defaults.
{false setstrokeadjust false setoverprint
} if
} if
} bd
/EndEPSF { %def
count op_count sub {pop} repeat            % Clean up stacks
countdictstack dict_count sub {end} repeat
b4_Inc_state restore
} bd
%%EndResource
%FOPBeginFontDict
%%IncludeResource: font Courier-Oblique
%%IncludeResource: font Courier-BoldOblique
%%IncludeResource: font Courier-Bold
%%IncludeResource: font ZapfDingbats
%%IncludeResource: font Symbol
%%IncludeResource: font Helvetica
%%IncludeResource: font Helvetica-Oblique
%%IncludeResource: font Helvetica-Bold
%%IncludeResource: font Helvetica-BoldOblique
%%IncludeResource: font Times-Roman
%%IncludeResource: font Times-Italic
%%IncludeResource: font Times-Bold
%%IncludeResource: font Times-BoldItalic
%%IncludeResource: font Courier
%FOPEndFontDict
%%BeginResource: encoding WinAnsiEncoding
/WinAnsiEncoding [
/.notdef /.notdef /.notdef /.notdef /.notdef
/.notdef /.notdef /.notdef /.notdef /.notdef
/.notdef /.notdef /.notdef /.notdef /.notdef
/.notdef /.notdef /.notdef /.notdef /.notdef
/.notdef /.notdef /.notdef /.notdef /.notdef
/.notdef /.notdef /.notdef /.notdef /.notdef
/.notdef /.notdef /space /exclam /quotedbl
/numbersign /dollar /percent /ampersand /quotesingle
/parenleft /parenright /asterisk /plus /comma
/hyphen /period /slash /zero /one
/two /three /four /five /six
/seven /eight /nine /colon /semicolon
/less /equal /greater /question /at
/A /B /C /D /E
/F /G /H /I /J
/K /L /M /N /O
/P /Q /R /S /T
/U /V /W /X /Y
/Z /bracketleft /backslash /bracketright /asciicircum
/underscore /quoteleft /a /b /c
/d /e /f /g /h
/i /j /k /l /m
/n /o /p /q /r
/s /t /u /v /w
/x /y /z /braceleft /bar
/braceright /asciitilde /bullet /Euro /bullet
/quotesinglbase /florin /quotedblbase /ellipsis /dagger
/daggerdbl /circumflex /perthousand /Scaron /guilsinglleft
/OE /bullet /Zcaron /bullet /bullet
/quoteleft /quoteright /quotedblleft /quotedblright /bullet
/endash /emdash /asciitilde /trademark /scaron
/guilsinglright /oe /bullet /zcaron /Ydieresis
/space /exclamdown /cent /sterling /currency
/yen /brokenbar /section /dieresis /copyright
/ordfeminine /guillemotleft /logicalnot /sfthyphen /registered
/macron /degree /plusminus /twosuperior /threesuperior
/acute /mu /paragraph /middot /cedilla
/onesuperior /ordmasculine /guillemotright /onequarter /onehalf
/threequarters /questiondown /Agrave /Aacute /Acircumflex
/Atilde /Adieresis /Aring /AE /Ccedilla
/Egrave /Eacute /Ecircumflex /Edieresis /Igrave
/Iacute /Icircumflex /Idieresis /Eth /Ntilde
/Ograve /Oacute /Ocircumflex /Otilde /Odieresis
/multiply /Oslash /Ugrave /Uacute /Ucircumflex
/Udieresis /Yacute /Thorn /germandbls /agrave
/aacute /acircumflex /atilde /adieresis /aring
/ae /ccedilla /egrave /eacute /ecircumflex
/edieresis /igrave /iacute /icircumflex /idieresis
/eth /ntilde /ograve /oacute /ocircumflex
/otilde /odieresis /divide /oslash /ugrave
/uacute /ucircumflex /udieresis /yacute /thorn
/ydieresis
] def
%%EndResource
%FOPBeginFontReencode
/Courier-Oblique findfont
dup length dict begin
  {1 index /FID ne {def} {pop pop} ifelse} forall
  /Encoding WinAnsiEncoding def
  currentdict
end
/Courier-Oblique exch definefont pop
/Courier-BoldOblique findfont
dup length dict begin
  {1 index /FID ne {def} {pop pop} ifelse} forall
  /Encoding WinAnsiEncoding def
  currentdict
end
/Courier-BoldOblique exch definefont pop
/Courier-Bold findfont
dup length dict begin
  {1 index /FID ne {def} {pop pop} ifelse} forall
  /Encoding WinAnsiEncoding def
  currentdict
end
/Courier-Bold exch definefont pop
/Helvetica findfont
dup length dict begin
  {1 index /FID ne {def} {pop pop} ifelse} forall
  /Encoding WinAnsiEncoding def
  currentdict
end
/Helvetica exch definefont pop
/Helvetica-Oblique findfont
dup length dict begin
  {1 index /FID ne {def} {pop pop} ifelse} forall
  /Encoding WinAnsiEncoding def
  currentdict
end
/Helvetica-Oblique exch definefont pop
/Helvetica-Bold findfont
dup length dict begin
  {1 index /FID ne {def} {pop pop} ifelse} forall
  /Encoding WinAnsiEncoding def
  currentdict
end
/Helvetica-Bold exch definefont pop
/Helvetica-BoldOblique findfont
dup length dict begin
  {1 index /FID ne {def} {pop pop} ifelse} forall
  /Encoding WinAnsiEncoding def
  currentdict
end
/Helvetica-BoldOblique exch definefont pop
/Times-Roman findfont
dup length dict begin
  {1 index /FID ne {def} {pop pop} ifelse} forall
  /Encoding WinAnsiEncoding def
  currentdict
end
/Times-Roman exch definefont pop
/Times-Italic findfont
dup length dict begin
  {1 index /FID ne {def} {pop pop} ifelse} forall
  /Encoding WinAnsiEncoding def
  currentdict
end
/Times-Italic exch definefont pop
/Times-Bold findfont
dup length dict begin
  {1 index /FID ne {def} {pop pop} ifelse} forall
  /Encoding WinAnsiEncoding def
  currentdict
end
/Times-Bold exch definefont pop
/Times-BoldItalic findfont
dup length dict begin
  {1 index /FID ne {def} {pop pop} ifelse} forall
  /Encoding WinAnsiEncoding def
  currentdict
end
/Times-BoldItalic exch definefont pop
/Courier findfont
dup length dict begin
  {1 index /FID ne {def} {pop pop} ifelse} forall
  /Encoding WinAnsiEncoding def
  currentdict
end
/Courier exch definefont pop
%FOPEndFontReencode
%%EndProlog
%%Page: 1 1
%%PageBoundingBox: 0 0 565 393
%%BeginPageSetup
[1 0 0 -1 0 393] CT
%%EndPageSetup
GS
[0.5 0 0 0.5 0 0] CT
1 GC
N
0 0 1130 786 re
f
GR
GS
[0.5 0 0 0.5 0 0] CT
1 GC
N
0 0 1130 786 re
f
GR
GS
[0.5 0 0 0.5 0 0] CT
1 GC
N
147 327 M
525 327 L
525 59 L
147 59 L
cp
f
GR
GS
[0.5 0 0 0.5 0 0] CT
0.851 GC
1 LJ
N
147 327 M
147 59 L
S
GR
GS
[0.5 0 0 0.5 0 0] CT
0.851 GC
1 LJ
N
241.5 327 M
241.5 59 L
S
GR
GS
[0.5 0 0 0.5 0 0] CT
0.851 GC
1 LJ
N
336 327 M
336 59 L
S
GR
GS
[0.5 0 0 0.5 0 0] CT
0.851 GC
1 LJ
N
430.5 327 M
430.5 59 L
S
GR
GS
[0.5 0 0 0.5 0 0] CT
0.851 GC
1 LJ
N
525 327 M
525 59 L
S
GR
GS
[0.5 0 0 0.5 0 0] CT
0.851 GC
1 LJ
N
525 327 M
147 327 L
S
GR
GS
[0.5 0 0 0.5 0 0] CT
0.851 GC
1 LJ
N
525 273.4 M
147 273.4 L
S
GR
GS
[0.5 0 0 0.5 0 0] CT
0.851 GC
1 LJ
N
525 219.8 M
147 219.8 L
S
GR
GS
[0.5 0 0 0.5 0 0] CT
0.851 GC
1 LJ
N
525 166.2 M
147 166.2 L
S
GR
GS
[0.5 0 0 0.5 0 0] CT
0.851 GC
1 LJ
N
525 112.6 M
147 112.6 L
S
GR
GS
[0.5 0 0 0.5 0 0] CT
0.851 GC
1 LJ
N
525 59 M
147 59 L
S
GR
GS
[0.5 0 0 0.5 0 0] CT
2 setlinecap
1 LJ
N
147 327 M
525 327 L
S
GR
GS
[0.5 0 0 0.5 0 0] CT
2 setlinecap
1 LJ
N
147 59 M
525 59 L
S
GR
GS
[0.5 0 0 0.5 0 0] CT
2 setlinecap
1 LJ
N
147 327 M
147 323.22 L
S
GR
GS
[0.5 0 0 0.5 0 0] CT
2 setlinecap
1 LJ
N
241.5 327 M
241.5 323.22 L
S
GR
GS
[0.5 0 0 0.5 0 0] CT
2 setlinecap
1 LJ
N
336 327 M
336 323.22 L
S
GR
GS
[0.5 0 0 0.5 0 0] CT
2 setlinecap
1 LJ
N
430.5 327 M
430.5 323.22 L
S
GR
GS
[0.5 0 0 0.5 0 0] CT
2 setlinecap
1 LJ
N
525 327 M
525 323.22 L
S
GR
GS
[0.5 0 0 0.5 0 0] CT
2 setlinecap
1 LJ
N
147 59 M
147 62.78 L
S
GR
GS
[0.5 0 0 0.5 0 0] CT
2 setlinecap
1 LJ
N
241.5 59 M
241.5 62.78 L
S
GR
GS
[0.5 0 0 0.5 0 0] CT
2 setlinecap
1 LJ
N
336 59 M
336 62.78 L
S
GR
GS
[0.5 0 0 0.5 0 0] CT
2 setlinecap
1 LJ
N
430.5 59 M
430.5 62.78 L
S
GR
GS
[0.5 0 0 0.5 0 0] CT
2 setlinecap
1 LJ
N
525 59 M
525 62.78 L
S
GR
GS
[0.5 0 0 0.5 73.5 167.5] CT
/Helvetica 20 F
GS
[1 0 0 1 0 0] CT
-6.5 19 moveto 
1 -1 scale
(0) t 
GR
GR
GS
[0.5 0 0 0.5 120.75 167.5] CT
/Helvetica 20 F
GS
[1 0 0 1 0 0] CT
-13 19 moveto 
1 -1 scale
(50) t 
GR
GR
GS
[0.5 0 0 0.5 168 167.5] CT
/Helvetica 20 F
GS
[1 0 0 1 0 0] CT
-19.5 19 moveto 
1 -1 scale
(100) t 
GR
GR
GS
[0.5 0 0 0.5 215.25 167.5] CT
/Helvetica 20 F
GS
[1 0 0 1 0 0] CT
-19.5 19 moveto 
1 -1 scale
(150) t 
GR
GR
GS
[0.5 0 0 0.5 262.5 167.5] CT
/Helvetica 20 F
GS
[1 0 0 1 0 0] CT
-19.5 19 moveto 
1 -1 scale
(200) t 
GR
GR
GS
[0.5 0 0 0.5 168.00009 180.5] CT
/Helvetica 22 F
GS
[1 0 0 1 0 0] CT
-45.5 21 moveto 
1 -1 scale
(Time [s]) t 
GR
GR
GS
[0.5 0 0 0.5 0 0] CT
2 setlinecap
1 LJ
N
147 327 M
147 59 L
S
GR
GS
[0.5 0 0 0.5 0 0] CT
2 setlinecap
1 LJ
N
525 327 M
525 59 L
S
GR
GS
[0.5 0 0 0.5 0 0] CT
2 setlinecap
1 LJ
N
147 327 M
150.78 327 L
S
GR
GS
[0.5 0 0 0.5 0 0] CT
2 setlinecap
1 LJ
N
147 273.4 M
150.78 273.4 L
S
GR
GS
[0.5 0 0 0.5 0 0] CT
2 setlinecap
1 LJ
N
147 219.8 M
150.78 219.8 L
S
GR
GS
[0.5 0 0 0.5 0 0] CT
2 setlinecap
1 LJ
N
147 166.2 M
150.78 166.2 L
S
GR
GS
[0.5 0 0 0.5 0 0] CT
2 setlinecap
1 LJ
N
147 112.6 M
150.78 112.6 L
S
GR
GS
[0.5 0 0 0.5 0 0] CT
2 setlinecap
1 LJ
N
147 59 M
150.78 59 L
S
GR
GS
[0.5 0 0 0.5 0 0] CT
2 setlinecap
1 LJ
N
525 327 M
521.22 327 L
S
GR
GS
[0.5 0 0 0.5 0 0] CT
2 setlinecap
1 LJ
N
525 273.4 M
521.22 273.4 L
S
GR
GS
[0.5 0 0 0.5 0 0] CT
2 setlinecap
1 LJ
N
525 219.8 M
521.22 219.8 L
S
GR
GS
[0.5 0 0 0.5 0 0] CT
2 setlinecap
1 LJ
N
525 166.2 M
521.22 166.2 L
S
GR
GS
[0.5 0 0 0.5 0 0] CT
2 setlinecap
1 LJ
N
525 112.6 M
521.22 112.6 L
S
GR
GS
[0.5 0 0 0.5 0 0] CT
2 setlinecap
1 LJ
N
525 59 M
521.22 59 L
S
GR
GS
[0.5 0 0 0.5 69.5 163.5] CT
/Helvetica 20 F
GS
[1 0 0 1 0 0] CT
-20 7 moveto 
1 -1 scale
(-4) t 
GR
GR
GS
[0.5 0 0 0.5 69.5 136.7] CT
/Helvetica 20 F
GS
[1 0 0 1 0 0] CT
-20 7 moveto 
1 -1 scale
(-3) t 
GR
GR
GS
[0.5 0 0 0.5 69.5 109.9] CT
/Helvetica 20 F
GS
[1 0 0 1 0 0] CT
-20 7 moveto 
1 -1 scale
(-2) t 
GR
GR
GS
[0.5 0 0 0.5 69.5 83.1] CT
/Helvetica 20 F
GS
[1 0 0 1 0 0] CT
-20 7 moveto 
1 -1 scale
(-1) t 
GR
GR
GS
[0.5 0 0 0.5 69.5 56.3] CT
/Helvetica 20 F
GS
[1 0 0 1 0 0] CT
-13 7 moveto 
1 -1 scale
(0) t 
GR
GR
GS
[0.5 0 0 0.5 69.5 29.5] CT
/Helvetica 20 F
GS
[1 0 0 1 0 0] CT
-13 7 moveto 
1 -1 scale
(1) t 
GR
GR
GS
[0 -0.5 0.5 0 56.5 96.49994] CT
/Helvetica 22 F
GS
[1 0 0 1 0 0] CT
-138.5 -6 moveto 
1 -1 scale
(Availability of the CPU [-]) t 
GR
GR
GS
[0.5 0 0 0.5 168.00015 28.125] CT
/Helvetica-Bold 22 F
GS
[1 0 0 1 0 0] CT
-170.5 -6 moveto 
1 -1 scale
(Availability metrics for CPU) t 
GR
GR
GS
[0.5 0 0 0.5 0 0] CT
1 LJ
N
148.89 110.434 M
150.78 110.434 L
152.67 110.434 L
154.56 110.434 L
156.45 110.434 L
158.34 110.434 L
160.23 110.434 L
162.12 110.434 L
164.01 110.434 L
165.9 110.434 L
167.79 110.434 L
169.68 110.434 L
171.57 110.434 L
173.46 110.434 L
175.35 110.434 L
177.24 110.434 L
179.13 110.434 L
181.02 110.434 L
182.91 110.434 L
184.8 110.434 L
186.69 110.434 L
188.58 110.434 L
190.47 110.434 L
192.36 110.434 L
194.25 110.434 L
196.14 110.434 L
198.03 110.434 L
199.92 110.434 L
201.81 110.434 L
203.7 110.434 L
205.59 110.434 L
207.48 110.434 L
209.37 110.434 L
211.26 110.434 L
213.15 110.434 L
215.04 110.434 L
216.93 110.434 L
218.82 110.434 L
220.71 110.434 L
222.6 110.434 L
224.49 110.434 L
226.38 110.434 L
228.27 110.434 L
230.16 110.434 L
232.05 110.434 L
233.94 110.434 L
235.83 110.434 L
237.72 110.434 L
239.61 110.434 L
241.5 110.434 L
243.39 110.434 L
245.28 110.434 L
247.17 110.434 L
249.06 110.434 L
250.95 110.434 L
252.84 110.434 L
254.73 110.434 L
256.62 110.434 L
258.51 110.434 L
260.4 110.434 L
262.29 110.434 L
264.18 110.434 L
266.07 110.434 L
267.96 110.434 L
269.85 110.434 L
271.74 110.434 L
273.63 110.434 L
275.52 110.434 L
277.41 110.434 L
279.3 111.495 L
281.19 112.6 L
283.08 113.753 L
284.97 114.956 L
286.86 116.213 L
288.75 117.529 L
290.64 118.906 L
292.53 120.349 L
294.42 121.864 L
296.31 123.456 L
298.2 125.13 L
300.09 126.893 L
301.98 128.753 L
303.87 130.718 L
305.76 132.797 L
307.65 135 L
309.54 137.338 L
311.43 139.825 L
313.32 142.475 L
315.21 145.305 L
317.1 148.333 L
318.99 151.582 L
320.88 155.075 L
322.77 158.843 L
324.66 162.918 L
326.55 167.34 L
328.44 172.156 L
330.33 177.419 L
332.22 183.195 L
334.11 189.564 L
336 196.622 L
337.89 189.564 L
339.78 183.195 L
341.67 177.419 L
343.56 172.156 L
345.45 167.34 L
347.34 162.918 L
349.23 158.843 L
351.12 155.075 L
353.01 151.582 L
354.9 148.333 L
356.79 145.305 L
358.68 142.475 L
360.57 139.825 L
362.46 137.338 L
364.35 135 L
366.24 132.797 L
368.13 130.718 L
370.02 128.753 L
371.91 126.893 L
373.8 125.13 L
375.69 123.456 L
377.58 121.864 L
379.47 120.349 L
381.36 118.906 L
383.25 117.529 L
385.14 116.213 L
387.03 114.956 L
388.92 113.753 L
390.81 112.6 L
392.7 113.753 L
394.59 114.956 L
396.48 116.213 L
398.37 117.529 L
400.26 118.906 L
402.15 120.349 L
404.04 121.864 L
405.93 123.456 L
407.82 125.13 L
409.71 126.893 L
411.6 128.753 L
413.49 130.718 L
415.38 132.797 L
417.27 135 L
419.16 137.338 L
421.05 139.825 L
422.94 137.338 L
424.83 135 L
426.72 132.797 L
428.61 130.718 L
430.5 128.753 L
432.39 126.893 L
434.28 125.13 L
436.17 123.456 L
438.06 121.864 L
439.95 120.349 L
441.84 118.906 L
443.73 117.529 L
445.62 116.213 L
447.51 114.956 L
449.4 113.753 L
451.29 112.6 L
453.18 111.495 L
455.07 110.434 L
456.96 110.434 L
458.85 110.434 L
460.74 110.434 L
462.63 110.434 L
464.52 110.434 L
466.41 110.434 L
468.3 110.434 L
470.19 110.434 L
472.08 110.434 L
473.97 110.434 L
475.86 110.434 L
477.75 110.434 L
479.64 110.434 L
481.53 110.434 L
483.42 110.434 L
485.31 110.434 L
487.2 110.434 L
489.09 110.434 L
490.98 110.434 L
492.87 110.434 L
494.76 110.434 L
496.65 110.434 L
498.54 110.434 L
500.43 110.434 L
502.32 110.434 L
504.21 110.434 L
506.1 110.434 L
507.99 110.434 L
509.88 110.434 L
511.77 110.434 L
513.66 110.434 L
515.55 110.434 L
517.44 110.434 L
519.33 110.434 L
521.22 110.434 L
523.11 110.434 L
525 110.434 L
S
GR
GS
[0.5 0 0 0.5 0 0] CT
0.298 GC
1 LJ
N
147 110.434 M
525 110.434 L
S
GR
GS
[0.5 0 0 0.5 0 0] CT
1 GC
N
644 327 M
1023 327 L
1023 59 L
644 59 L
cp
f
GR
GS
[0.5 0 0 0.5 0 0] CT
0.851 GC
1 LJ
N
644 327 M
644 59 L
S
GR
GS
[0.5 0 0 0.5 0 0] CT
0.851 GC
1 LJ
N
738.75 327 M
738.75 59 L
S
GR
GS
[0.5 0 0 0.5 0 0] CT
0.851 GC
1 LJ
N
833.5 327 M
833.5 59 L
S
GR
GS
[0.5 0 0 0.5 0 0] CT
0.851 GC
1 LJ
N
928.25 327 M
928.25 59 L
S
GR
GS
[0.5 0 0 0.5 0 0] CT
0.851 GC
1 LJ
N
1023 327 M
1023 59 L
S
GR
GS
[0.5 0 0 0.5 0 0] CT
0.851 GC
1 LJ
N
1023 327 M
644 327 L
S
GR
GS
[0.5 0 0 0.5 0 0] CT
0.851 GC
1 LJ
N
1023 273.4 M
644 273.4 L
S
GR
GS
[0.5 0 0 0.5 0 0] CT
0.851 GC
1 LJ
N
1023 219.8 M
644 219.8 L
S
GR
GS
[0.5 0 0 0.5 0 0] CT
0.851 GC
1 LJ
N
1023 166.2 M
644 166.2 L
S
GR
GS
[0.5 0 0 0.5 0 0] CT
0.851 GC
1 LJ
N
1023 112.6 M
644 112.6 L
S
GR
GS
[0.5 0 0 0.5 0 0] CT
0.851 GC
1 LJ
N
1023 59 M
644 59 L
S
GR
GS
[0.5 0 0 0.5 0 0] CT
2 setlinecap
1 LJ
N
644 327 M
1023 327 L
S
GR
GS
[0.5 0 0 0.5 0 0] CT
2 setlinecap
1 LJ
N
644 59 M
1023 59 L
S
GR
GS
[0.5 0 0 0.5 0 0] CT
2 setlinecap
1 LJ
N
644 327 M
644 323.21 L
S
GR
GS
[0.5 0 0 0.5 0 0] CT
2 setlinecap
1 LJ
N
738.75 327 M
738.75 323.21 L
S
GR
GS
[0.5 0 0 0.5 0 0] CT
2 setlinecap
1 LJ
N
833.5 327 M
833.5 323.21 L
S
GR
GS
[0.5 0 0 0.5 0 0] CT
2 setlinecap
1 LJ
N
928.25 327 M
928.25 323.21 L
S
GR
GS
[0.5 0 0 0.5 0 0] CT
2 setlinecap
1 LJ
N
1023 327 M
1023 323.21 L
S
GR
GS
[0.5 0 0 0.5 0 0] CT
2 setlinecap
1 LJ
N
644 59 M
644 62.79 L
S
GR
GS
[0.5 0 0 0.5 0 0] CT
2 setlinecap
1 LJ
N
738.75 59 M
738.75 62.79 L
S
GR
GS
[0.5 0 0 0.5 0 0] CT
2 setlinecap
1 LJ
N
833.5 59 M
833.5 62.79 L
S
GR
GS
[0.5 0 0 0.5 0 0] CT
2 setlinecap
1 LJ
N
928.25 59 M
928.25 62.79 L
S
GR
GS
[0.5 0 0 0.5 0 0] CT
2 setlinecap
1 LJ
N
1023 59 M
1023 62.79 L
S
GR
GS
[0.5 0 0 0.5 322 167.5] CT
/Helvetica 20 F
GS
[1 0 0 1 0 0] CT
-6.5 19 moveto 
1 -1 scale
(0) t 
GR
GR
GS
[0.5 0 0 0.5 369.375 167.5] CT
/Helvetica 20 F
GS
[1 0 0 1 0 0] CT
-13 19 moveto 
1 -1 scale
(50) t 
GR
GR
GS
[0.5 0 0 0.5 416.75 167.5] CT
/Helvetica 20 F
GS
[1 0 0 1 0 0] CT
-19.5 19 moveto 
1 -1 scale
(100) t 
GR
GR
GS
[0.5 0 0 0.5 464.125 167.5] CT
/Helvetica 20 F
GS
[1 0 0 1 0 0] CT
-19.5 19 moveto 
1 -1 scale
(150) t 
GR
GR
GS
[0.5 0 0 0.5 511.5 167.5] CT
/Helvetica 20 F
GS
[1 0 0 1 0 0] CT
-19.5 19 moveto 
1 -1 scale
(200) t 
GR
GR
GS
[0.5 0 0 0.5 416.75009 180.5] CT
/Helvetica 22 F
GS
[1 0 0 1 0 0] CT
-45.5 21 moveto 
1 -1 scale
(Time [s]) t 
GR
GR
GS
[0.5 0 0 0.5 0 0] CT
2 setlinecap
1 LJ
N
644 327 M
644 59 L
S
GR
GS
[0.5 0 0 0.5 0 0] CT
2 setlinecap
1 LJ
N
1023 327 M
1023 59 L
S
GR
GS
[0.5 0 0 0.5 0 0] CT
2 setlinecap
1 LJ
N
644 327 M
647.79 327 L
S
GR
GS
[0.5 0 0 0.5 0 0] CT
2 setlinecap
1 LJ
N
644 273.4 M
647.79 273.4 L
S
GR
GS
[0.5 0 0 0.5 0 0] CT
2 setlinecap
1 LJ
N
644 219.8 M
647.79 219.8 L
S
GR
GS
[0.5 0 0 0.5 0 0] CT
2 setlinecap
1 LJ
N
644 166.2 M
647.79 166.2 L
S
GR
GS
[0.5 0 0 0.5 0 0] CT
2 setlinecap
1 LJ
N
644 112.6 M
647.79 112.6 L
S
GR
GS
[0.5 0 0 0.5 0 0] CT
2 setlinecap
1 LJ
N
644 59 M
647.79 59 L
S
GR
GS
[0.5 0 0 0.5 0 0] CT
2 setlinecap
1 LJ
N
1023 327 M
1019.21 327 L
S
GR
GS
[0.5 0 0 0.5 0 0] CT
2 setlinecap
1 LJ
N
1023 273.4 M
1019.21 273.4 L
S
GR
GS
[0.5 0 0 0.5 0 0] CT
2 setlinecap
1 LJ
N
1023 219.8 M
1019.21 219.8 L
S
GR
GS
[0.5 0 0 0.5 0 0] CT
2 setlinecap
1 LJ
N
1023 166.2 M
1019.21 166.2 L
S
GR
GS
[0.5 0 0 0.5 0 0] CT
2 setlinecap
1 LJ
N
1023 112.6 M
1019.21 112.6 L
S
GR
GS
[0.5 0 0 0.5 0 0] CT
2 setlinecap
1 LJ
N
1023 59 M
1019.21 59 L
S
GR
GS
[0.5 0 0 0.5 318 163.5] CT
/Helvetica 20 F
GS
[1 0 0 1 0 0] CT
-20 7 moveto 
1 -1 scale
(-4) t 
GR
GR
GS
[0.5 0 0 0.5 318 136.7] CT
/Helvetica 20 F
GS
[1 0 0 1 0 0] CT
-20 7 moveto 
1 -1 scale
(-3) t 
GR
GR
GS
[0.5 0 0 0.5 318 109.9] CT
/Helvetica 20 F
GS
[1 0 0 1 0 0] CT
-20 7 moveto 
1 -1 scale
(-2) t 
GR
GR
GS
[0.5 0 0 0.5 318 83.1] CT
/Helvetica 20 F
GS
[1 0 0 1 0 0] CT
-20 7 moveto 
1 -1 scale
(-1) t 
GR
GR
GS
[0.5 0 0 0.5 318 56.3] CT
/Helvetica 20 F
GS
[1 0 0 1 0 0] CT
-13 7 moveto 
1 -1 scale
(0) t 
GR
GR
GS
[0.5 0 0 0.5 318 29.5] CT
/Helvetica 20 F
GS
[1 0 0 1 0 0] CT
-13 7 moveto 
1 -1 scale
(1) t 
GR
GR
GS
[0 -0.5 0.5 0 305 96.49994] CT
/Helvetica 22 F
GS
[1 0 0 1 0 0] CT
-140.5 -6 moveto 
1 -1 scale
(Availability of the RAM [-]) t 
GR
GR
GS
[0.5 0 0 0.5 416.7504 28.125] CT
/Helvetica-Bold 22 F
GS
[1 0 0 1 0 0] CT
-173.5 -6 moveto 
1 -1 scale
(Availability metrics for RAM) t 
GR
GR
GS
[0.5 0 0 0.5 0 0] CT
1 LJ
N
645.895 102.313 M
647.79 102.313 L
649.685 102.313 L
651.58 102.313 L
653.475 102.313 L
655.37 102.313 L
657.265 102.313 L
659.16 102.313 L
661.055 102.313 L
662.95 102.313 L
664.845 102.313 L
666.74 102.313 L
668.635 102.313 L
670.53 102.313 L
672.425 102.313 L
674.32 102.313 L
676.215 102.313 L
678.11 102.313 L
680.005 102.313 L
681.9 102.313 L
683.795 102.313 L
685.69 102.313 L
687.585 102.313 L
689.48 102.313 L
691.375 102.313 L
693.27 102.313 L
695.165 102.313 L
697.06 102.313 L
698.955 102.313 L
700.85 102.313 L
702.745 102.313 L
704.64 102.313 L
706.535 102.313 L
708.43 102.313 L
710.325 102.313 L
712.22 102.313 L
714.115 102.313 L
716.01 102.313 L
717.905 102.313 L
719.8 102.313 L
721.695 102.313 L
723.59 102.313 L
725.485 102.313 L
727.38 102.313 L
729.275 102.313 L
731.17 102.313 L
733.065 102.313 L
734.96 102.313 L
736.855 102.313 L
738.75 102.313 L
740.645 102.313 L
742.54 102.313 L
744.435 102.313 L
746.33 102.313 L
748.225 102.313 L
750.12 102.313 L
752.015 102.313 L
753.91 102.313 L
755.805 102.313 L
757.7 102.313 L
759.595 102.313 L
761.49 102.313 L
763.385 102.313 L
765.28 102.313 L
767.175 102.313 L
769.07 102.313 L
770.965 102.313 L
772.86 102.313 L
774.755 102.313 L
776.65 102.313 L
778.545 102.313 L
780.44 102.313 L
782.335 102.313 L
784.23 102.313 L
786.125 102.313 L
788.02 102.313 L
789.915 102.313 L
791.81 102.313 L
793.705 102.313 L
795.6 102.313 L
797.495 102.313 L
799.39 102.313 L
801.285 102.313 L
803.18 102.313 L
805.075 102.313 L
806.97 102.313 L
808.865 102.313 L
810.76 102.313 L
812.655 102.313 L
814.55 102.313 L
816.445 102.313 L
818.34 102.313 L
820.235 102.313 L
822.13 102.313 L
824.025 102.313 L
825.92 102.313 L
827.815 102.313 L
829.71 102.313 L
831.605 102.313 L
833.5 102.313 L
835.395 102.313 L
837.29 102.313 L
839.185 102.313 L
841.08 102.313 L
842.975 102.313 L
844.87 102.313 L
846.765 102.313 L
848.66 102.313 L
850.555 102.313 L
852.45 102.313 L
854.345 102.313 L
856.24 102.313 L
858.135 102.313 L
860.03 102.313 L
861.925 102.313 L
863.82 102.313 L
865.715 102.313 L
867.61 102.313 L
869.505 102.313 L
871.4 102.313 L
873.295 102.313 L
875.19 102.313 L
877.085 102.313 L
878.98 102.313 L
880.875 102.313 L
882.77 102.313 L
884.665 102.313 L
886.56 102.313 L
888.455 102.313 L
890.35 102.313 L
892.245 102.313 L
894.14 102.313 L
896.035 102.313 L
897.93 102.313 L
899.825 102.313 L
901.72 102.313 L
903.615 102.313 L
905.51 102.313 L
907.405 102.313 L
909.3 102.313 L
911.195 102.313 L
913.09 102.313 L
914.985 102.313 L
916.88 102.313 L
918.775 102.313 L
920.67 102.313 L
922.565 102.313 L
924.46 102.313 L
926.355 102.313 L
928.25 102.313 L
930.145 102.313 L
932.04 102.313 L
933.935 102.313 L
935.83 102.313 L
937.725 102.313 L
939.62 102.313 L
941.515 102.313 L
943.41 102.313 L
945.305 102.313 L
947.2 103.206 L
949.095 104.137 L
950.99 105.108 L
952.885 106.121 L
954.78 107.18 L
956.675 108.287 L
958.57 109.447 L
960.465 110.663 L
962.36 111.938 L
964.255 113.278 L
966.15 114.688 L
968.045 116.173 L
969.94 117.74 L
971.835 119.394 L
973.73 121.145 L
975.625 123 L
977.52 124.969 L
979.415 127.063 L
981.31 129.295 L
983.205 131.678 L
985.1 134.228 L
986.995 136.964 L
988.89 139.906 L
990.785 143.078 L
992.68 146.51 L
994.575 150.234 L
996.47 154.289 L
998.365 158.721 L
1000.26 163.585 L
1002.155 168.949 L
1004.05 174.892 L
1005.945 181.514 L
1007.84 188.939 L
1009.735 197.323 L
1011.63 206.862 L
1013.525 217.815 L
1015.42 230.52 L
1017.315 245.435 L
1019.21 263.19 L
1021.105 284.684 L
1023 311.235 L
S
GR
GS
[0.5 0 0 0.5 0 0] CT
0.298 GC
1 LJ
N
644 102.313 M
1023 102.313 L
S
GR
GS
[0.5 0 0 0.5 0 0] CT
1 GC
N
147 700 M
525 700 L
525 431 L
147 431 L
cp
f
GR
GS
[0.5 0 0 0.5 0 0] CT
0.851 GC
1 LJ
N
147 700 M
147 431 L
S
GR
GS
[0.5 0 0 0.5 0 0] CT
0.851 GC
1 LJ
N
241.5 700 M
241.5 431 L
S
GR
GS
[0.5 0 0 0.5 0 0] CT
0.851 GC
1 LJ
N
336 700 M
336 431 L
S
GR
GS
[0.5 0 0 0.5 0 0] CT
0.851 GC
1 LJ
N
430.5 700 M
430.5 431 L
S
GR
GS
[0.5 0 0 0.5 0 0] CT
0.851 GC
1 LJ
N
525 700 M
525 431 L
S
GR
GS
[0.5 0 0 0.5 0 0] CT
0.851 GC
1 LJ
N
525 700 M
147 700 L
S
GR
GS
[0.5 0 0 0.5 0 0] CT
0.851 GC
1 LJ
N
525 646.2 M
147 646.2 L
S
GR
GS
[0.5 0 0 0.5 0 0] CT
0.851 GC
1 LJ
N
525 592.4 M
147 592.4 L
S
GR
GS
[0.5 0 0 0.5 0 0] CT
0.851 GC
1 LJ
N
525 538.6 M
147 538.6 L
S
GR
GS
[0.5 0 0 0.5 0 0] CT
0.851 GC
1 LJ
N
525 484.8 M
147 484.8 L
S
GR
GS
[0.5 0 0 0.5 0 0] CT
0.851 GC
1 LJ
N
525 431 M
147 431 L
S
GR
GS
[0.5 0 0 0.5 0 0] CT
2 setlinecap
1 LJ
N
147 700 M
525 700 L
S
GR
GS
[0.5 0 0 0.5 0 0] CT
2 setlinecap
1 LJ
N
147 431 M
525 431 L
S
GR
GS
[0.5 0 0 0.5 0 0] CT
2 setlinecap
1 LJ
N
147 700 M
147 696.22 L
S
GR
GS
[0.5 0 0 0.5 0 0] CT
2 setlinecap
1 LJ
N
241.5 700 M
241.5 696.22 L
S
GR
GS
[0.5 0 0 0.5 0 0] CT
2 setlinecap
1 LJ
N
336 700 M
336 696.22 L
S
GR
GS
[0.5 0 0 0.5 0 0] CT
2 setlinecap
1 LJ
N
430.5 700 M
430.5 696.22 L
S
GR
GS
[0.5 0 0 0.5 0 0] CT
2 setlinecap
1 LJ
N
525 700 M
525 696.22 L
S
GR
GS
[0.5 0 0 0.5 0 0] CT
2 setlinecap
1 LJ
N
147 431 M
147 434.78 L
S
GR
GS
[0.5 0 0 0.5 0 0] CT
2 setlinecap
1 LJ
N
241.5 431 M
241.5 434.78 L
S
GR
GS
[0.5 0 0 0.5 0 0] CT
2 setlinecap
1 LJ
N
336 431 M
336 434.78 L
S
GR
GS
[0.5 0 0 0.5 0 0] CT
2 setlinecap
1 LJ
N
430.5 431 M
430.5 434.78 L
S
GR
GS
[0.5 0 0 0.5 0 0] CT
2 setlinecap
1 LJ
N
525 431 M
525 434.78 L
S
GR
GS
[0.5 0 0 0.5 73.5 354] CT
/Helvetica 20 F
GS
[1 0 0 1 0 0] CT
-6.5 19 moveto 
1 -1 scale
(0) t 
GR
GR
GS
[0.5 0 0 0.5 120.75 354] CT
/Helvetica 20 F
GS
[1 0 0 1 0 0] CT
-13 19 moveto 
1 -1 scale
(50) t 
GR
GR
GS
[0.5 0 0 0.5 168 354] CT
/Helvetica 20 F
GS
[1 0 0 1 0 0] CT
-19.5 19 moveto 
1 -1 scale
(100) t 
GR
GR
GS
[0.5 0 0 0.5 215.25 354] CT
/Helvetica 20 F
GS
[1 0 0 1 0 0] CT
-19.5 19 moveto 
1 -1 scale
(150) t 
GR
GR
GS
[0.5 0 0 0.5 262.5 354] CT
/Helvetica 20 F
GS
[1 0 0 1 0 0] CT
-19.5 19 moveto 
1 -1 scale
(200) t 
GR
GR
GS
[0.5 0 0 0.5 168.00009 367] CT
/Helvetica 22 F
GS
[1 0 0 1 0 0] CT
-45.5 21 moveto 
1 -1 scale
(Time [s]) t 
GR
GR
GS
[0.5 0 0 0.5 0 0] CT
2 setlinecap
1 LJ
N
147 700 M
147 431 L
S
GR
GS
[0.5 0 0 0.5 0 0] CT
2 setlinecap
1 LJ
N
525 700 M
525 431 L
S
GR
GS
[0.5 0 0 0.5 0 0] CT
2 setlinecap
1 LJ
N
147 700 M
150.78 700 L
S
GR
GS
[0.5 0 0 0.5 0 0] CT
2 setlinecap
1 LJ
N
147 646.2 M
150.78 646.2 L
S
GR
GS
[0.5 0 0 0.5 0 0] CT
2 setlinecap
1 LJ
N
147 592.4 M
150.78 592.4 L
S
GR
GS
[0.5 0 0 0.5 0 0] CT
2 setlinecap
1 LJ
N
147 538.6 M
150.78 538.6 L
S
GR
GS
[0.5 0 0 0.5 0 0] CT
2 setlinecap
1 LJ
N
147 484.8 M
150.78 484.8 L
S
GR
GS
[0.5 0 0 0.5 0 0] CT
2 setlinecap
1 LJ
N
147 431 M
150.78 431 L
S
GR
GS
[0.5 0 0 0.5 0 0] CT
2 setlinecap
1 LJ
N
525 700 M
521.22 700 L
S
GR
GS
[0.5 0 0 0.5 0 0] CT
2 setlinecap
1 LJ
N
525 646.2 M
521.22 646.2 L
S
GR
GS
[0.5 0 0 0.5 0 0] CT
2 setlinecap
1 LJ
N
525 592.4 M
521.22 592.4 L
S
GR
GS
[0.5 0 0 0.5 0 0] CT
2 setlinecap
1 LJ
N
525 538.6 M
521.22 538.6 L
S
GR
GS
[0.5 0 0 0.5 0 0] CT
2 setlinecap
1 LJ
N
525 484.8 M
521.22 484.8 L
S
GR
GS
[0.5 0 0 0.5 0 0] CT
2 setlinecap
1 LJ
N
525 431 M
521.22 431 L
S
GR
GS
[0.5 0 0 0.5 69.5 350] CT
/Helvetica 20 F
GS
[1 0 0 1 0 0] CT
-20 7 moveto 
1 -1 scale
(-4) t 
GR
GR
GS
[0.5 0 0 0.5 69.5 323.10001] CT
/Helvetica 20 F
GS
[1 0 0 1 0 0] CT
-20 7 moveto 
1 -1 scale
(-3) t 
GR
GR
GS
[0.5 0 0 0.5 69.5 296.20001] CT
/Helvetica 20 F
GS
[1 0 0 1 0 0] CT
-20 7 moveto 
1 -1 scale
(-2) t 
GR
GR
GS
[0.5 0 0 0.5 69.5 269.29999] CT
/Helvetica 20 F
GS
[1 0 0 1 0 0] CT
-20 7 moveto 
1 -1 scale
(-1) t 
GR
GR
GS
[0.5 0 0 0.5 69.5 242.39999] CT
/Helvetica 20 F
GS
[1 0 0 1 0 0] CT
-13 7 moveto 
1 -1 scale
(0) t 
GR
GR
GS
[0.5 0 0 0.5 69.5 215.5] CT
/Helvetica 20 F
GS
[1 0 0 1 0 0] CT
-13 7 moveto 
1 -1 scale
(1) t 
GR
GR
GS
[0 -0.5 0.5 0 56.5 282.74994] CT
/Helvetica 22 F
GS
[1 0 0 1 0 0] CT
-127.5 -6 moveto 
1 -1 scale
(Availability of the NI [-]) t 
GR
GR
GS
[0.5 0 0 0.5 168.00015 214.125] CT
/Helvetica-Bold 22 F
GS
[1 0 0 1 0 0] CT
-159 -6 moveto 
1 -1 scale
(Availability metrics for NI) t 
GR
GR
GS
[0.5 0 0 0.5 0 0] CT
1 LJ
N
148.89 458.172 M
150.78 458.172 L
152.67 458.172 L
154.56 458.172 L
156.45 458.172 L
158.34 458.172 L
160.23 458.172 L
162.12 458.172 L
164.01 458.172 L
165.9 458.172 L
167.79 458.172 L
169.68 458.172 L
171.57 458.172 L
173.46 458.172 L
175.35 458.172 L
177.24 458.172 L
179.13 458.172 L
181.02 458.172 L
182.91 458.172 L
184.8 458.172 L
186.69 458.172 L
188.58 458.172 L
190.47 458.172 L
192.36 458.172 L
194.25 458.172 L
196.14 458.172 L
198.03 458.172 L
199.92 458.172 L
201.81 458.172 L
203.7 458.172 L
205.59 458.172 L
207.48 458.172 L
209.37 458.172 L
211.26 458.172 L
213.15 458.172 L
215.04 458.172 L
216.93 458.172 L
218.82 458.172 L
220.71 458.172 L
222.6 458.172 L
224.49 458.172 L
226.38 458.172 L
228.27 458.172 L
230.16 458.172 L
232.05 458.172 L
233.94 458.172 L
235.83 458.172 L
237.72 458.172 L
239.61 458.172 L
241.5 458.172 L
243.39 458.172 L
245.28 458.172 L
247.17 458.172 L
249.06 458.172 L
250.95 458.172 L
252.84 458.172 L
254.73 458.172 L
256.62 458.172 L
258.51 458.172 L
260.4 458.172 L
262.29 458.172 L
264.18 458.172 L
266.07 458.172 L
267.96 458.172 L
269.85 458.172 L
271.74 458.172 L
273.63 458.172 L
275.52 458.172 L
277.41 458.172 L
279.3 458.172 L
281.19 458.172 L
283.08 458.172 L
284.97 458.172 L
286.86 458.172 L
288.75 458.172 L
290.64 458.172 L
292.53 458.172 L
294.42 458.172 L
296.31 458.172 L
298.2 458.172 L
300.09 458.172 L
301.98 458.172 L
303.87 458.172 L
305.76 458.172 L
307.65 458.172 L
309.54 458.172 L
311.43 458.172 L
313.32 458.172 L
315.21 458.172 L
317.1 458.172 L
318.99 458.172 L
320.88 458.172 L
322.77 458.172 L
324.66 458.172 L
326.55 458.172 L
328.44 458.172 L
330.33 458.172 L
332.22 458.172 L
334.11 458.172 L
336 458.172 L
337.89 458.172 L
339.78 458.172 L
341.67 458.172 L
343.56 458.172 L
345.45 458.172 L
347.34 458.172 L
349.23 458.172 L
351.12 458.172 L
353.01 458.172 L
354.9 458.172 L
356.79 458.172 L
358.68 458.172 L
360.57 458.172 L
362.46 458.172 L
364.35 458.172 L
366.24 458.172 L
368.13 458.172 L
370.02 458.172 L
371.91 458.172 L
373.8 458.172 L
375.69 458.172 L
377.58 458.172 L
379.47 458.172 L
381.36 458.172 L
383.25 458.172 L
385.14 458.172 L
387.03 458.172 L
388.92 458.172 L
390.81 458.172 L
392.7 458.732 L
394.59 459.316 L
396.48 459.925 L
398.37 460.56 L
400.26 461.225 L
402.15 461.92 L
404.04 462.647 L
405.93 463.41 L
407.82 464.21 L
409.71 465.051 L
411.6 465.935 L
413.49 466.867 L
415.38 467.849 L
417.27 468.887 L
419.16 469.986 L
421.05 471.149 L
422.94 469.986 L
424.83 468.887 L
426.72 467.849 L
428.61 466.867 L
430.5 465.935 L
432.39 465.051 L
434.28 464.21 L
436.17 463.41 L
438.06 462.647 L
439.95 461.92 L
441.84 461.225 L
443.73 460.56 L
445.62 459.925 L
447.51 459.316 L
449.4 458.732 L
451.29 458.172 L
453.18 458.172 L
455.07 458.172 L
456.96 458.172 L
458.85 458.172 L
460.74 458.172 L
462.63 458.172 L
464.52 458.172 L
466.41 458.172 L
468.3 458.172 L
470.19 458.172 L
472.08 458.172 L
473.97 458.172 L
475.86 458.172 L
477.75 458.172 L
479.64 458.172 L
481.53 458.172 L
483.42 458.172 L
485.31 458.172 L
487.2 458.172 L
489.09 458.172 L
490.98 458.172 L
492.87 458.172 L
494.76 458.172 L
496.65 458.172 L
498.54 458.172 L
500.43 458.172 L
502.32 458.172 L
504.21 458.172 L
506.1 458.172 L
507.99 458.172 L
509.88 458.172 L
511.77 458.172 L
513.66 458.172 L
515.55 458.172 L
517.44 458.172 L
519.33 458.172 L
521.22 458.172 L
523.11 458.172 L
525 458.172 L
S
GR
GS
[0.5 0 0 0.5 0 0] CT
0.298 GC
1 LJ
N
147 458.172 M
525 458.172 L
S
GR
GS
[0.5 0 0 0.5 0 0] CT
1 GC
N
644 700 M
1023 700 L
1023 431 L
644 431 L
cp
f
GR
GS
[0.5 0 0 0.5 0 0] CT
0.851 GC
1 LJ
N
644 700 M
644 431 L
S
GR
GS
[0.5 0 0 0.5 0 0] CT
0.851 GC
1 LJ
N
738.75 700 M
738.75 431 L
S
GR
GS
[0.5 0 0 0.5 0 0] CT
0.851 GC
1 LJ
N
833.5 700 M
833.5 431 L
S
GR
GS
[0.5 0 0 0.5 0 0] CT
0.851 GC
1 LJ
N
928.25 700 M
928.25 431 L
S
GR
GS
[0.5 0 0 0.5 0 0] CT
0.851 GC
1 LJ
N
1023 700 M
1023 431 L
S
GR
GS
[0.5 0 0 0.5 0 0] CT
0.851 GC
1 LJ
N
1023 700 M
644 700 L
S
GR
GS
[0.5 0 0 0.5 0 0] CT
0.851 GC
1 LJ
N
1023 646.2 M
644 646.2 L
S
GR
GS
[0.5 0 0 0.5 0 0] CT
0.851 GC
1 LJ
N
1023 592.4 M
644 592.4 L
S
GR
GS
[0.5 0 0 0.5 0 0] CT
0.851 GC
1 LJ
N
1023 538.6 M
644 538.6 L
S
GR
GS
[0.5 0 0 0.5 0 0] CT
0.851 GC
1 LJ
N
1023 484.8 M
644 484.8 L
S
GR
GS
[0.5 0 0 0.5 0 0] CT
0.851 GC
1 LJ
N
1023 431 M
644 431 L
S
GR
GS
[0.5 0 0 0.5 0 0] CT
2 setlinecap
1 LJ
N
644 700 M
1023 700 L
S
GR
GS
[0.5 0 0 0.5 0 0] CT
2 setlinecap
1 LJ
N
644 431 M
1023 431 L
S
GR
GS
[0.5 0 0 0.5 0 0] CT
2 setlinecap
1 LJ
N
644 700 M
644 696.21 L
S
GR
GS
[0.5 0 0 0.5 0 0] CT
2 setlinecap
1 LJ
N
738.75 700 M
738.75 696.21 L
S
GR
GS
[0.5 0 0 0.5 0 0] CT
2 setlinecap
1 LJ
N
833.5 700 M
833.5 696.21 L
S
GR
GS
[0.5 0 0 0.5 0 0] CT
2 setlinecap
1 LJ
N
928.25 700 M
928.25 696.21 L
S
GR
GS
[0.5 0 0 0.5 0 0] CT
2 setlinecap
1 LJ
N
1023 700 M
1023 696.21 L
S
GR
GS
[0.5 0 0 0.5 0 0] CT
2 setlinecap
1 LJ
N
644 431 M
644 434.79 L
S
GR
GS
[0.5 0 0 0.5 0 0] CT
2 setlinecap
1 LJ
N
738.75 431 M
738.75 434.79 L
S
GR
GS
[0.5 0 0 0.5 0 0] CT
2 setlinecap
1 LJ
N
833.5 431 M
833.5 434.79 L
S
GR
GS
[0.5 0 0 0.5 0 0] CT
2 setlinecap
1 LJ
N
928.25 431 M
928.25 434.79 L
S
GR
GS
[0.5 0 0 0.5 0 0] CT
2 setlinecap
1 LJ
N
1023 431 M
1023 434.79 L
S
GR
GS
[0.5 0 0 0.5 322 354] CT
/Helvetica 20 F
GS
[1 0 0 1 0 0] CT
-6.5 19 moveto 
1 -1 scale
(0) t 
GR
GR
GS
[0.5 0 0 0.5 369.375 354] CT
/Helvetica 20 F
GS
[1 0 0 1 0 0] CT
-13 19 moveto 
1 -1 scale
(50) t 
GR
GR
GS
[0.5 0 0 0.5 416.75 354] CT
/Helvetica 20 F
GS
[1 0 0 1 0 0] CT
-19.5 19 moveto 
1 -1 scale
(100) t 
GR
GR
GS
[0.5 0 0 0.5 464.125 354] CT
/Helvetica 20 F
GS
[1 0 0 1 0 0] CT
-19.5 19 moveto 
1 -1 scale
(150) t 
GR
GR
GS
[0.5 0 0 0.5 511.5 354] CT
/Helvetica 20 F
GS
[1 0 0 1 0 0] CT
-19.5 19 moveto 
1 -1 scale
(200) t 
GR
GR
GS
[0.5 0 0 0.5 416.75009 367] CT
/Helvetica 22 F
GS
[1 0 0 1 0 0] CT
-45.5 21 moveto 
1 -1 scale
(Time [s]) t 
GR
GR
GS
[0.5 0 0 0.5 0 0] CT
2 setlinecap
1 LJ
N
644 700 M
644 431 L
S
GR
GS
[0.5 0 0 0.5 0 0] CT
2 setlinecap
1 LJ
N
1023 700 M
1023 431 L
S
GR
GS
[0.5 0 0 0.5 0 0] CT
2 setlinecap
1 LJ
N
644 700 M
647.79 700 L
S
GR
GS
[0.5 0 0 0.5 0 0] CT
2 setlinecap
1 LJ
N
644 646.2 M
647.79 646.2 L
S
GR
GS
[0.5 0 0 0.5 0 0] CT
2 setlinecap
1 LJ
N
644 592.4 M
647.79 592.4 L
S
GR
GS
[0.5 0 0 0.5 0 0] CT
2 setlinecap
1 LJ
N
644 538.6 M
647.79 538.6 L
S
GR
GS
[0.5 0 0 0.5 0 0] CT
2 setlinecap
1 LJ
N
644 484.8 M
647.79 484.8 L
S
GR
GS
[0.5 0 0 0.5 0 0] CT
2 setlinecap
1 LJ
N
644 431 M
647.79 431 L
S
GR
GS
[0.5 0 0 0.5 0 0] CT
2 setlinecap
1 LJ
N
1023 700 M
1019.21 700 L
S
GR
GS
[0.5 0 0 0.5 0 0] CT
2 setlinecap
1 LJ
N
1023 646.2 M
1019.21 646.2 L
S
GR
GS
[0.5 0 0 0.5 0 0] CT
2 setlinecap
1 LJ
N
1023 592.4 M
1019.21 592.4 L
S
GR
GS
[0.5 0 0 0.5 0 0] CT
2 setlinecap
1 LJ
N
1023 538.6 M
1019.21 538.6 L
S
GR
GS
[0.5 0 0 0.5 0 0] CT
2 setlinecap
1 LJ
N
1023 484.8 M
1019.21 484.8 L
S
GR
GS
[0.5 0 0 0.5 0 0] CT
2 setlinecap
1 LJ
N
1023 431 M
1019.21 431 L
S
GR
GS
[0.5 0 0 0.5 318 350] CT
/Helvetica 20 F
GS
[1 0 0 1 0 0] CT
-20 7 moveto 
1 -1 scale
(-4) t 
GR
GR
GS
[0.5 0 0 0.5 318 323.10001] CT
/Helvetica 20 F
GS
[1 0 0 1 0 0] CT
-20 7 moveto 
1 -1 scale
(-3) t 
GR
GR
GS
[0.5 0 0 0.5 318 296.20001] CT
/Helvetica 20 F
GS
[1 0 0 1 0 0] CT
-20 7 moveto 
1 -1 scale
(-2) t 
GR
GR
GS
[0.5 0 0 0.5 318 269.29999] CT
/Helvetica 20 F
GS
[1 0 0 1 0 0] CT
-20 7 moveto 
1 -1 scale
(-1) t 
GR
GR
GS
[0.5 0 0 0.5 318 242.39999] CT
/Helvetica 20 F
GS
[1 0 0 1 0 0] CT
-13 7 moveto 
1 -1 scale
(0) t 
GR
GR
GS
[0.5 0 0 0.5 318 215.5] CT
/Helvetica 20 F
GS
[1 0 0 1 0 0] CT
-13 7 moveto 
1 -1 scale
(1) t 
GR
GR
GS
[0 -0.5 0.5 0 305 282.74994] CT
/Helvetica 22 F
GS
[1 0 0 1 0 0] CT
-159 -6 moveto 
1 -1 scale
(Availability of the Storage [-]) t 
GR
GR
GS
[0.5 0 0 0.5 416.7504 214.125] CT
/Helvetica-Bold 22 F
GS
[1 0 0 1 0 0] CT
-194.5 -6 moveto 
1 -1 scale
(Availability metrics for Storage) t 
GR
GR
GS
[0.5 0 0 0.5 0 0] CT
1 LJ
N
645.895 476.648 M
647.79 476.648 L
649.685 476.648 L
651.58 476.648 L
653.475 476.648 L
655.37 476.648 L
657.265 476.648 L
659.16 476.648 L
661.055 476.648 L
662.95 476.648 L
664.845 476.648 L
666.74 476.648 L
668.635 476.648 L
670.53 476.648 L
672.425 476.648 L
674.32 476.648 L
676.215 476.648 L
678.11 476.648 L
680.005 476.648 L
681.9 476.648 L
683.795 476.648 L
685.69 476.648 L
687.585 476.648 L
689.48 476.648 L
691.375 476.648 L
693.27 476.648 L
695.165 476.648 L
697.06 476.648 L
698.955 476.648 L
700.85 476.648 L
702.745 476.648 L
704.64 476.648 L
706.535 476.648 L
708.43 476.648 L
710.325 476.648 L
712.22 476.648 L
714.115 476.648 L
716.01 476.648 L
717.905 476.648 L
719.8 476.648 L
721.695 476.648 L
723.59 476.648 L
725.485 476.648 L
727.38 476.648 L
729.275 476.648 L
731.17 476.648 L
733.065 476.648 L
734.96 476.648 L
736.855 476.648 L
738.75 476.648 L
740.645 476.648 L
742.54 476.648 L
744.435 476.648 L
746.33 476.648 L
748.225 476.648 L
750.12 476.648 L
752.015 476.648 L
753.91 476.648 L
755.805 476.648 L
757.7 476.648 L
759.595 476.648 L
761.49 476.648 L
763.385 476.648 L
765.28 476.648 L
767.175 476.648 L
769.07 476.648 L
770.965 476.648 L
772.86 476.648 L
774.755 476.648 L
776.65 476.648 L
778.545 476.648 L
780.44 476.648 L
782.335 476.648 L
784.23 476.648 L
786.125 476.648 L
788.02 476.648 L
789.915 476.648 L
791.81 476.648 L
793.705 476.648 L
795.6 476.648 L
797.495 476.648 L
799.39 476.648 L
801.285 476.648 L
803.18 476.648 L
805.075 476.648 L
806.97 476.648 L
808.865 476.648 L
810.76 476.648 L
812.655 476.648 L
814.55 476.648 L
816.445 476.648 L
818.34 476.648 L
820.235 476.648 L
822.13 476.648 L
824.025 476.648 L
825.92 476.648 L
827.815 476.648 L
829.71 476.648 L
831.605 476.648 L
833.5 476.648 L
835.395 476.648 L
837.29 476.648 L
839.185 476.648 L
841.08 476.648 L
842.975 476.648 L
844.87 476.648 L
846.765 476.648 L
848.66 476.648 L
850.555 476.648 L
852.45 476.648 L
854.345 476.648 L
856.24 476.648 L
858.135 476.648 L
860.03 476.648 L
861.925 476.648 L
863.82 476.648 L
865.715 476.648 L
867.61 476.648 L
869.505 476.648 L
871.4 476.648 L
873.295 476.648 L
875.19 476.648 L
877.085 476.648 L
878.98 476.648 L
880.875 476.648 L
882.77 476.648 L
884.665 476.648 L
886.56 476.648 L
888.455 476.648 L
890.35 476.648 L
892.245 476.648 L
894.14 476.648 L
896.035 476.648 L
897.93 476.648 L
899.825 476.648 L
901.72 476.648 L
903.615 476.648 L
905.51 476.648 L
907.405 476.648 L
909.3 476.648 L
911.195 476.648 L
913.09 476.648 L
914.985 476.648 L
916.88 476.648 L
918.775 476.648 L
920.67 476.648 L
922.565 476.648 L
924.46 476.648 L
926.355 476.648 L
928.25 476.648 L
930.145 476.648 L
932.04 476.648 L
933.935 476.648 L
935.83 476.648 L
937.725 476.648 L
939.62 476.648 L
941.515 476.648 L
943.41 476.648 L
945.305 476.648 L
947.2 477.59 L
949.095 478.571 L
950.99 479.594 L
952.885 480.662 L
954.78 481.778 L
956.675 482.945 L
958.57 484.167 L
960.465 485.448 L
962.36 486.793 L
964.255 488.205 L
966.15 489.691 L
968.045 491.256 L
969.94 492.907 L
971.835 494.651 L
973.73 496.496 L
975.625 498.451 L
977.52 500.526 L
979.415 502.733 L
981.31 505.085 L
983.205 507.597 L
985.1 510.284 L
986.995 513.167 L
988.89 516.268 L
990.785 519.612 L
992.68 523.229 L
994.575 527.153 L
996.47 531.427 L
998.365 536.098 L
1000.26 541.224 L
1002.155 546.877 L
1004.05 553.141 L
1005.945 560.12 L
1007.84 567.945 L
1009.735 576.781 L
1011.63 586.834 L
1013.525 598.378 L
1015.42 611.768 L
1017.315 627.487 L
1019.21 646.2 L
1021.105 668.853 L
1023 696.835 L
S
GR
GS
[0.5 0 0 0.5 0 0] CT
0.298 GC
1 LJ
N
644 476.648 M
1023 476.648 L
S
GR
%%Trailer
%%Pages: 1
%%EOF
