%!PS-Adobe-3.0 EPSF-3.0
%%Creator: (MATLAB, The Mathworks, Inc. Version 9.10.0.1739362 \(R2021a\) Update 5. Operating System: Linux)
%%Title: ./paramsAll.eps
%%CreationDate: 2021-09-24T15:51:20
%%Pages: (atend)
%%BoundingBox:    43    14   526   377
%%LanguageLevel: 3
%%EndComments
%%BeginProlog
%%BeginResource: procset (Apache XML Graphics Std ProcSet) 1.2 0
%%Version: 1.2 0
%%Copyright: (Copyright 2001-2003,2010 The Apache Software Foundation. License terms: http://www.apache.org/licenses/LICENSE-2.0)
/bd{bind def}bind def
/ld{load def}bd
/GR/grestore ld
/GS/gsave ld
/RM/rmoveto ld
/C/curveto ld
/t/show ld
/L/lineto ld
/ML/setmiterlimit ld
/CT/concat ld
/f/fill ld
/N/newpath ld
/S/stroke ld
/CC/setcmykcolor ld
/A/ashow ld
/cp/closepath ld
/RC/setrgbcolor ld
/LJ/setlinejoin ld
/GC/setgray ld
/LW/setlinewidth ld
/M/moveto ld
/re {4 2 roll M
1 index 0 rlineto
0 exch rlineto
neg 0 rlineto
cp } bd
/_ctm matrix def
/_tm matrix def
/BT { _ctm currentmatrix pop matrix _tm copy pop 0 0 moveto } bd
/ET { _ctm setmatrix } bd
/iTm { _ctm setmatrix _tm concat } bd
/Tm { _tm astore pop iTm 0 0 moveto } bd
/ux 0.0 def
/uy 0.0 def
/F {
  /Tp exch def
  /Tf exch def
  Tf findfont Tp scalefont setfont
  /cf Tf def  /cs Tp def
} bd
/ULS {currentpoint /uy exch def /ux exch def} bd
/ULE {
  /Tcx currentpoint pop def
  gsave
  newpath
  cf findfont cs scalefont dup
  /FontMatrix get 0 get /Ts exch def /FontInfo get dup
  /UnderlinePosition get Ts mul /To exch def
  /UnderlineThickness get Ts mul /Tt exch def
  ux uy To add moveto  Tcx uy To add lineto
  Tt setlinewidth stroke
  grestore
} bd
/OLE {
  /Tcx currentpoint pop def
  gsave
  newpath
  cf findfont cs scalefont dup
  /FontMatrix get 0 get /Ts exch def /FontInfo get dup
  /UnderlinePosition get Ts mul /To exch def
  /UnderlineThickness get Ts mul /Tt exch def
  ux uy To add cs add moveto Tcx uy To add cs add lineto
  Tt setlinewidth stroke
  grestore
} bd
/SOE {
  /Tcx currentpoint pop def
  gsave
  newpath
  cf findfont cs scalefont dup
  /FontMatrix get 0 get /Ts exch def /FontInfo get dup
  /UnderlinePosition get Ts mul /To exch def
  /UnderlineThickness get Ts mul /Tt exch def
  ux uy To add cs 10 mul 26 idiv add moveto Tcx uy To add cs 10 mul 26 idiv add lineto
  Tt setlinewidth stroke
  grestore
} bd
/QT {
/Y22 exch store
/X22 exch store
/Y21 exch store
/X21 exch store
currentpoint
/Y21 load 2 mul add 3 div exch
/X21 load 2 mul add 3 div exch
/X21 load 2 mul /X22 load add 3 div
/Y21 load 2 mul /Y22 load add 3 div
/X22 load /Y22 load curveto
} bd
/SSPD {
dup length /d exch dict def
{
/v exch def
/k exch def
currentpagedevice k known {
/cpdv currentpagedevice k get def
v cpdv ne {
/upd false def
/nullv v type /nulltype eq def
/nullcpdv cpdv type /nulltype eq def
nullv nullcpdv or
{
/upd true def
} {
/sametype v type cpdv type eq def
sametype {
v type /arraytype eq {
/vlen v length def
/cpdvlen cpdv length def
vlen cpdvlen eq {
0 1 vlen 1 sub {
/i exch def
/obj v i get def
/cpdobj cpdv i get def
obj cpdobj ne {
/upd true def
exit
} if
} for
} {
/upd true def
} ifelse
} {
v type /dicttype eq {
v {
/dv exch def
/dk exch def
/cpddv cpdv dk get def
dv cpddv ne {
/upd true def
exit
} if
} forall
} {
/upd true def
} ifelse
} ifelse
} if
} ifelse
upd true eq {
d k v put
} if
} if
} if
} forall
d length 0 gt {
d setpagedevice
} if
} bd
/RE { % /NewFontName [NewEncodingArray] /FontName RE -
  findfont dup length dict begin
  {
    1 index /FID ne
    {def} {pop pop} ifelse
  } forall
  /Encoding exch def
  /FontName 1 index def
  currentdict definefont pop
  end
} bind def
%%EndResource
%%BeginResource: procset (Apache XML Graphics EPS ProcSet) 1.0 0
%%Version: 1.0 0
%%Copyright: (Copyright 2002-2003 The Apache Software Foundation. License terms: http://www.apache.org/licenses/LICENSE-2.0)
/BeginEPSF { %def
/b4_Inc_state save def         % Save state for cleanup
/dict_count countdictstack def % Count objects on dict stack
/op_count count 1 sub def      % Count objects on operand stack
userdict begin                 % Push userdict on dict stack
/showpage { } def              % Redefine showpage, { } = null proc
0 setgray 0 setlinecap         % Prepare graphics state
1 setlinewidth 0 setlinejoin
10 setmiterlimit [ ] 0 setdash newpath
/languagelevel where           % If level not equal to 1 then
{pop languagelevel             % set strokeadjust and
1 ne                           % overprint to their defaults.
{false setstrokeadjust false setoverprint
} if
} if
} bd
/EndEPSF { %def
count op_count sub {pop} repeat            % Clean up stacks
countdictstack dict_count sub {end} repeat
b4_Inc_state restore
} bd
%%EndResource
%FOPBeginFontDict
%%IncludeResource: font Courier-Oblique
%%IncludeResource: font Courier-BoldOblique
%%IncludeResource: font Courier-Bold
%%IncludeResource: font ZapfDingbats
%%IncludeResource: font Symbol
%%IncludeResource: font Helvetica
%%IncludeResource: font Helvetica-Oblique
%%IncludeResource: font Helvetica-Bold
%%IncludeResource: font Helvetica-BoldOblique
%%IncludeResource: font Times-Roman
%%IncludeResource: font Times-Italic
%%IncludeResource: font Times-Bold
%%IncludeResource: font Times-BoldItalic
%%IncludeResource: font Courier
%FOPEndFontDict
%%BeginResource: encoding WinAnsiEncoding
/WinAnsiEncoding [
/.notdef /.notdef /.notdef /.notdef /.notdef
/.notdef /.notdef /.notdef /.notdef /.notdef
/.notdef /.notdef /.notdef /.notdef /.notdef
/.notdef /.notdef /.notdef /.notdef /.notdef
/.notdef /.notdef /.notdef /.notdef /.notdef
/.notdef /.notdef /.notdef /.notdef /.notdef
/.notdef /.notdef /space /exclam /quotedbl
/numbersign /dollar /percent /ampersand /quotesingle
/parenleft /parenright /asterisk /plus /comma
/hyphen /period /slash /zero /one
/two /three /four /five /six
/seven /eight /nine /colon /semicolon
/less /equal /greater /question /at
/A /B /C /D /E
/F /G /H /I /J
/K /L /M /N /O
/P /Q /R /S /T
/U /V /W /X /Y
/Z /bracketleft /backslash /bracketright /asciicircum
/underscore /quoteleft /a /b /c
/d /e /f /g /h
/i /j /k /l /m
/n /o /p /q /r
/s /t /u /v /w
/x /y /z /braceleft /bar
/braceright /asciitilde /bullet /Euro /bullet
/quotesinglbase /florin /quotedblbase /ellipsis /dagger
/daggerdbl /circumflex /perthousand /Scaron /guilsinglleft
/OE /bullet /Zcaron /bullet /bullet
/quoteleft /quoteright /quotedblleft /quotedblright /bullet
/endash /emdash /asciitilde /trademark /scaron
/guilsinglright /oe /bullet /zcaron /Ydieresis
/space /exclamdown /cent /sterling /currency
/yen /brokenbar /section /dieresis /copyright
/ordfeminine /guillemotleft /logicalnot /sfthyphen /registered
/macron /degree /plusminus /twosuperior /threesuperior
/acute /mu /paragraph /middot /cedilla
/onesuperior /ordmasculine /guillemotright /onequarter /onehalf
/threequarters /questiondown /Agrave /Aacute /Acircumflex
/Atilde /Adieresis /Aring /AE /Ccedilla
/Egrave /Eacute /Ecircumflex /Edieresis /Igrave
/Iacute /Icircumflex /Idieresis /Eth /Ntilde
/Ograve /Oacute /Ocircumflex /Otilde /Odieresis
/multiply /Oslash /Ugrave /Uacute /Ucircumflex
/Udieresis /Yacute /Thorn /germandbls /agrave
/aacute /acircumflex /atilde /adieresis /aring
/ae /ccedilla /egrave /eacute /ecircumflex
/edieresis /igrave /iacute /icircumflex /idieresis
/eth /ntilde /ograve /oacute /ocircumflex
/otilde /odieresis /divide /oslash /ugrave
/uacute /ucircumflex /udieresis /yacute /thorn
/ydieresis
] def
%%EndResource
%FOPBeginFontReencode
/Courier-Oblique findfont
dup length dict begin
  {1 index /FID ne {def} {pop pop} ifelse} forall
  /Encoding WinAnsiEncoding def
  currentdict
end
/Courier-Oblique exch definefont pop
/Courier-BoldOblique findfont
dup length dict begin
  {1 index /FID ne {def} {pop pop} ifelse} forall
  /Encoding WinAnsiEncoding def
  currentdict
end
/Courier-BoldOblique exch definefont pop
/Courier-Bold findfont
dup length dict begin
  {1 index /FID ne {def} {pop pop} ifelse} forall
  /Encoding WinAnsiEncoding def
  currentdict
end
/Courier-Bold exch definefont pop
/Helvetica findfont
dup length dict begin
  {1 index /FID ne {def} {pop pop} ifelse} forall
  /Encoding WinAnsiEncoding def
  currentdict
end
/Helvetica exch definefont pop
/Helvetica-Oblique findfont
dup length dict begin
  {1 index /FID ne {def} {pop pop} ifelse} forall
  /Encoding WinAnsiEncoding def
  currentdict
end
/Helvetica-Oblique exch definefont pop
/Helvetica-Bold findfont
dup length dict begin
  {1 index /FID ne {def} {pop pop} ifelse} forall
  /Encoding WinAnsiEncoding def
  currentdict
end
/Helvetica-Bold exch definefont pop
/Helvetica-BoldOblique findfont
dup length dict begin
  {1 index /FID ne {def} {pop pop} ifelse} forall
  /Encoding WinAnsiEncoding def
  currentdict
end
/Helvetica-BoldOblique exch definefont pop
/Times-Roman findfont
dup length dict begin
  {1 index /FID ne {def} {pop pop} ifelse} forall
  /Encoding WinAnsiEncoding def
  currentdict
end
/Times-Roman exch definefont pop
/Times-Italic findfont
dup length dict begin
  {1 index /FID ne {def} {pop pop} ifelse} forall
  /Encoding WinAnsiEncoding def
  currentdict
end
/Times-Italic exch definefont pop
/Times-Bold findfont
dup length dict begin
  {1 index /FID ne {def} {pop pop} ifelse} forall
  /Encoding WinAnsiEncoding def
  currentdict
end
/Times-Bold exch definefont pop
/Times-BoldItalic findfont
dup length dict begin
  {1 index /FID ne {def} {pop pop} ifelse} forall
  /Encoding WinAnsiEncoding def
  currentdict
end
/Times-BoldItalic exch definefont pop
/Courier findfont
dup length dict begin
  {1 index /FID ne {def} {pop pop} ifelse} forall
  /Encoding WinAnsiEncoding def
  currentdict
end
/Courier exch definefont pop
%FOPEndFontReencode
%%EndProlog
%%Page: 1 1
%%PageBoundingBox: 0 0 565 393
%%BeginPageSetup
[1 0 0 -1 0 393] CT
%%EndPageSetup
GS
[0.5 0 0 0.5 0 0] CT
1 GC
N
0 0 1130 786 re
f
GR
GS
[0.5 0 0 0.5 0 0] CT
1 GC
N
0 0 1130 786 re
f
GR
GS
[0.5 0 0 0.5 0 0] CT
1 GC
N
164 700 M
381 700 L
381 59 L
164 59 L
cp
f
GR
GS
[0.5 0 0 0.5 0 0] CT
0.851 GC
1 LJ
N
164 700 M
164 59 L
S
GR
GS
[0.5 0 0 0.5 0 0] CT
0.851 GC
1 LJ
N
272.5 700 M
272.5 59 L
S
GR
GS
[0.5 0 0 0.5 0 0] CT
0.851 GC
1 LJ
N
381 700 M
381 59 L
S
GR
GS
[0.5 0 0 0.5 0 0] CT
0.851 GC
1 LJ
N
381 700 M
164 700 L
S
GR
GS
[0.5 0 0 0.5 0 0] CT
0.851 GC
1 LJ
N
381 593.167 M
164 593.167 L
S
GR
GS
[0.5 0 0 0.5 0 0] CT
0.851 GC
1 LJ
N
381 486.333 M
164 486.333 L
S
GR
GS
[0.5 0 0 0.5 0 0] CT
0.851 GC
1 LJ
N
381 379.5 M
164 379.5 L
S
GR
GS
[0.5 0 0 0.5 0 0] CT
0.851 GC
1 LJ
N
381 272.667 M
164 272.667 L
S
GR
GS
[0.5 0 0 0.5 0 0] CT
0.851 GC
1 LJ
N
381 165.833 M
164 165.833 L
S
GR
GS
[0.5 0 0 0.5 0 0] CT
0.851 GC
1 LJ
N
381 59 M
164 59 L
S
GR
GS
[0.5 0 0 0.5 0 0] CT
2 setlinecap
1 LJ
N
164 700 M
381 700 L
S
GR
GS
[0.5 0 0 0.5 0 0] CT
2 setlinecap
1 LJ
N
164 59 M
381 59 L
S
GR
GS
[0.5 0 0 0.5 0 0] CT
2 setlinecap
1 LJ
N
164 700 M
164 693.59 L
S
GR
GS
[0.5 0 0 0.5 0 0] CT
2 setlinecap
1 LJ
N
272.5 700 M
272.5 693.59 L
S
GR
GS
[0.5 0 0 0.5 0 0] CT
2 setlinecap
1 LJ
N
381 700 M
381 693.59 L
S
GR
GS
[0.5 0 0 0.5 0 0] CT
2 setlinecap
1 LJ
N
164 59 M
164 65.41 L
S
GR
GS
[0.5 0 0 0.5 0 0] CT
2 setlinecap
1 LJ
N
272.5 59 M
272.5 65.41 L
S
GR
GS
[0.5 0 0 0.5 0 0] CT
2 setlinecap
1 LJ
N
381 59 M
381 65.41 L
S
GR
GS
[0.5 0 0 0.5 82 354] CT
/Helvetica 20 F
GS
[1 0 0 1 0 0] CT
-6.5 19 moveto 
1 -1 scale
(0) t 
GR
GR
GS
[0.5 0 0 0.5 136.25 354] CT
/Helvetica 20 F
GS
[1 0 0 1 0 0] CT
-19.5 19 moveto 
1 -1 scale
(100) t 
GR
GR
GS
[0.5 0 0 0.5 190.5 354] CT
/Helvetica 20 F
GS
[1 0 0 1 0 0] CT
-19.5 19 moveto 
1 -1 scale
(200) t 
GR
GR
GS
[0.5 0 0 0.5 136.25005 367] CT
/Helvetica 22 F
GS
[1 0 0 1 0 0] CT
-45.5 21 moveto 
1 -1 scale
(Time [s]) t 
GR
GR
GS
[0.5 0 0 0.5 0 0] CT
2 setlinecap
1 LJ
N
164 700 M
164 59 L
S
GR
GS
[0.5 0 0 0.5 0 0] CT
2 setlinecap
1 LJ
N
381 700 M
381 59 L
S
GR
GS
[0.5 0 0 0.5 0 0] CT
2 setlinecap
1 LJ
N
164 700 M
170.41 700 L
S
GR
GS
[0.5 0 0 0.5 0 0] CT
2 setlinecap
1 LJ
N
164 593.167 M
170.41 593.167 L
S
GR
GS
[0.5 0 0 0.5 0 0] CT
2 setlinecap
1 LJ
N
164 486.333 M
170.41 486.333 L
S
GR
GS
[0.5 0 0 0.5 0 0] CT
2 setlinecap
1 LJ
N
164 379.5 M
170.41 379.5 L
S
GR
GS
[0.5 0 0 0.5 0 0] CT
2 setlinecap
1 LJ
N
164 272.667 M
170.41 272.667 L
S
GR
GS
[0.5 0 0 0.5 0 0] CT
2 setlinecap
1 LJ
N
164 165.833 M
170.41 165.833 L
S
GR
GS
[0.5 0 0 0.5 0 0] CT
2 setlinecap
1 LJ
N
164 59 M
170.41 59 L
S
GR
GS
[0.5 0 0 0.5 0 0] CT
2 setlinecap
1 LJ
N
381 700 M
374.59 700 L
S
GR
GS
[0.5 0 0 0.5 0 0] CT
2 setlinecap
1 LJ
N
381 593.167 M
374.59 593.167 L
S
GR
GS
[0.5 0 0 0.5 0 0] CT
2 setlinecap
1 LJ
N
381 486.333 M
374.59 486.333 L
S
GR
GS
[0.5 0 0 0.5 0 0] CT
2 setlinecap
1 LJ
N
381 379.5 M
374.59 379.5 L
S
GR
GS
[0.5 0 0 0.5 0 0] CT
2 setlinecap
1 LJ
N
381 272.667 M
374.59 272.667 L
S
GR
GS
[0.5 0 0 0.5 0 0] CT
2 setlinecap
1 LJ
N
381 165.833 M
374.59 165.833 L
S
GR
GS
[0.5 0 0 0.5 0 0] CT
2 setlinecap
1 LJ
N
381 59 M
374.59 59 L
S
GR
GS
[0.5 0 0 0.5 78 350] CT
/Helvetica 20 F
GS
[1 0 0 1 0 0] CT
-20 7 moveto 
1 -1 scale
(-2) t 
GR
GR
GS
[0.5 0 0 0.5 78 296.58334] CT
/Helvetica 20 F
GS
[1 0 0 1 0 0] CT
-40 7 moveto 
1 -1 scale
(-1.5) t 
GR
GR
GS
[0.5 0 0 0.5 78 243.16667] CT
/Helvetica 20 F
GS
[1 0 0 1 0 0] CT
-20 7 moveto 
1 -1 scale
(-1) t 
GR
GR
GS
[0.5 0 0 0.5 78 189.75] CT
/Helvetica 20 F
GS
[1 0 0 1 0 0] CT
-40 7 moveto 
1 -1 scale
(-0.5) t 
GR
GR
GS
[0.5 0 0 0.5 78 136.33333] CT
/Helvetica 20 F
GS
[1 0 0 1 0 0] CT
-13 7 moveto 
1 -1 scale
(0) t 
GR
GR
GS
[0.5 0 0 0.5 78 82.91666] CT
/Helvetica 20 F
GS
[1 0 0 1 0 0] CT
-32 7 moveto 
1 -1 scale
(0.5) t 
GR
GR
GS
[0.5 0 0 0.5 78 29.5] CT
/Helvetica 20 F
GS
[1 0 0 1 0 0] CT
-13 7 moveto 
1 -1 scale
(1) t 
GR
GR
GS
[0 -0.5 0.5 0 55 189.74985] CT
/Helvetica 22 F
GS
[1 0 0 1 0 0] CT
-68.5 -6 moveto 
1 -1 scale
(Workload [-]) t 
GR
GR
GS
[0.5 0 0 0.5 136.25014 28.125] CT
/Helvetica-Bold 22 F
GS
[1 0 0 1 0 0] CT
-128.5 -6 moveto 
1 -1 scale
(Workload parameter) t 
GR
GR
GS
[0.5 0 0 0.5 0 0] CT
1 LJ
N
165.085 149.458 M
166.17 148.45 L
167.255 160.881 L
168.34 148.414 L
169.425 155.002 L
170.51 161.43 L
171.595 157.737 L
172.68 144.892 L
173.765 127.715 L
174.85 154.945 L
175.935 155.062 L
177.02 150.944 L
178.105 149.531 L
179.19 155.07 L
180.275 151.993 L
181.36 157.081 L
182.445 138.52 L
183.53 149.584 L
184.615 152.653 L
185.7 154.904 L
186.785 154.905 L
187.87 163.576 L
188.955 168.871 L
190.04 157.817 L
191.125 226.928 L
192.21 233.022 L
193.295 250.434 L
194.38 231.571 L
195.465 221.037 L
196.55 244.326 L
197.635 215.686 L
198.72 215.785 L
199.805 224.071 L
200.89 230.118 L
201.975 221.023 L
203.06 228.636 L
204.145 211.433 L
205.23 221.41 L
206.315 216.265 L
207.4 234.121 L
208.485 219.535 L
209.57 220.113 L
210.655 234.46 L
211.74 220.584 L
212.825 215.727 L
213.91 232.825 L
214.995 229.165 L
216.08 235.178 L
217.165 217.985 L
218.25 225.487 L
219.335 156.337 L
220.42 143.303 L
221.505 153.331 L
222.59 152.883 L
223.675 157.463 L
224.76 154.341 L
225.845 162.341 L
226.93 140.655 L
228.015 154.059 L
229.1 151.549 L
230.185 164.105 L
231.27 155.276 L
232.355 167.691 L
233.44 157.553 L
234.525 166.062 L
235.61 155.523 L
236.695 161.87 L
237.78 145.488 L
238.865 131.546 L
239.95 241.45 L
241.035 234.411 L
242.12 230.897 L
243.205 231.368 L
244.29 234.856 L
245.375 231.568 L
246.46 225.995 L
247.545 240.811 L
248.63 239.122 L
249.715 238.55 L
250.8 235.702 L
251.885 233.12 L
252.97 245.458 L
254.055 233.193 L
255.14 219.772 L
256.225 225.416 L
257.31 239.509 L
258.395 226.374 L
259.48 233.613 L
260.565 235.067 L
261.65 231.278 L
262.735 223.119 L
263.82 237.006 L
264.905 236.927 L
265.99 235.906 L
267.075 236.749 L
268.16 228.672 L
269.245 230.156 L
270.33 233.05 L
271.415 241.382 L
272.5 236.542 L
273.585 143.448 L
274.67 165.512 L
275.755 154.028 L
276.84 163.059 L
277.925 149.374 L
279.01 149.065 L
280.095 166.004 L
281.18 158.435 L
282.265 158.493 L
283.35 160.705 L
284.435 155.267 L
285.52 151.762 L
286.605 142.514 L
287.69 147.386 L
288.775 161.315 L
289.86 165.433 L
290.945 163.738 L
292.03 168.544 L
293.115 151.535 L
294.2 169.823 L
295.285 164.118 L
296.37 146.729 L
297.455 154.805 L
298.54 159.443 L
299.625 165.84 L
300.71 154.401 L
301.795 147.616 L
302.88 156.061 L
303.965 140.893 L
305.05 259.288 L
306.135 265.162 L
307.22 258.436 L
308.305 263.738 L
309.39 256.369 L
310.475 254.981 L
311.56 256.373 L
312.645 264.002 L
313.73 264.8 L
314.815 261.678 L
315.9 257.15 L
316.985 258.622 L
318.07 259.835 L
319.155 261.11 L
320.24 265.074 L
321.325 254.126 L
322.41 159.18 L
323.495 159.354 L
324.58 166.672 L
325.665 179.177 L
326.75 164.495 L
327.835 158.853 L
328.92 171.09 L
330.005 156.187 L
331.09 159.681 L
332.175 158.574 L
333.26 164.143 L
334.345 172.671 L
335.43 146.469 L
336.515 151.387 L
337.6 252.104 L
338.685 234.48 L
339.77 239.702 L
340.855 248.055 L
341.94 240.78 L
343.025 244.469 L
344.11 235.001 L
345.195 245.289 L
346.28 237.641 L
347.365 250.402 L
348.45 245.137 L
349.535 240.485 L
350.62 250.293 L
351.705 264.022 L
352.79 249.614 L
353.875 250.779 L
354.96 255.444 L
356.045 250.458 L
357.13 248.118 L
358.215 250.921 L
359.3 253.42 L
360.385 256.436 L
361.47 247.139 L
362.555 250.885 L
363.64 247.833 L
364.725 253.11 L
365.81 173.615 L
366.895 164.605 L
367.98 168.5 L
369.065 166.449 L
370.15 166.158 L
371.235 160.707 L
372.32 157.529 L
373.405 156.372 L
374.49 171.154 L
375.575 164.37 L
376.66 164.086 L
377.745 158.728 L
378.83 150.523 L
379.915 172.863 L
381 162.283 L
S
GR
GS
[0.5 0 0 0.5 0 0] CT
0.298 GC
1 LJ
N
164 155.854 M
381 155.854 L
S
GR
GS
[0.5 0 0 0.5 0 0] CT
1 GC
N
482 700 M
699 700 L
699 59 L
482 59 L
cp
f
GR
GS
[0.5 0 0 0.5 0 0] CT
0.851 GC
1 LJ
N
482 700 M
482 59 L
S
GR
GS
[0.5 0 0 0.5 0 0] CT
0.851 GC
1 LJ
N
590.5 700 M
590.5 59 L
S
GR
GS
[0.5 0 0 0.5 0 0] CT
0.851 GC
1 LJ
N
699 700 M
699 59 L
S
GR
GS
[0.5 0 0 0.5 0 0] CT
0.851 GC
1 LJ
N
699 700 M
482 700 L
S
GR
GS
[0.5 0 0 0.5 0 0] CT
0.851 GC
1 LJ
N
699 593.167 M
482 593.167 L
S
GR
GS
[0.5 0 0 0.5 0 0] CT
0.851 GC
1 LJ
N
699 486.333 M
482 486.333 L
S
GR
GS
[0.5 0 0 0.5 0 0] CT
0.851 GC
1 LJ
N
699 379.5 M
482 379.5 L
S
GR
GS
[0.5 0 0 0.5 0 0] CT
0.851 GC
1 LJ
N
699 272.667 M
482 272.667 L
S
GR
GS
[0.5 0 0 0.5 0 0] CT
0.851 GC
1 LJ
N
699 165.833 M
482 165.833 L
S
GR
GS
[0.5 0 0 0.5 0 0] CT
0.851 GC
1 LJ
N
699 59 M
482 59 L
S
GR
GS
[0.5 0 0 0.5 0 0] CT
2 setlinecap
1 LJ
N
482 700 M
699 700 L
S
GR
GS
[0.5 0 0 0.5 0 0] CT
2 setlinecap
1 LJ
N
482 59 M
699 59 L
S
GR
GS
[0.5 0 0 0.5 0 0] CT
2 setlinecap
1 LJ
N
482 700 M
482 693.59 L
S
GR
GS
[0.5 0 0 0.5 0 0] CT
2 setlinecap
1 LJ
N
590.5 700 M
590.5 693.59 L
S
GR
GS
[0.5 0 0 0.5 0 0] CT
2 setlinecap
1 LJ
N
699 700 M
699 693.59 L
S
GR
GS
[0.5 0 0 0.5 0 0] CT
2 setlinecap
1 LJ
N
482 59 M
482 65.41 L
S
GR
GS
[0.5 0 0 0.5 0 0] CT
2 setlinecap
1 LJ
N
590.5 59 M
590.5 65.41 L
S
GR
GS
[0.5 0 0 0.5 0 0] CT
2 setlinecap
1 LJ
N
699 59 M
699 65.41 L
S
GR
GS
[0.5 0 0 0.5 241 354] CT
/Helvetica 20 F
GS
[1 0 0 1 0 0] CT
-6.5 19 moveto 
1 -1 scale
(0) t 
GR
GR
GS
[0.5 0 0 0.5 295.25 354] CT
/Helvetica 20 F
GS
[1 0 0 1 0 0] CT
-19.5 19 moveto 
1 -1 scale
(100) t 
GR
GR
GS
[0.5 0 0 0.5 349.5 354] CT
/Helvetica 20 F
GS
[1 0 0 1 0 0] CT
-19.5 19 moveto 
1 -1 scale
(200) t 
GR
GR
GS
[0.5 0 0 0.5 295.25006 367] CT
/Helvetica 22 F
GS
[1 0 0 1 0 0] CT
-45.5 21 moveto 
1 -1 scale
(Time [s]) t 
GR
GR
GS
[0.5 0 0 0.5 0 0] CT
2 setlinecap
1 LJ
N
482 700 M
482 59 L
S
GR
GS
[0.5 0 0 0.5 0 0] CT
2 setlinecap
1 LJ
N
699 700 M
699 59 L
S
GR
GS
[0.5 0 0 0.5 0 0] CT
2 setlinecap
1 LJ
N
482 700 M
488.41 700 L
S
GR
GS
[0.5 0 0 0.5 0 0] CT
2 setlinecap
1 LJ
N
482 593.167 M
488.41 593.167 L
S
GR
GS
[0.5 0 0 0.5 0 0] CT
2 setlinecap
1 LJ
N
482 486.333 M
488.41 486.333 L
S
GR
GS
[0.5 0 0 0.5 0 0] CT
2 setlinecap
1 LJ
N
482 379.5 M
488.41 379.5 L
S
GR
GS
[0.5 0 0 0.5 0 0] CT
2 setlinecap
1 LJ
N
482 272.667 M
488.41 272.667 L
S
GR
GS
[0.5 0 0 0.5 0 0] CT
2 setlinecap
1 LJ
N
482 165.833 M
488.41 165.833 L
S
GR
GS
[0.5 0 0 0.5 0 0] CT
2 setlinecap
1 LJ
N
482 59 M
488.41 59 L
S
GR
GS
[0.5 0 0 0.5 0 0] CT
2 setlinecap
1 LJ
N
699 700 M
692.59 700 L
S
GR
GS
[0.5 0 0 0.5 0 0] CT
2 setlinecap
1 LJ
N
699 593.167 M
692.59 593.167 L
S
GR
GS
[0.5 0 0 0.5 0 0] CT
2 setlinecap
1 LJ
N
699 486.333 M
692.59 486.333 L
S
GR
GS
[0.5 0 0 0.5 0 0] CT
2 setlinecap
1 LJ
N
699 379.5 M
692.59 379.5 L
S
GR
GS
[0.5 0 0 0.5 0 0] CT
2 setlinecap
1 LJ
N
699 272.667 M
692.59 272.667 L
S
GR
GS
[0.5 0 0 0.5 0 0] CT
2 setlinecap
1 LJ
N
699 165.833 M
692.59 165.833 L
S
GR
GS
[0.5 0 0 0.5 0 0] CT
2 setlinecap
1 LJ
N
699 59 M
692.59 59 L
S
GR
GS
[0.5 0 0 0.5 237 350] CT
/Helvetica 20 F
GS
[1 0 0 1 0 0] CT
-20 7 moveto 
1 -1 scale
(-2) t 
GR
GR
GS
[0.5 0 0 0.5 237 296.58334] CT
/Helvetica 20 F
GS
[1 0 0 1 0 0] CT
-40 7 moveto 
1 -1 scale
(-1.5) t 
GR
GR
GS
[0.5 0 0 0.5 237 243.16667] CT
/Helvetica 20 F
GS
[1 0 0 1 0 0] CT
-20 7 moveto 
1 -1 scale
(-1) t 
GR
GR
GS
[0.5 0 0 0.5 237 189.75] CT
/Helvetica 20 F
GS
[1 0 0 1 0 0] CT
-40 7 moveto 
1 -1 scale
(-0.5) t 
GR
GR
GS
[0.5 0 0 0.5 237 136.33333] CT
/Helvetica 20 F
GS
[1 0 0 1 0 0] CT
-13 7 moveto 
1 -1 scale
(0) t 
GR
GR
GS
[0.5 0 0 0.5 237 82.91666] CT
/Helvetica 20 F
GS
[1 0 0 1 0 0] CT
-32 7 moveto 
1 -1 scale
(0.5) t 
GR
GR
GS
[0.5 0 0 0.5 237 29.5] CT
/Helvetica 20 F
GS
[1 0 0 1 0 0] CT
-13 7 moveto 
1 -1 scale
(1) t 
GR
GR
GS
[0 -0.5 0.5 0 214 189.74985] CT
/Helvetica 22 F
GS
[1 0 0 1 0 0] CT
-106.5 -6 moveto 
1 -1 scale
(ARPT parameter [-]) t 
GR
GR
GS
[0.5 0 0 0.5 295.25027 28.125] CT
/Helvetica-Bold 22 F
GS
[1 0 0 1 0 0] CT
-102 -6 moveto 
1 -1 scale
(ARPT parameter) t 
GR
GR
GS
[0.5 0 0 0.5 0 0] CT
1 LJ
N
483.085 180.214 M
484.17 167.751 L
485.255 181.912 L
486.34 181.811 L
487.425 181.908 L
488.51 182.025 L
489.595 182.883 L
490.68 184.535 L
491.765 179.886 L
492.85 181.286 L
493.935 174.895 L
495.02 177.661 L
496.105 187.258 L
497.19 171.643 L
498.275 176.554 L
499.36 190.62 L
500.445 180.982 L
501.53 183.995 L
502.615 186.742 L
503.7 173.113 L
504.785 188.057 L
505.87 185.219 L
506.955 178.47 L
508.04 177.545 L
509.125 230.264 L
510.21 230.182 L
511.295 233.285 L
512.38 239.787 L
513.465 229.785 L
514.55 238.357 L
515.635 238.277 L
516.72 231.157 L
517.805 230.751 L
518.89 235.665 L
519.975 236.304 L
521.06 229.633 L
522.145 228.689 L
523.23 237.956 L
524.315 228.796 L
525.4 231.424 L
526.485 230.045 L
527.57 234.187 L
528.655 229.789 L
529.74 227.131 L
530.825 233.56 L
531.91 223.757 L
532.995 239.101 L
534.08 230.931 L
535.165 229.096 L
536.25 232.688 L
537.335 187.595 L
538.42 185.674 L
539.505 181.476 L
540.59 186.445 L
541.675 177.813 L
542.76 179.27 L
543.845 182.042 L
544.93 181.948 L
546.015 180.547 L
547.1 178.663 L
548.185 181.157 L
549.27 182.323 L
550.355 177.222 L
551.44 179.685 L
552.525 174.04 L
553.61 183.525 L
554.695 185.214 L
555.78 178.798 L
556.865 185.251 L
557.95 356.692 L
559.035 360.974 L
560.12 356.038 L
561.205 361.221 L
562.29 355.472 L
563.375 353.647 L
564.46 358.896 L
565.545 356.126 L
566.63 355.774 L
567.715 358.673 L
568.8 359.15 L
569.885 350.958 L
570.97 353.189 L
572.055 359.225 L
573.14 361.152 L
574.225 360.037 L
575.31 359.685 L
576.395 360.732 L
577.48 363.973 L
578.565 358.081 L
579.65 353.449 L
580.735 358.156 L
581.82 362.557 L
582.905 360.713 L
583.99 360.132 L
585.075 361.436 L
586.16 358.814 L
587.245 367.83 L
588.33 362.918 L
589.415 359.482 L
590.5 361.426 L
591.585 188.531 L
592.67 178.732 L
593.755 190.262 L
594.84 182.012 L
595.925 189.876 L
597.01 190.803 L
598.095 185.589 L
599.18 186.866 L
600.265 181.613 L
601.35 186.39 L
602.435 182.565 L
603.52 183.247 L
604.605 186.085 L
605.69 182.391 L
606.775 185.78 L
607.86 184.89 L
608.945 186.87 L
610.03 181.847 L
611.115 185.103 L
612.2 182.954 L
613.285 183.344 L
614.37 180.701 L
615.455 187.692 L
616.54 183.417 L
617.625 183.108 L
618.71 178.108 L
619.795 188.964 L
620.88 187.718 L
621.965 182.616 L
623.05 412.52 L
624.135 409.138 L
625.22 409.565 L
626.305 409.997 L
627.39 413.464 L
628.475 417.453 L
629.56 413.984 L
630.645 417.909 L
631.73 422.628 L
632.815 404.777 L
633.9 410.526 L
634.985 409.725 L
636.07 410.516 L
637.155 413.847 L
638.24 413.581 L
639.325 416.408 L
640.41 186.993 L
641.495 183.69 L
642.58 186.163 L
643.665 185.569 L
644.75 189.563 L
645.835 184.145 L
646.92 192.998 L
648.005 187.455 L
649.09 183.817 L
650.175 188.49 L
651.26 186.894 L
652.345 184.257 L
653.43 188.027 L
654.515 178.867 L
655.6 267.58 L
656.685 269.325 L
657.77 271.302 L
658.855 270.889 L
659.94 274.846 L
661.025 271.688 L
662.11 274.457 L
663.195 270.286 L
664.28 274.623 L
665.365 270.596 L
666.45 272.252 L
667.535 274.646 L
668.62 273.487 L
669.705 274.864 L
670.79 272.768 L
671.875 270.427 L
672.96 269.216 L
674.045 273.808 L
675.13 272.964 L
676.215 277.137 L
677.3 272.022 L
678.385 271.292 L
679.47 272.106 L
680.555 272.711 L
681.64 270.942 L
682.725 273.084 L
683.81 205.886 L
684.895 198.101 L
685.98 195.48 L
687.065 199.329 L
688.15 201.562 L
689.235 194.821 L
690.32 197.895 L
691.405 192.882 L
692.49 196.934 L
693.575 193.942 L
694.66 191.464 L
695.745 201.477 L
696.83 204.863 L
697.915 195.195 L
699 199.033 L
S
GR
GS
[0.5 0 0 0.5 0 0] CT
0.298 GC
1 LJ
N
482 182.689 M
699 182.689 L
S
GR
GS
[0.5 0 0 0.5 0 0] CT
1 GC
N
799 700 M
1016 700 L
1016 59 L
799 59 L
cp
f
GR
GS
[0.5 0 0 0.5 0 0] CT
0.851 GC
1 LJ
N
799 700 M
799 59 L
S
GR
GS
[0.5 0 0 0.5 0 0] CT
0.851 GC
1 LJ
N
907.5 700 M
907.5 59 L
S
GR
GS
[0.5 0 0 0.5 0 0] CT
0.851 GC
1 LJ
N
1016 700 M
1016 59 L
S
GR
GS
[0.5 0 0 0.5 0 0] CT
0.851 GC
1 LJ
N
1016 700 M
799 700 L
S
GR
GS
[0.5 0 0 0.5 0 0] CT
0.851 GC
1 LJ
N
1016 593.167 M
799 593.167 L
S
GR
GS
[0.5 0 0 0.5 0 0] CT
0.851 GC
1 LJ
N
1016 486.333 M
799 486.333 L
S
GR
GS
[0.5 0 0 0.5 0 0] CT
0.851 GC
1 LJ
N
1016 379.5 M
799 379.5 L
S
GR
GS
[0.5 0 0 0.5 0 0] CT
0.851 GC
1 LJ
N
1016 272.667 M
799 272.667 L
S
GR
GS
[0.5 0 0 0.5 0 0] CT
0.851 GC
1 LJ
N
1016 165.833 M
799 165.833 L
S
GR
GS
[0.5 0 0 0.5 0 0] CT
0.851 GC
1 LJ
N
1016 59 M
799 59 L
S
GR
GS
[0.5 0 0 0.5 0 0] CT
2 setlinecap
1 LJ
N
799 700 M
1016 700 L
S
GR
GS
[0.5 0 0 0.5 0 0] CT
2 setlinecap
1 LJ
N
799 59 M
1016 59 L
S
GR
GS
[0.5 0 0 0.5 0 0] CT
2 setlinecap
1 LJ
N
799 700 M
799 693.59 L
S
GR
GS
[0.5 0 0 0.5 0 0] CT
2 setlinecap
1 LJ
N
907.5 700 M
907.5 693.59 L
S
GR
GS
[0.5 0 0 0.5 0 0] CT
2 setlinecap
1 LJ
N
1016 700 M
1016 693.59 L
S
GR
GS
[0.5 0 0 0.5 0 0] CT
2 setlinecap
1 LJ
N
799 59 M
799 65.41 L
S
GR
GS
[0.5 0 0 0.5 0 0] CT
2 setlinecap
1 LJ
N
907.5 59 M
907.5 65.41 L
S
GR
GS
[0.5 0 0 0.5 0 0] CT
2 setlinecap
1 LJ
N
1016 59 M
1016 65.41 L
S
GR
GS
[0.5 0 0 0.5 399.5 354] CT
/Helvetica 20 F
GS
[1 0 0 1 0 0] CT
-6.5 19 moveto 
1 -1 scale
(0) t 
GR
GR
GS
[0.5 0 0 0.5 453.75 354] CT
/Helvetica 20 F
GS
[1 0 0 1 0 0] CT
-19.5 19 moveto 
1 -1 scale
(100) t 
GR
GR
GS
[0.5 0 0 0.5 508 354] CT
/Helvetica 20 F
GS
[1 0 0 1 0 0] CT
-19.5 19 moveto 
1 -1 scale
(200) t 
GR
GR
GS
[0.5 0 0 0.5 453.75006 367] CT
/Helvetica 22 F
GS
[1 0 0 1 0 0] CT
-45.5 21 moveto 
1 -1 scale
(Time [s]) t 
GR
GR
GS
[0.5 0 0 0.5 0 0] CT
2 setlinecap
1 LJ
N
799 700 M
799 59 L
S
GR
GS
[0.5 0 0 0.5 0 0] CT
2 setlinecap
1 LJ
N
1016 700 M
1016 59 L
S
GR
GS
[0.5 0 0 0.5 0 0] CT
2 setlinecap
1 LJ
N
799 700 M
805.41 700 L
S
GR
GS
[0.5 0 0 0.5 0 0] CT
2 setlinecap
1 LJ
N
799 593.167 M
805.41 593.167 L
S
GR
GS
[0.5 0 0 0.5 0 0] CT
2 setlinecap
1 LJ
N
799 486.333 M
805.41 486.333 L
S
GR
GS
[0.5 0 0 0.5 0 0] CT
2 setlinecap
1 LJ
N
799 379.5 M
805.41 379.5 L
S
GR
GS
[0.5 0 0 0.5 0 0] CT
2 setlinecap
1 LJ
N
799 272.667 M
805.41 272.667 L
S
GR
GS
[0.5 0 0 0.5 0 0] CT
2 setlinecap
1 LJ
N
799 165.833 M
805.41 165.833 L
S
GR
GS
[0.5 0 0 0.5 0 0] CT
2 setlinecap
1 LJ
N
799 59 M
805.41 59 L
S
GR
GS
[0.5 0 0 0.5 0 0] CT
2 setlinecap
1 LJ
N
1016 700 M
1009.59 700 L
S
GR
GS
[0.5 0 0 0.5 0 0] CT
2 setlinecap
1 LJ
N
1016 593.167 M
1009.59 593.167 L
S
GR
GS
[0.5 0 0 0.5 0 0] CT
2 setlinecap
1 LJ
N
1016 486.333 M
1009.59 486.333 L
S
GR
GS
[0.5 0 0 0.5 0 0] CT
2 setlinecap
1 LJ
N
1016 379.5 M
1009.59 379.5 L
S
GR
GS
[0.5 0 0 0.5 0 0] CT
2 setlinecap
1 LJ
N
1016 272.667 M
1009.59 272.667 L
S
GR
GS
[0.5 0 0 0.5 0 0] CT
2 setlinecap
1 LJ
N
1016 165.833 M
1009.59 165.833 L
S
GR
GS
[0.5 0 0 0.5 0 0] CT
2 setlinecap
1 LJ
N
1016 59 M
1009.59 59 L
S
GR
GS
[0.5 0 0 0.5 395.5 350] CT
/Helvetica 20 F
GS
[1 0 0 1 0 0] CT
-20 7 moveto 
1 -1 scale
(-2) t 
GR
GR
GS
[0.5 0 0 0.5 395.5 296.58334] CT
/Helvetica 20 F
GS
[1 0 0 1 0 0] CT
-40 7 moveto 
1 -1 scale
(-1.5) t 
GR
GR
GS
[0.5 0 0 0.5 395.5 243.16667] CT
/Helvetica 20 F
GS
[1 0 0 1 0 0] CT
-20 7 moveto 
1 -1 scale
(-1) t 
GR
GR
GS
[0.5 0 0 0.5 395.5 189.75] CT
/Helvetica 20 F
GS
[1 0 0 1 0 0] CT
-40 7 moveto 
1 -1 scale
(-0.5) t 
GR
GR
GS
[0.5 0 0 0.5 395.5 136.33333] CT
/Helvetica 20 F
GS
[1 0 0 1 0 0] CT
-13 7 moveto 
1 -1 scale
(0) t 
GR
GR
GS
[0.5 0 0 0.5 395.5 82.91666] CT
/Helvetica 20 F
GS
[1 0 0 1 0 0] CT
-32 7 moveto 
1 -1 scale
(0.5) t 
GR
GR
GS
[0.5 0 0 0.5 395.5 29.5] CT
/Helvetica 20 F
GS
[1 0 0 1 0 0] CT
-13 7 moveto 
1 -1 scale
(1) t 
GR
GR
GS
[0 -0.5 0.5 0 372.5 189.74985] CT
/Helvetica 22 F
GS
[1 0 0 1 0 0] CT
-138.5 -6 moveto 
1 -1 scale
(Availability parameter [-]) t 
GR
GR
GS
[0.5 0 0 0.5 453.75043 28.125] CT
/Helvetica-Bold 22 F
GS
[1 0 0 1 0 0] CT
-139 -6 moveto 
1 -1 scale
(Availability parameter) t 
GR
GR
GS
[0.5 0 0 0.5 0 0] CT
1 LJ
N
800.085 242.861 M
801.17 242.861 L
802.255 242.861 L
803.34 242.861 L
804.425 242.861 L
805.51 242.861 L
806.595 242.861 L
807.68 242.861 L
808.765 242.861 L
809.85 242.861 L
810.935 242.861 L
812.02 242.861 L
813.105 242.861 L
814.19 242.861 L
815.275 242.861 L
816.36 242.861 L
817.445 242.861 L
818.53 242.861 L
819.615 242.861 L
820.7 242.861 L
821.785 242.861 L
822.87 242.861 L
823.955 242.861 L
825.04 242.861 L
826.125 242.861 L
827.21 242.861 L
828.295 242.861 L
829.38 242.861 L
830.465 242.861 L
831.55 242.861 L
832.635 242.861 L
833.72 242.861 L
834.805 242.861 L
835.89 242.861 L
836.975 242.861 L
838.06 242.861 L
839.145 242.861 L
840.23 242.861 L
841.315 242.861 L
842.4 242.861 L
843.485 242.861 L
844.57 242.861 L
845.655 242.861 L
846.74 242.861 L
847.825 242.861 L
848.91 242.861 L
849.995 242.861 L
851.08 242.861 L
852.165 242.861 L
853.25 242.861 L
854.335 242.861 L
855.42 242.861 L
856.505 242.861 L
857.59 242.861 L
858.675 242.861 L
859.76 242.861 L
860.845 242.861 L
861.93 242.861 L
863.015 242.861 L
864.1 242.861 L
865.185 242.861 L
866.27 242.861 L
867.355 242.861 L
868.44 242.861 L
869.525 242.861 L
870.61 242.861 L
871.695 242.861 L
872.78 242.861 L
873.865 242.861 L
874.95 244.764 L
876.035 246.746 L
877.12 248.814 L
878.205 250.972 L
879.29 253.228 L
880.375 255.587 L
881.46 258.058 L
882.545 260.647 L
883.63 263.365 L
884.715 266.22 L
885.8 269.223 L
886.885 272.386 L
887.97 275.723 L
889.055 279.247 L
890.14 282.977 L
891.225 286.928 L
892.31 291.123 L
893.395 295.584 L
894.48 300.338 L
895.565 305.414 L
896.65 310.846 L
897.735 316.673 L
898.82 322.94 L
899.905 329.699 L
900.99 337.009 L
902.075 344.942 L
903.16 353.579 L
904.245 363.021 L
905.33 373.383 L
906.415 384.808 L
907.5 397.468 L
908.585 384.808 L
909.67 373.383 L
910.755 363.021 L
911.84 353.579 L
912.925 344.942 L
914.01 337.009 L
915.095 329.699 L
916.18 322.94 L
917.265 316.673 L
918.35 310.846 L
919.435 305.414 L
920.52 300.338 L
921.605 295.584 L
922.69 291.123 L
923.775 286.928 L
924.86 282.977 L
925.945 279.247 L
927.03 275.723 L
928.115 272.386 L
929.2 269.223 L
930.285 266.22 L
931.37 263.365 L
932.455 260.647 L
933.54 258.058 L
934.625 255.587 L
935.71 253.228 L
936.795 250.972 L
937.88 248.814 L
938.965 246.746 L
940.05 249.036 L
941.135 251.427 L
942.22 253.924 L
943.305 256.536 L
944.39 259.27 L
945.475 262.136 L
946.56 265.142 L
947.645 268.3 L
948.73 271.621 L
949.815 275.118 L
950.9 278.806 L
951.985 282.701 L
953.07 286.82 L
954.155 291.184 L
955.24 295.815 L
956.325 300.738 L
957.41 295.815 L
958.495 291.184 L
959.58 286.82 L
960.665 282.701 L
961.75 278.806 L
962.835 275.118 L
963.92 271.621 L
965.005 268.3 L
966.09 265.142 L
967.175 262.136 L
968.26 259.27 L
969.345 256.536 L
970.43 253.924 L
971.515 251.427 L
972.6 250.702 L
973.685 250.148 L
974.77 249.977 L
975.855 249.965 L
976.94 251.94 L
978.025 254.007 L
979.11 256.17 L
980.195 258.438 L
981.28 260.818 L
982.365 263.318 L
983.45 265.948 L
984.535 268.719 L
985.62 271.641 L
986.705 274.728 L
987.79 277.994 L
988.875 281.455 L
989.96 285.128 L
991.045 289.035 L
992.13 293.199 L
993.215 297.644 L
994.3 302.402 L
995.385 307.505 L
996.47 312.994 L
997.555 318.913 L
998.64 325.315 L
999.725 332.262 L
1000.81 339.827 L
1001.895 348.095 L
1002.98 357.171 L
1004.065 367.176 L
1005.15 378.264 L
1006.235 390.619 L
1007.32 404.471 L
1008.405 420.111 L
1009.49 437.907 L
1010.575 458.341 L
1011.66 482.044 L
1012.745 509.869 L
1013.83 542.994 L
1014.915 583.092 L
1016 632.626 L
S
GR
GS
[0.5 0 0 0.5 0 0] CT
0.298 GC
1 LJ
N
799 242.861 M
1016 242.861 L
S
GR
%%Trailer
%%Pages: 1
%%EOF
