%!PS-Adobe-3.0 EPSF-3.0
%%Creator: (MATLAB, The Mathworks, Inc. Version 9.10.0.1739362 \(R2021a\) Update 5. Operating System: Linux)
%%Title: ./prcsTmAll.eps
%%CreationDate: 2021-09-24T15:51:18
%%Pages: (atend)
%%BoundingBox:    38    17   526   402
%%LanguageLevel: 3
%%EndComments
%%BeginProlog
%%BeginResource: procset (Apache XML Graphics Std ProcSet) 1.2 0
%%Version: 1.2 0
%%Copyright: (Copyright 2001-2003,2010 The Apache Software Foundation. License terms: http://www.apache.org/licenses/LICENSE-2.0)
/bd{bind def}bind def
/ld{load def}bd
/GR/grestore ld
/GS/gsave ld
/RM/rmoveto ld
/C/curveto ld
/t/show ld
/L/lineto ld
/ML/setmiterlimit ld
/CT/concat ld
/f/fill ld
/N/newpath ld
/S/stroke ld
/CC/setcmykcolor ld
/A/ashow ld
/cp/closepath ld
/RC/setrgbcolor ld
/LJ/setlinejoin ld
/GC/setgray ld
/LW/setlinewidth ld
/M/moveto ld
/re {4 2 roll M
1 index 0 rlineto
0 exch rlineto
neg 0 rlineto
cp } bd
/_ctm matrix def
/_tm matrix def
/BT { _ctm currentmatrix pop matrix _tm copy pop 0 0 moveto } bd
/ET { _ctm setmatrix } bd
/iTm { _ctm setmatrix _tm concat } bd
/Tm { _tm astore pop iTm 0 0 moveto } bd
/ux 0.0 def
/uy 0.0 def
/F {
  /Tp exch def
  /Tf exch def
  Tf findfont Tp scalefont setfont
  /cf Tf def  /cs Tp def
} bd
/ULS {currentpoint /uy exch def /ux exch def} bd
/ULE {
  /Tcx currentpoint pop def
  gsave
  newpath
  cf findfont cs scalefont dup
  /FontMatrix get 0 get /Ts exch def /FontInfo get dup
  /UnderlinePosition get Ts mul /To exch def
  /UnderlineThickness get Ts mul /Tt exch def
  ux uy To add moveto  Tcx uy To add lineto
  Tt setlinewidth stroke
  grestore
} bd
/OLE {
  /Tcx currentpoint pop def
  gsave
  newpath
  cf findfont cs scalefont dup
  /FontMatrix get 0 get /Ts exch def /FontInfo get dup
  /UnderlinePosition get Ts mul /To exch def
  /UnderlineThickness get Ts mul /Tt exch def
  ux uy To add cs add moveto Tcx uy To add cs add lineto
  Tt setlinewidth stroke
  grestore
} bd
/SOE {
  /Tcx currentpoint pop def
  gsave
  newpath
  cf findfont cs scalefont dup
  /FontMatrix get 0 get /Ts exch def /FontInfo get dup
  /UnderlinePosition get Ts mul /To exch def
  /UnderlineThickness get Ts mul /Tt exch def
  ux uy To add cs 10 mul 26 idiv add moveto Tcx uy To add cs 10 mul 26 idiv add lineto
  Tt setlinewidth stroke
  grestore
} bd
/QT {
/Y22 exch store
/X22 exch store
/Y21 exch store
/X21 exch store
currentpoint
/Y21 load 2 mul add 3 div exch
/X21 load 2 mul add 3 div exch
/X21 load 2 mul /X22 load add 3 div
/Y21 load 2 mul /Y22 load add 3 div
/X22 load /Y22 load curveto
} bd
/SSPD {
dup length /d exch dict def
{
/v exch def
/k exch def
currentpagedevice k known {
/cpdv currentpagedevice k get def
v cpdv ne {
/upd false def
/nullv v type /nulltype eq def
/nullcpdv cpdv type /nulltype eq def
nullv nullcpdv or
{
/upd true def
} {
/sametype v type cpdv type eq def
sametype {
v type /arraytype eq {
/vlen v length def
/cpdvlen cpdv length def
vlen cpdvlen eq {
0 1 vlen 1 sub {
/i exch def
/obj v i get def
/cpdobj cpdv i get def
obj cpdobj ne {
/upd true def
exit
} if
} for
} {
/upd true def
} ifelse
} {
v type /dicttype eq {
v {
/dv exch def
/dk exch def
/cpddv cpdv dk get def
dv cpddv ne {
/upd true def
exit
} if
} forall
} {
/upd true def
} ifelse
} ifelse
} if
} ifelse
upd true eq {
d k v put
} if
} if
} if
} forall
d length 0 gt {
d setpagedevice
} if
} bd
/RE { % /NewFontName [NewEncodingArray] /FontName RE -
  findfont dup length dict begin
  {
    1 index /FID ne
    {def} {pop pop} ifelse
  } forall
  /Encoding exch def
  /FontName 1 index def
  currentdict definefont pop
  end
} bind def
%%EndResource
%%BeginResource: procset (Apache XML Graphics EPS ProcSet) 1.0 0
%%Version: 1.0 0
%%Copyright: (Copyright 2002-2003 The Apache Software Foundation. License terms: http://www.apache.org/licenses/LICENSE-2.0)
/BeginEPSF { %def
/b4_Inc_state save def         % Save state for cleanup
/dict_count countdictstack def % Count objects on dict stack
/op_count count 1 sub def      % Count objects on operand stack
userdict begin                 % Push userdict on dict stack
/showpage { } def              % Redefine showpage, { } = null proc
0 setgray 0 setlinecap         % Prepare graphics state
1 setlinewidth 0 setlinejoin
10 setmiterlimit [ ] 0 setdash newpath
/languagelevel where           % If level not equal to 1 then
{pop languagelevel             % set strokeadjust and
1 ne                           % overprint to their defaults.
{false setstrokeadjust false setoverprint
} if
} if
} bd
/EndEPSF { %def
count op_count sub {pop} repeat            % Clean up stacks
countdictstack dict_count sub {end} repeat
b4_Inc_state restore
} bd
%%EndResource
%FOPBeginFontDict
%%IncludeResource: font Courier-Oblique
%%IncludeResource: font Courier-BoldOblique
%%IncludeResource: font Courier-Bold
%%IncludeResource: font ZapfDingbats
%%IncludeResource: font Symbol
%%IncludeResource: font Helvetica
%%IncludeResource: font Helvetica-Oblique
%%IncludeResource: font Helvetica-Bold
%%IncludeResource: font Helvetica-BoldOblique
%%IncludeResource: font Times-Roman
%%IncludeResource: font Times-Italic
%%IncludeResource: font Times-Bold
%%IncludeResource: font Times-BoldItalic
%%IncludeResource: font Courier
%FOPEndFontDict
%%BeginResource: encoding WinAnsiEncoding
/WinAnsiEncoding [
/.notdef /.notdef /.notdef /.notdef /.notdef
/.notdef /.notdef /.notdef /.notdef /.notdef
/.notdef /.notdef /.notdef /.notdef /.notdef
/.notdef /.notdef /.notdef /.notdef /.notdef
/.notdef /.notdef /.notdef /.notdef /.notdef
/.notdef /.notdef /.notdef /.notdef /.notdef
/.notdef /.notdef /space /exclam /quotedbl
/numbersign /dollar /percent /ampersand /quotesingle
/parenleft /parenright /asterisk /plus /comma
/hyphen /period /slash /zero /one
/two /three /four /five /six
/seven /eight /nine /colon /semicolon
/less /equal /greater /question /at
/A /B /C /D /E
/F /G /H /I /J
/K /L /M /N /O
/P /Q /R /S /T
/U /V /W /X /Y
/Z /bracketleft /backslash /bracketright /asciicircum
/underscore /quoteleft /a /b /c
/d /e /f /g /h
/i /j /k /l /m
/n /o /p /q /r
/s /t /u /v /w
/x /y /z /braceleft /bar
/braceright /asciitilde /bullet /Euro /bullet
/quotesinglbase /florin /quotedblbase /ellipsis /dagger
/daggerdbl /circumflex /perthousand /Scaron /guilsinglleft
/OE /bullet /Zcaron /bullet /bullet
/quoteleft /quoteright /quotedblleft /quotedblright /bullet
/endash /emdash /asciitilde /trademark /scaron
/guilsinglright /oe /bullet /zcaron /Ydieresis
/space /exclamdown /cent /sterling /currency
/yen /brokenbar /section /dieresis /copyright
/ordfeminine /guillemotleft /logicalnot /sfthyphen /registered
/macron /degree /plusminus /twosuperior /threesuperior
/acute /mu /paragraph /middot /cedilla
/onesuperior /ordmasculine /guillemotright /onequarter /onehalf
/threequarters /questiondown /Agrave /Aacute /Acircumflex
/Atilde /Adieresis /Aring /AE /Ccedilla
/Egrave /Eacute /Ecircumflex /Edieresis /Igrave
/Iacute /Icircumflex /Idieresis /Eth /Ntilde
/Ograve /Oacute /Ocircumflex /Otilde /Odieresis
/multiply /Oslash /Ugrave /Uacute /Ucircumflex
/Udieresis /Yacute /Thorn /germandbls /agrave
/aacute /acircumflex /atilde /adieresis /aring
/ae /ccedilla /egrave /eacute /ecircumflex
/edieresis /igrave /iacute /icircumflex /idieresis
/eth /ntilde /ograve /oacute /ocircumflex
/otilde /odieresis /divide /oslash /ugrave
/uacute /ucircumflex /udieresis /yacute /thorn
/ydieresis
] def
%%EndResource
%FOPBeginFontReencode
/Courier-Oblique findfont
dup length dict begin
  {1 index /FID ne {def} {pop pop} ifelse} forall
  /Encoding WinAnsiEncoding def
  currentdict
end
/Courier-Oblique exch definefont pop
/Courier-BoldOblique findfont
dup length dict begin
  {1 index /FID ne {def} {pop pop} ifelse} forall
  /Encoding WinAnsiEncoding def
  currentdict
end
/Courier-BoldOblique exch definefont pop
/Courier-Bold findfont
dup length dict begin
  {1 index /FID ne {def} {pop pop} ifelse} forall
  /Encoding WinAnsiEncoding def
  currentdict
end
/Courier-Bold exch definefont pop
/Helvetica findfont
dup length dict begin
  {1 index /FID ne {def} {pop pop} ifelse} forall
  /Encoding WinAnsiEncoding def
  currentdict
end
/Helvetica exch definefont pop
/Helvetica-Oblique findfont
dup length dict begin
  {1 index /FID ne {def} {pop pop} ifelse} forall
  /Encoding WinAnsiEncoding def
  currentdict
end
/Helvetica-Oblique exch definefont pop
/Helvetica-Bold findfont
dup length dict begin
  {1 index /FID ne {def} {pop pop} ifelse} forall
  /Encoding WinAnsiEncoding def
  currentdict
end
/Helvetica-Bold exch definefont pop
/Helvetica-BoldOblique findfont
dup length dict begin
  {1 index /FID ne {def} {pop pop} ifelse} forall
  /Encoding WinAnsiEncoding def
  currentdict
end
/Helvetica-BoldOblique exch definefont pop
/Times-Roman findfont
dup length dict begin
  {1 index /FID ne {def} {pop pop} ifelse} forall
  /Encoding WinAnsiEncoding def
  currentdict
end
/Times-Roman exch definefont pop
/Times-Italic findfont
dup length dict begin
  {1 index /FID ne {def} {pop pop} ifelse} forall
  /Encoding WinAnsiEncoding def
  currentdict
end
/Times-Italic exch definefont pop
/Times-Bold findfont
dup length dict begin
  {1 index /FID ne {def} {pop pop} ifelse} forall
  /Encoding WinAnsiEncoding def
  currentdict
end
/Times-Bold exch definefont pop
/Times-BoldItalic findfont
dup length dict begin
  {1 index /FID ne {def} {pop pop} ifelse} forall
  /Encoding WinAnsiEncoding def
  currentdict
end
/Times-BoldItalic exch definefont pop
/Courier findfont
dup length dict begin
  {1 index /FID ne {def} {pop pop} ifelse} forall
  /Encoding WinAnsiEncoding def
  currentdict
end
/Courier exch definefont pop
%FOPEndFontReencode
%%EndProlog
%%Page: 1 1
%%PageBoundingBox: 0 0 560 420
%%BeginPageSetup
[1 0 0 -1 0 420] CT
%%EndPageSetup
GS
[0.5 0 0 0.5 0 0] CT
1 GC
N
0 0 1120 840 re
f
GR
GS
[0.5 0 0 0.5 0 0] CT
1 GC
N
0 0 1120 840 re
f
GR
GS
[0.5 0 0 0.5 0 0] CT
1 GC
N
146 350 M
520 350 L
520 63 L
146 63 L
cp
f
GR
GS
[0.5 0 0 0.5 0 0] CT
0.851 GC
1 LJ
N
146 350 M
146 63 L
S
GR
GS
[0.5 0 0 0.5 0 0] CT
0.851 GC
1 LJ
N
239.5 350 M
239.5 63 L
S
GR
GS
[0.5 0 0 0.5 0 0] CT
0.851 GC
1 LJ
N
333 350 M
333 63 L
S
GR
GS
[0.5 0 0 0.5 0 0] CT
0.851 GC
1 LJ
N
426.5 350 M
426.5 63 L
S
GR
GS
[0.5 0 0 0.5 0 0] CT
0.851 GC
1 LJ
N
520 350 M
520 63 L
S
GR
GS
[0.5 0 0 0.5 0 0] CT
0.851 GC
1 LJ
N
520 350 M
146 350 L
S
GR
GS
[0.5 0 0 0.5 0 0] CT
0.851 GC
1 LJ
N
520 297.818 M
146 297.818 L
S
GR
GS
[0.5 0 0 0.5 0 0] CT
0.851 GC
1 LJ
N
520 245.636 M
146 245.636 L
S
GR
GS
[0.5 0 0 0.5 0 0] CT
0.851 GC
1 LJ
N
520 193.455 M
146 193.455 L
S
GR
GS
[0.5 0 0 0.5 0 0] CT
0.851 GC
1 LJ
N
520 141.273 M
146 141.273 L
S
GR
GS
[0.5 0 0 0.5 0 0] CT
0.851 GC
1 LJ
N
520 89.091 M
146 89.091 L
S
GR
GS
[0.5 0 0 0.5 0 0] CT
2 setlinecap
1 LJ
N
146 350 M
520 350 L
S
GR
GS
[0.5 0 0 0.5 0 0] CT
2 setlinecap
1 LJ
N
146 63 M
520 63 L
S
GR
GS
[0.5 0 0 0.5 0 0] CT
2 setlinecap
1 LJ
N
146 350 M
146 346.26 L
S
GR
GS
[0.5 0 0 0.5 0 0] CT
2 setlinecap
1 LJ
N
239.5 350 M
239.5 346.26 L
S
GR
GS
[0.5 0 0 0.5 0 0] CT
2 setlinecap
1 LJ
N
333 350 M
333 346.26 L
S
GR
GS
[0.5 0 0 0.5 0 0] CT
2 setlinecap
1 LJ
N
426.5 350 M
426.5 346.26 L
S
GR
GS
[0.5 0 0 0.5 0 0] CT
2 setlinecap
1 LJ
N
520 350 M
520 346.26 L
S
GR
GS
[0.5 0 0 0.5 0 0] CT
2 setlinecap
1 LJ
N
146 63 M
146 66.74 L
S
GR
GS
[0.5 0 0 0.5 0 0] CT
2 setlinecap
1 LJ
N
239.5 63 M
239.5 66.74 L
S
GR
GS
[0.5 0 0 0.5 0 0] CT
2 setlinecap
1 LJ
N
333 63 M
333 66.74 L
S
GR
GS
[0.5 0 0 0.5 0 0] CT
2 setlinecap
1 LJ
N
426.5 63 M
426.5 66.74 L
S
GR
GS
[0.5 0 0 0.5 0 0] CT
2 setlinecap
1 LJ
N
520 63 M
520 66.74 L
S
GR
GS
[0.5 0 0 0.5 73 179] CT
/Helvetica 20 F
GS
[1 0 0 1 0 0] CT
-6.5 19 moveto 
1 -1 scale
(0) t 
GR
GR
GS
[0.5 0 0 0.5 119.75 179] CT
/Helvetica 20 F
GS
[1 0 0 1 0 0] CT
-13 19 moveto 
1 -1 scale
(50) t 
GR
GR
GS
[0.5 0 0 0.5 166.5 179] CT
/Helvetica 20 F
GS
[1 0 0 1 0 0] CT
-19.5 19 moveto 
1 -1 scale
(100) t 
GR
GR
GS
[0.5 0 0 0.5 213.25 179] CT
/Helvetica 20 F
GS
[1 0 0 1 0 0] CT
-19.5 19 moveto 
1 -1 scale
(150) t 
GR
GR
GS
[0.5 0 0 0.5 260 179] CT
/Helvetica 20 F
GS
[1 0 0 1 0 0] CT
-19.5 19 moveto 
1 -1 scale
(200) t 
GR
GR
GS
[0.5 0 0 0.5 166.50009 192] CT
/Helvetica 22 F
GS
[1 0 0 1 0 0] CT
-45.5 21 moveto 
1 -1 scale
(Time [s]) t 
GR
GR
GS
[0.5 0 0 0.5 0 0] CT
2 setlinecap
1 LJ
N
146 350 M
146 63 L
S
GR
GS
[0.5 0 0 0.5 0 0] CT
2 setlinecap
1 LJ
N
520 350 M
520 63 L
S
GR
GS
[0.5 0 0 0.5 0 0] CT
2 setlinecap
1 LJ
N
146 350 M
149.74 350 L
S
GR
GS
[0.5 0 0 0.5 0 0] CT
2 setlinecap
1 LJ
N
146 297.818 M
149.74 297.818 L
S
GR
GS
[0.5 0 0 0.5 0 0] CT
2 setlinecap
1 LJ
N
146 245.636 M
149.74 245.636 L
S
GR
GS
[0.5 0 0 0.5 0 0] CT
2 setlinecap
1 LJ
N
146 193.455 M
149.74 193.455 L
S
GR
GS
[0.5 0 0 0.5 0 0] CT
2 setlinecap
1 LJ
N
146 141.273 M
149.74 141.273 L
S
GR
GS
[0.5 0 0 0.5 0 0] CT
2 setlinecap
1 LJ
N
146 89.091 M
149.74 89.091 L
S
GR
GS
[0.5 0 0 0.5 0 0] CT
2 setlinecap
1 LJ
N
520 350 M
516.26 350 L
S
GR
GS
[0.5 0 0 0.5 0 0] CT
2 setlinecap
1 LJ
N
520 297.818 M
516.26 297.818 L
S
GR
GS
[0.5 0 0 0.5 0 0] CT
2 setlinecap
1 LJ
N
520 245.636 M
516.26 245.636 L
S
GR
GS
[0.5 0 0 0.5 0 0] CT
2 setlinecap
1 LJ
N
520 193.455 M
516.26 193.455 L
S
GR
GS
[0.5 0 0 0.5 0 0] CT
2 setlinecap
1 LJ
N
520 141.273 M
516.26 141.273 L
S
GR
GS
[0.5 0 0 0.5 0 0] CT
2 setlinecap
1 LJ
N
520 89.091 M
516.26 89.091 L
S
GR
GS
[0.5 0 0 0.5 69 175] CT
/Helvetica 20 F
GS
[1 0 0 1 0 0] CT
-13 7 moveto 
1 -1 scale
(0) t 
GR
GR
GS
[0.5 0 0 0.5 69 148.90909] CT
/Helvetica 20 F
GS
[1 0 0 1 0 0] CT
-32 7 moveto 
1 -1 scale
(0.2) t 
GR
GR
GS
[0.5 0 0 0.5 69 122.81818] CT
/Helvetica 20 F
GS
[1 0 0 1 0 0] CT
-32 7 moveto 
1 -1 scale
(0.4) t 
GR
GR
GS
[0.5 0 0 0.5 69 96.72727] CT
/Helvetica 20 F
GS
[1 0 0 1 0 0] CT
-32 7 moveto 
1 -1 scale
(0.6) t 
GR
GR
GS
[0.5 0 0 0.5 69 70.63636] CT
/Helvetica 20 F
GS
[1 0 0 1 0 0] CT
-32 7 moveto 
1 -1 scale
(0.8) t 
GR
GR
GS
[0.5 0 0 0.5 69 44.54546] CT
/Helvetica 20 F
GS
[1 0 0 1 0 0] CT
-13 7 moveto 
1 -1 scale
(1) t 
GR
GR
GS
[0 -0.5 0.5 0 50 103.24993] CT
/Helvetica 22 F
GS
[1 0 0 1 0 0] CT
-152.5 -6 moveto 
1 -1 scale
(Processing Time for CPU [s]) t 
GR
GR
GS
[0.5 0 0 0.5 166.50015 30.12499] CT
/Helvetica-Bold 22 F
GS
[1 0 0 1 0 0] CT
-195.5 -6 moveto 
1 -1 scale
(ARPT input data values for CPU) t 
GR
GR
GS
[0.5 0 0 0.5 0 0] CT
1 LJ
N
147.87 271.137 M
149.74 280.946 L
151.61 269.3 L
153.48 270.512 L
155.35 272.083 L
157.22 273.281 L
159.09 269.4 L
160.96 270.866 L
162.83 274.531 L
164.7 271.681 L
166.57 275.465 L
168.44 274.773 L
170.31 265.744 L
172.18 279.039 L
174.05 276.506 L
175.92 261.356 L
177.79 271.356 L
179.66 270.177 L
181.53 266.414 L
183.4 279.324 L
185.27 264.837 L
187.14 267.578 L
189.01 275.824 L
190.88 272.792 L
192.75 250.061 L
194.62 251.915 L
196.49 243.866 L
198.36 240.587 L
200.23 245.342 L
202.1 242.386 L
203.97 242.126 L
205.84 245.519 L
207.71 250.236 L
209.58 244.692 L
211.45 246.954 L
213.32 252.629 L
215.19 250.431 L
217.06 242.391 L
218.93 252.756 L
220.8 246.978 L
222.67 251.225 L
224.54 246.054 L
226.41 252.097 L
228.28 253.163 L
230.15 247.378 L
232.02 251.713 L
233.89 243.122 L
235.76 246.206 L
237.63 249.581 L
239.5 249.602 L
241.37 267.652 L
243.24 265.954 L
245.11 270.605 L
246.98 266.068 L
248.85 271.962 L
250.72 272.347 L
252.59 273.39 L
254.46 269.948 L
256.33 273.351 L
258.2 271.956 L
260.07 272.718 L
261.94 272.562 L
263.81 280.052 L
265.68 272.649 L
267.55 278.413 L
269.42 270.466 L
271.29 268.832 L
273.16 274.457 L
275.03 269.02 L
276.9 89.762 L
278.77 89.398 L
280.64 91.48 L
282.51 86.865 L
284.38 89.706 L
286.25 93.273 L
288.12 90.314 L
289.99 89.158 L
291.86 89.609 L
293.73 87.351 L
295.6 87.519 L
297.47 98.931 L
299.34 92.177 L
301.21 89.537 L
303.08 87.235 L
304.95 86.41 L
306.82 86.978 L
308.69 90.58 L
310.56 83.443 L
312.43 92.258 L
314.3 94.849 L
316.17 87.426 L
318.04 85.317 L
319.91 85.293 L
321.78 87.047 L
323.65 85.667 L
325.52 88.472 L
327.39 82.963 L
329.26 83.797 L
331.13 88.729 L
333 86.028 L
334.87 268.763 L
336.74 277.794 L
338.61 263.817 L
340.48 277.064 L
342.35 267.779 L
344.22 267.198 L
346.09 272.379 L
347.96 271.023 L
349.83 273.484 L
351.7 268.655 L
353.57 270.473 L
355.44 270.823 L
357.31 268.363 L
359.18 272.06 L
361.05 267.025 L
362.92 271.819 L
364.79 269.013 L
366.66 271.427 L
368.53 269.712 L
370.4 271.018 L
372.27 269.423 L
374.14 273.369 L
376.01 267.038 L
377.88 273.049 L
379.75 270.288 L
381.62 276.172 L
383.49 266.324 L
385.36 268.416 L
387.23 272.901 L
389.1 90.113 L
390.97 89.331 L
392.84 90.793 L
394.71 93.41 L
396.58 90.886 L
398.45 87.94 L
400.32 89.853 L
402.19 82.838 L
404.06 76.976 L
405.93 92.049 L
407.8 92.505 L
409.67 93.212 L
411.54 92.909 L
413.41 89.53 L
415.28 87.739 L
417.15 88.485 L
419.02 272.002 L
420.89 273.27 L
422.76 272.868 L
424.63 269.977 L
426.5 264.862 L
428.37 274.92 L
430.24 264.404 L
432.11 271.201 L
433.98 274.375 L
435.85 269.185 L
437.72 270.193 L
439.59 273.847 L
441.46 271.232 L
443.33 277.338 L
445.2 232.799 L
447.07 230.5 L
448.94 229.765 L
450.81 227.804 L
452.68 225.751 L
454.55 226.472 L
456.42 224.019 L
458.29 227.184 L
460.16 223.368 L
462.03 228.085 L
463.9 228.508 L
465.77 224.182 L
467.64 226.111 L
469.51 226.831 L
471.38 229.138 L
473.25 227.972 L
475.12 230.813 L
476.99 228.127 L
478.86 226.61 L
480.73 221.131 L
482.6 229.102 L
484.47 229.024 L
486.34 226.489 L
488.21 226.8 L
490.08 227.335 L
491.95 226.952 L
493.82 264.722 L
495.69 270.046 L
497.56 272.553 L
499.43 271.654 L
501.3 267.982 L
503.17 272.97 L
505.04 268.453 L
506.91 274.87 L
508.78 274.51 L
510.65 274.861 L
512.52 278.836 L
514.39 266.134 L
516.26 266.877 L
518.13 274.408 L
520 269.664 L
S
GR
GS
[0.5 0 0 0.5 0 0] CT
0.298 GC
1 LJ
N
146 247.092 M
520 247.092 L
S
GR
GS
[0.5 0 0 0.5 0 0] CT
0.298 GC
1 LJ
N
146 350 M
520 350 L
S
GR
GS
[0.5 0 0 0.5 0 0] CT
1 GC
N
639 350 M
1014 350 L
1014 63 L
639 63 L
cp
f
GR
GS
[0.5 0 0 0.5 0 0] CT
0.851 GC
1 LJ
N
639 350 M
639 63 L
S
GR
GS
[0.5 0 0 0.5 0 0] CT
0.851 GC
1 LJ
N
732.75 350 M
732.75 63 L
S
GR
GS
[0.5 0 0 0.5 0 0] CT
0.851 GC
1 LJ
N
826.5 350 M
826.5 63 L
S
GR
GS
[0.5 0 0 0.5 0 0] CT
0.851 GC
1 LJ
N
920.25 350 M
920.25 63 L
S
GR
GS
[0.5 0 0 0.5 0 0] CT
0.851 GC
1 LJ
N
1014 350 M
1014 63 L
S
GR
GS
[0.5 0 0 0.5 0 0] CT
0.851 GC
1 LJ
N
1014 350 M
639 350 L
S
GR
GS
[0.5 0 0 0.5 0 0] CT
0.851 GC
1 LJ
N
1014 297.818 M
639 297.818 L
S
GR
GS
[0.5 0 0 0.5 0 0] CT
0.851 GC
1 LJ
N
1014 245.636 M
639 245.636 L
S
GR
GS
[0.5 0 0 0.5 0 0] CT
0.851 GC
1 LJ
N
1014 193.455 M
639 193.455 L
S
GR
GS
[0.5 0 0 0.5 0 0] CT
0.851 GC
1 LJ
N
1014 141.273 M
639 141.273 L
S
GR
GS
[0.5 0 0 0.5 0 0] CT
0.851 GC
1 LJ
N
1014 89.091 M
639 89.091 L
S
GR
GS
[0.5 0 0 0.5 0 0] CT
2 setlinecap
1 LJ
N
639 350 M
1014 350 L
S
GR
GS
[0.5 0 0 0.5 0 0] CT
2 setlinecap
1 LJ
N
639 63 M
1014 63 L
S
GR
GS
[0.5 0 0 0.5 0 0] CT
2 setlinecap
1 LJ
N
639 350 M
639 346.25 L
S
GR
GS
[0.5 0 0 0.5 0 0] CT
2 setlinecap
1 LJ
N
732.75 350 M
732.75 346.25 L
S
GR
GS
[0.5 0 0 0.5 0 0] CT
2 setlinecap
1 LJ
N
826.5 350 M
826.5 346.25 L
S
GR
GS
[0.5 0 0 0.5 0 0] CT
2 setlinecap
1 LJ
N
920.25 350 M
920.25 346.25 L
S
GR
GS
[0.5 0 0 0.5 0 0] CT
2 setlinecap
1 LJ
N
1014 350 M
1014 346.25 L
S
GR
GS
[0.5 0 0 0.5 0 0] CT
2 setlinecap
1 LJ
N
639 63 M
639 66.75 L
S
GR
GS
[0.5 0 0 0.5 0 0] CT
2 setlinecap
1 LJ
N
732.75 63 M
732.75 66.75 L
S
GR
GS
[0.5 0 0 0.5 0 0] CT
2 setlinecap
1 LJ
N
826.5 63 M
826.5 66.75 L
S
GR
GS
[0.5 0 0 0.5 0 0] CT
2 setlinecap
1 LJ
N
920.25 63 M
920.25 66.75 L
S
GR
GS
[0.5 0 0 0.5 0 0] CT
2 setlinecap
1 LJ
N
1014 63 M
1014 66.75 L
S
GR
GS
[0.5 0 0 0.5 319.5 179] CT
/Helvetica 20 F
GS
[1 0 0 1 0 0] CT
-6.5 19 moveto 
1 -1 scale
(0) t 
GR
GR
GS
[0.5 0 0 0.5 366.375 179] CT
/Helvetica 20 F
GS
[1 0 0 1 0 0] CT
-13 19 moveto 
1 -1 scale
(50) t 
GR
GR
GS
[0.5 0 0 0.5 413.25 179] CT
/Helvetica 20 F
GS
[1 0 0 1 0 0] CT
-19.5 19 moveto 
1 -1 scale
(100) t 
GR
GR
GS
[0.5 0 0 0.5 460.125 179] CT
/Helvetica 20 F
GS
[1 0 0 1 0 0] CT
-19.5 19 moveto 
1 -1 scale
(150) t 
GR
GR
GS
[0.5 0 0 0.5 507 179] CT
/Helvetica 20 F
GS
[1 0 0 1 0 0] CT
-19.5 19 moveto 
1 -1 scale
(200) t 
GR
GR
GS
[0.5 0 0 0.5 413.25009 192] CT
/Helvetica 22 F
GS
[1 0 0 1 0 0] CT
-45.5 21 moveto 
1 -1 scale
(Time [s]) t 
GR
GR
GS
[0.5 0 0 0.5 0 0] CT
2 setlinecap
1 LJ
N
639 350 M
639 63 L
S
GR
GS
[0.5 0 0 0.5 0 0] CT
2 setlinecap
1 LJ
N
1014 350 M
1014 63 L
S
GR
GS
[0.5 0 0 0.5 0 0] CT
2 setlinecap
1 LJ
N
639 350 M
642.75 350 L
S
GR
GS
[0.5 0 0 0.5 0 0] CT
2 setlinecap
1 LJ
N
639 297.818 M
642.75 297.818 L
S
GR
GS
[0.5 0 0 0.5 0 0] CT
2 setlinecap
1 LJ
N
639 245.636 M
642.75 245.636 L
S
GR
GS
[0.5 0 0 0.5 0 0] CT
2 setlinecap
1 LJ
N
639 193.455 M
642.75 193.455 L
S
GR
GS
[0.5 0 0 0.5 0 0] CT
2 setlinecap
1 LJ
N
639 141.273 M
642.75 141.273 L
S
GR
GS
[0.5 0 0 0.5 0 0] CT
2 setlinecap
1 LJ
N
639 89.091 M
642.75 89.091 L
S
GR
GS
[0.5 0 0 0.5 0 0] CT
2 setlinecap
1 LJ
N
1014 350 M
1010.25 350 L
S
GR
GS
[0.5 0 0 0.5 0 0] CT
2 setlinecap
1 LJ
N
1014 297.818 M
1010.25 297.818 L
S
GR
GS
[0.5 0 0 0.5 0 0] CT
2 setlinecap
1 LJ
N
1014 245.636 M
1010.25 245.636 L
S
GR
GS
[0.5 0 0 0.5 0 0] CT
2 setlinecap
1 LJ
N
1014 193.455 M
1010.25 193.455 L
S
GR
GS
[0.5 0 0 0.5 0 0] CT
2 setlinecap
1 LJ
N
1014 141.273 M
1010.25 141.273 L
S
GR
GS
[0.5 0 0 0.5 0 0] CT
2 setlinecap
1 LJ
N
1014 89.091 M
1010.25 89.091 L
S
GR
GS
[0.5 0 0 0.5 315.5 175] CT
/Helvetica 20 F
GS
[1 0 0 1 0 0] CT
-13 7 moveto 
1 -1 scale
(0) t 
GR
GR
GS
[0.5 0 0 0.5 315.5 148.90909] CT
/Helvetica 20 F
GS
[1 0 0 1 0 0] CT
-32 7 moveto 
1 -1 scale
(0.2) t 
GR
GR
GS
[0.5 0 0 0.5 315.5 122.81818] CT
/Helvetica 20 F
GS
[1 0 0 1 0 0] CT
-32 7 moveto 
1 -1 scale
(0.4) t 
GR
GR
GS
[0.5 0 0 0.5 315.5 96.72727] CT
/Helvetica 20 F
GS
[1 0 0 1 0 0] CT
-32 7 moveto 
1 -1 scale
(0.6) t 
GR
GR
GS
[0.5 0 0 0.5 315.5 70.63636] CT
/Helvetica 20 F
GS
[1 0 0 1 0 0] CT
-32 7 moveto 
1 -1 scale
(0.8) t 
GR
GR
GS
[0.5 0 0 0.5 315.5 44.54546] CT
/Helvetica 20 F
GS
[1 0 0 1 0 0] CT
-13 7 moveto 
1 -1 scale
(1) t 
GR
GR
GS
[0 -0.5 0.5 0 296.5 103.24993] CT
/Helvetica 22 F
GS
[1 0 0 1 0 0] CT
-93.5 -6 moveto 
1 -1 scale
(ARPT for RAM [s]) t 
GR
GR
GS
[0.5 0 0 0.5 413.2504 30.12499] CT
/Helvetica-Bold 22 F
GS
[1 0 0 1 0 0] CT
-198.5 -6 moveto 
1 -1 scale
(ARPT input data values for RAM) t 
GR
GR
GS
[0.5 0 0 0.5 0 0] CT
1 LJ
N
640.875 347.493 M
642.75 347.752 L
644.625 347.767 L
646.5 347.7 L
648.375 347.537 L
650.25 347.618 L
652.125 347.671 L
654 347.522 L
655.875 347.781 L
657.75 347.775 L
659.625 347.65 L
661.5 347.608 L
663.375 347.615 L
665.25 347.763 L
667.125 347.7 L
669 347.682 L
670.875 347.63 L
672.75 347.634 L
674.625 347.626 L
676.5 347.739 L
678.375 347.586 L
680.25 347.529 L
682.125 347.675 L
684 347.692 L
685.875 347.365 L
687.75 347.131 L
689.625 346.874 L
691.5 347.094 L
693.375 347.25 L
695.25 347.091 L
697.125 347.044 L
699 347.285 L
700.875 347.068 L
702.75 346.962 L
704.625 347.103 L
706.5 347.165 L
708.375 347.249 L
710.25 347.122 L
712.125 347.249 L
714 347.169 L
715.875 347.179 L
717.75 347.136 L
719.625 347.075 L
721.5 347.179 L
723.375 347.122 L
725.25 347.331 L
727.125 347.012 L
729 347.246 L
730.875 347.163 L
732.75 347.11 L
734.625 347.025 L
736.5 347.224 L
738.375 347.127 L
740.25 347.199 L
742.125 347.258 L
744 347.134 L
745.875 347.15 L
747.75 347.135 L
749.625 347.251 L
751.5 347.19 L
753.375 347.091 L
755.25 347.048 L
757.125 347.162 L
759 346.896 L
760.875 347.249 L
762.75 347.287 L
764.625 346.938 L
766.5 347.239 L
768.375 347.152 L
770.25 346.478 L
772.125 346.432 L
774 346.624 L
775.875 346.461 L
777.75 346.48 L
779.625 346.494 L
781.5 346.467 L
783.375 346.621 L
785.25 346.535 L
787.125 346.48 L
789 346.66 L
790.875 346.759 L
792.75 346.531 L
794.625 346.585 L
796.5 346.555 L
798.375 346.61 L
800.25 346.708 L
802.125 346.552 L
804 346.499 L
805.875 346.574 L
807.75 346.633 L
809.625 346.613 L
811.5 346.635 L
813.375 346.77 L
815.25 346.577 L
817.125 346.483 L
819 346.601 L
820.875 346.674 L
822.75 346.53 L
824.625 346.466 L
826.5 346.555 L
828.375 346.55 L
830.25 346.582 L
832.125 346.676 L
834 346.593 L
835.875 346.476 L
837.75 346.615 L
839.625 346.525 L
841.5 346.615 L
843.375 346.539 L
845.25 346.681 L
847.125 346.748 L
849 346.894 L
850.875 346.522 L
852.75 346.567 L
854.625 346.523 L
856.5 346.541 L
858.375 346.817 L
860.25 346.596 L
862.125 346.381 L
864 346.499 L
865.875 346.626 L
867.75 346.663 L
869.625 346.651 L
871.5 346.578 L
873.375 346.586 L
875.25 346.713 L
877.125 346.662 L
879 346.641 L
880.875 346.479 L
882.75 346.501 L
884.625 346.168 L
886.5 346.235 L
888.375 346.463 L
890.25 346.375 L
892.125 346.404 L
894 346.354 L
895.875 346.422 L
897.75 346.431 L
899.625 346.326 L
901.5 346.383 L
903.375 346.348 L
905.25 346.389 L
907.125 346.364 L
909 346.322 L
910.875 346.424 L
912.75 346.185 L
914.625 346.276 L
916.5 346.671 L
918.375 346.425 L
920.25 346.272 L
922.125 346.237 L
924 346.515 L
925.875 346.14 L
927.75 346.352 L
929.625 346.524 L
931.5 346.397 L
933.375 346.423 L
935.25 346.163 L
937.125 346.605 L
939 345.022 L
940.875 344.628 L
942.75 344.709 L
944.625 344.831 L
946.5 344.859 L
948.375 344.863 L
950.25 344.979 L
952.125 344.811 L
954 344.642 L
955.875 344.965 L
957.75 344.987 L
959.625 344.785 L
961.5 344.94 L
963.375 344.816 L
965.25 344.87 L
967.125 344.731 L
969 344.832 L
970.875 344.768 L
972.75 344.732 L
974.625 344.734 L
976.5 344.725 L
978.375 344.816 L
980.25 345.072 L
982.125 344.752 L
984 344.891 L
985.875 344.719 L
987.75 344.938 L
989.625 344.662 L
991.5 344.888 L
993.375 344.859 L
995.25 344.735 L
997.125 344.506 L
999 344.893 L
1000.875 344.572 L
1002.75 344.724 L
1004.625 344.887 L
1006.5 344.692 L
1008.375 344.756 L
1010.25 344.837 L
1012.125 344.833 L
1014 345.023 L
S
GR
GS
[0.5 0 0 0.5 0 0] CT
0.298 GC
1 LJ
N
639 347.644 M
1014 347.644 L
S
GR
GS
[0.5 0 0 0.5 0 0] CT
0.298 GC
1 LJ
N
639 350 M
1014 350 L
S
GR
GS
[0.5 0 0 0.5 0 0] CT
1 GC
N
146 748 M
520 748 L
520 461 L
146 461 L
cp
f
GR
GS
[0.5 0 0 0.5 0 0] CT
0.851 GC
1 LJ
N
146 748 M
146 461 L
S
GR
GS
[0.5 0 0 0.5 0 0] CT
0.851 GC
1 LJ
N
239.5 748 M
239.5 461 L
S
GR
GS
[0.5 0 0 0.5 0 0] CT
0.851 GC
1 LJ
N
333 748 M
333 461 L
S
GR
GS
[0.5 0 0 0.5 0 0] CT
0.851 GC
1 LJ
N
426.5 748 M
426.5 461 L
S
GR
GS
[0.5 0 0 0.5 0 0] CT
0.851 GC
1 LJ
N
520 748 M
520 461 L
S
GR
GS
[0.5 0 0 0.5 0 0] CT
0.851 GC
1 LJ
N
520 748 M
146 748 L
S
GR
GS
[0.5 0 0 0.5 0 0] CT
0.851 GC
1 LJ
N
520 695.818 M
146 695.818 L
S
GR
GS
[0.5 0 0 0.5 0 0] CT
0.851 GC
1 LJ
N
520 643.636 M
146 643.636 L
S
GR
GS
[0.5 0 0 0.5 0 0] CT
0.851 GC
1 LJ
N
520 591.455 M
146 591.455 L
S
GR
GS
[0.5 0 0 0.5 0 0] CT
0.851 GC
1 LJ
N
520 539.273 M
146 539.273 L
S
GR
GS
[0.5 0 0 0.5 0 0] CT
0.851 GC
1 LJ
N
520 487.091 M
146 487.091 L
S
GR
GS
[0.5 0 0 0.5 0 0] CT
2 setlinecap
1 LJ
N
146 748 M
520 748 L
S
GR
GS
[0.5 0 0 0.5 0 0] CT
2 setlinecap
1 LJ
N
146 461 M
520 461 L
S
GR
GS
[0.5 0 0 0.5 0 0] CT
2 setlinecap
1 LJ
N
146 748 M
146 744.26 L
S
GR
GS
[0.5 0 0 0.5 0 0] CT
2 setlinecap
1 LJ
N
239.5 748 M
239.5 744.26 L
S
GR
GS
[0.5 0 0 0.5 0 0] CT
2 setlinecap
1 LJ
N
333 748 M
333 744.26 L
S
GR
GS
[0.5 0 0 0.5 0 0] CT
2 setlinecap
1 LJ
N
426.5 748 M
426.5 744.26 L
S
GR
GS
[0.5 0 0 0.5 0 0] CT
2 setlinecap
1 LJ
N
520 748 M
520 744.26 L
S
GR
GS
[0.5 0 0 0.5 0 0] CT
2 setlinecap
1 LJ
N
146 461 M
146 464.74 L
S
GR
GS
[0.5 0 0 0.5 0 0] CT
2 setlinecap
1 LJ
N
239.5 461 M
239.5 464.74 L
S
GR
GS
[0.5 0 0 0.5 0 0] CT
2 setlinecap
1 LJ
N
333 461 M
333 464.74 L
S
GR
GS
[0.5 0 0 0.5 0 0] CT
2 setlinecap
1 LJ
N
426.5 461 M
426.5 464.74 L
S
GR
GS
[0.5 0 0 0.5 0 0] CT
2 setlinecap
1 LJ
N
520 461 M
520 464.74 L
S
GR
GS
[0.5 0 0 0.5 73 378] CT
/Helvetica 20 F
GS
[1 0 0 1 0 0] CT
-6.5 19 moveto 
1 -1 scale
(0) t 
GR
GR
GS
[0.5 0 0 0.5 119.75 378] CT
/Helvetica 20 F
GS
[1 0 0 1 0 0] CT
-13 19 moveto 
1 -1 scale
(50) t 
GR
GR
GS
[0.5 0 0 0.5 166.5 378] CT
/Helvetica 20 F
GS
[1 0 0 1 0 0] CT
-19.5 19 moveto 
1 -1 scale
(100) t 
GR
GR
GS
[0.5 0 0 0.5 213.25 378] CT
/Helvetica 20 F
GS
[1 0 0 1 0 0] CT
-19.5 19 moveto 
1 -1 scale
(150) t 
GR
GR
GS
[0.5 0 0 0.5 260 378] CT
/Helvetica 20 F
GS
[1 0 0 1 0 0] CT
-19.5 19 moveto 
1 -1 scale
(200) t 
GR
GR
GS
[0.5 0 0 0.5 166.50009 391] CT
/Helvetica 22 F
GS
[1 0 0 1 0 0] CT
-45.5 21 moveto 
1 -1 scale
(Time [s]) t 
GR
GR
GS
[0.5 0 0 0.5 0 0] CT
2 setlinecap
1 LJ
N
146 748 M
146 461 L
S
GR
GS
[0.5 0 0 0.5 0 0] CT
2 setlinecap
1 LJ
N
520 748 M
520 461 L
S
GR
GS
[0.5 0 0 0.5 0 0] CT
2 setlinecap
1 LJ
N
146 748 M
149.74 748 L
S
GR
GS
[0.5 0 0 0.5 0 0] CT
2 setlinecap
1 LJ
N
146 695.818 M
149.74 695.818 L
S
GR
GS
[0.5 0 0 0.5 0 0] CT
2 setlinecap
1 LJ
N
146 643.636 M
149.74 643.636 L
S
GR
GS
[0.5 0 0 0.5 0 0] CT
2 setlinecap
1 LJ
N
146 591.455 M
149.74 591.455 L
S
GR
GS
[0.5 0 0 0.5 0 0] CT
2 setlinecap
1 LJ
N
146 539.273 M
149.74 539.273 L
S
GR
GS
[0.5 0 0 0.5 0 0] CT
2 setlinecap
1 LJ
N
146 487.091 M
149.74 487.091 L
S
GR
GS
[0.5 0 0 0.5 0 0] CT
2 setlinecap
1 LJ
N
520 748 M
516.26 748 L
S
GR
GS
[0.5 0 0 0.5 0 0] CT
2 setlinecap
1 LJ
N
520 695.818 M
516.26 695.818 L
S
GR
GS
[0.5 0 0 0.5 0 0] CT
2 setlinecap
1 LJ
N
520 643.636 M
516.26 643.636 L
S
GR
GS
[0.5 0 0 0.5 0 0] CT
2 setlinecap
1 LJ
N
520 591.455 M
516.26 591.455 L
S
GR
GS
[0.5 0 0 0.5 0 0] CT
2 setlinecap
1 LJ
N
520 539.273 M
516.26 539.273 L
S
GR
GS
[0.5 0 0 0.5 0 0] CT
2 setlinecap
1 LJ
N
520 487.091 M
516.26 487.091 L
S
GR
GS
[0.5 0 0 0.5 69 374] CT
/Helvetica 20 F
GS
[1 0 0 1 0 0] CT
-13 7 moveto 
1 -1 scale
(0) t 
GR
GR
GS
[0.5 0 0 0.5 69 347.90909] CT
/Helvetica 20 F
GS
[1 0 0 1 0 0] CT
-32 7 moveto 
1 -1 scale
(0.2) t 
GR
GR
GS
[0.5 0 0 0.5 69 321.81818] CT
/Helvetica 20 F
GS
[1 0 0 1 0 0] CT
-32 7 moveto 
1 -1 scale
(0.4) t 
GR
GR
GS
[0.5 0 0 0.5 69 295.72726] CT
/Helvetica 20 F
GS
[1 0 0 1 0 0] CT
-32 7 moveto 
1 -1 scale
(0.6) t 
GR
GR
GS
[0.5 0 0 0.5 69 269.63635] CT
/Helvetica 20 F
GS
[1 0 0 1 0 0] CT
-32 7 moveto 
1 -1 scale
(0.8) t 
GR
GR
GS
[0.5 0 0 0.5 69 243.54546] CT
/Helvetica 20 F
GS
[1 0 0 1 0 0] CT
-13 7 moveto 
1 -1 scale
(1) t 
GR
GR
GS
[0 -0.5 0.5 0 50 302.24994] CT
/Helvetica 22 F
GS
[1 0 0 1 0 0] CT
-80 -6 moveto 
1 -1 scale
(ARPT for NI [s]) t 
GR
GR
GS
[0.5 0 0 0.5 166.50015 229.12498] CT
/Helvetica-Bold 22 F
GS
[1 0 0 1 0 0] CT
-184 -6 moveto 
1 -1 scale
(ARPT input data values for NI) t 
GR
GR
GS
[0.5 0 0 0.5 0 0] CT
1 LJ
N
147.87 730.259 M
149.74 731.364 L
151.61 729.826 L
153.48 729.574 L
155.35 729.647 L
157.22 728.223 L
159.09 729.635 L
160.96 728.274 L
162.83 729.033 L
164.7 728.999 L
166.57 731.02 L
168.44 729.011 L
170.31 729.136 L
172.18 730.375 L
174.05 729.387 L
175.92 729.322 L
177.79 729.233 L
179.66 729.076 L
181.53 728.668 L
183.4 729.663 L
185.27 729.241 L
187.14 729.727 L
189.01 728.836 L
190.88 730.282 L
192.75 713.98 L
194.62 713.011 L
196.49 716.014 L
198.36 713.66 L
200.23 716.328 L
202.1 714.36 L
203.97 713.718 L
205.84 715.64 L
207.71 713.388 L
209.58 713.896 L
211.45 713.206 L
213.32 713.637 L
215.19 714.489 L
217.06 713.784 L
218.93 714.1 L
220.8 715.806 L
222.67 713.773 L
224.54 713.773 L
226.41 713.694 L
228.28 713.979 L
230.15 714.19 L
232.02 716.535 L
233.89 712.668 L
235.76 714.926 L
237.63 714.74 L
239.5 713.321 L
241.37 729.276 L
243.24 731.038 L
245.11 729.922 L
246.98 729.956 L
248.85 731.876 L
250.72 730.937 L
252.59 729.031 L
254.46 730.741 L
256.33 729.515 L
258.2 731.343 L
260.07 729.467 L
261.94 728.931 L
263.81 728.694 L
265.68 730.134 L
267.55 730.631 L
269.42 729.02 L
271.29 729.777 L
273.16 729.684 L
275.03 728.614 L
276.9 724.537 L
278.77 723.435 L
280.64 724.822 L
282.51 723.587 L
284.38 725.747 L
286.25 724.477 L
288.12 723.998 L
289.99 725.475 L
291.86 725.867 L
293.73 725.058 L
295.6 724.755 L
297.47 723.279 L
299.34 725.437 L
301.21 723.565 L
303.08 724.755 L
304.95 725.084 L
306.82 724.839 L
308.69 722.567 L
310.56 725.081 L
312.43 723.136 L
314.3 724.44 L
316.17 724.977 L
318.04 723.874 L
319.91 724.409 L
321.78 724.596 L
323.65 724.078 L
325.52 724.953 L
327.39 722.585 L
329.26 724.428 L
331.13 723.782 L
333 723.59 L
334.87 728.992 L
336.74 729.882 L
338.61 730.022 L
340.48 728.992 L
342.35 728.659 L
344.22 728.404 L
346.09 728.481 L
347.96 728.739 L
349.83 729.759 L
351.7 729.76 L
353.57 730.539 L
355.44 729.859 L
357.31 729.378 L
359.18 731.007 L
361.05 730.109 L
362.92 730.109 L
364.79 729.651 L
366.66 730.035 L
368.53 730.031 L
370.4 730.932 L
372.27 730.794 L
374.14 730.918 L
376.01 729.455 L
377.88 729.342 L
379.75 731.447 L
381.62 730.762 L
383.49 730.074 L
385.36 729.24 L
387.23 729.545 L
389.1 696.042 L
390.97 697.814 L
392.84 696.717 L
394.71 695.386 L
396.58 695.073 L
398.45 694.548 L
400.32 695.435 L
402.19 695.488 L
404.06 696.712 L
405.93 697.625 L
407.8 694.91 L
409.67 695.327 L
411.54 695.411 L
413.41 695.221 L
415.28 696.218 L
417.15 694.793 L
419.02 729.006 L
420.89 730.465 L
422.76 728.809 L
424.63 730.25 L
426.5 730.511 L
428.37 729.566 L
430.24 729.137 L
432.11 729.314 L
433.98 729.464 L
435.85 729.196 L
437.72 730.02 L
439.59 729.11 L
441.46 729.168 L
443.33 731.161 L
445.2 711.62 L
447.07 710.988 L
448.94 711.231 L
450.81 711.776 L
452.68 710.5 L
454.55 711.835 L
456.42 710.91 L
458.29 712.53 L
460.16 711.649 L
462.03 711.211 L
463.9 710.814 L
465.77 711.437 L
467.64 711.159 L
469.51 710.326 L
471.38 710.337 L
473.25 711.987 L
475.12 711.258 L
476.99 710.06 L
478.86 711.32 L
480.73 711.444 L
482.6 710.177 L
484.47 710.658 L
486.34 712.073 L
488.21 711.469 L
490.08 712.499 L
491.95 711.7 L
493.82 728.687 L
495.69 730.255 L
497.56 730.044 L
499.43 729.112 L
501.3 730.108 L
503.17 731.727 L
505.04 731.549 L
506.91 731.001 L
508.78 729.238 L
510.65 730.191 L
512.52 730.04 L
514.39 730.718 L
516.26 728.021 L
518.13 729.957 L
520 730.473 L
S
GR
GS
[0.5 0 0 0.5 0 0] CT
0.298 GC
1 LJ
N
146 728.872 M
520 728.872 L
S
GR
GS
[0.5 0 0 0.5 0 0] CT
0.298 GC
1 LJ
N
146 748 M
520 748 L
S
GR
GS
[0.5 0 0 0.5 0 0] CT
1 GC
N
639 748 M
1014 748 L
1014 461 L
639 461 L
cp
f
GR
GS
[0.5 0 0 0.5 0 0] CT
0.851 GC
1 LJ
N
639 748 M
639 461 L
S
GR
GS
[0.5 0 0 0.5 0 0] CT
0.851 GC
1 LJ
N
732.75 748 M
732.75 461 L
S
GR
GS
[0.5 0 0 0.5 0 0] CT
0.851 GC
1 LJ
N
826.5 748 M
826.5 461 L
S
GR
GS
[0.5 0 0 0.5 0 0] CT
0.851 GC
1 LJ
N
920.25 748 M
920.25 461 L
S
GR
GS
[0.5 0 0 0.5 0 0] CT
0.851 GC
1 LJ
N
1014 748 M
1014 461 L
S
GR
GS
[0.5 0 0 0.5 0 0] CT
0.851 GC
1 LJ
N
1014 748 M
639 748 L
S
GR
GS
[0.5 0 0 0.5 0 0] CT
0.851 GC
1 LJ
N
1014 695.818 M
639 695.818 L
S
GR
GS
[0.5 0 0 0.5 0 0] CT
0.851 GC
1 LJ
N
1014 643.636 M
639 643.636 L
S
GR
GS
[0.5 0 0 0.5 0 0] CT
0.851 GC
1 LJ
N
1014 591.455 M
639 591.455 L
S
GR
GS
[0.5 0 0 0.5 0 0] CT
0.851 GC
1 LJ
N
1014 539.273 M
639 539.273 L
S
GR
GS
[0.5 0 0 0.5 0 0] CT
0.851 GC
1 LJ
N
1014 487.091 M
639 487.091 L
S
GR
GS
[0.5 0 0 0.5 0 0] CT
2 setlinecap
1 LJ
N
639 748 M
1014 748 L
S
GR
GS
[0.5 0 0 0.5 0 0] CT
2 setlinecap
1 LJ
N
639 461 M
1014 461 L
S
GR
GS
[0.5 0 0 0.5 0 0] CT
2 setlinecap
1 LJ
N
639 748 M
639 744.25 L
S
GR
GS
[0.5 0 0 0.5 0 0] CT
2 setlinecap
1 LJ
N
732.75 748 M
732.75 744.25 L
S
GR
GS
[0.5 0 0 0.5 0 0] CT
2 setlinecap
1 LJ
N
826.5 748 M
826.5 744.25 L
S
GR
GS
[0.5 0 0 0.5 0 0] CT
2 setlinecap
1 LJ
N
920.25 748 M
920.25 744.25 L
S
GR
GS
[0.5 0 0 0.5 0 0] CT
2 setlinecap
1 LJ
N
1014 748 M
1014 744.25 L
S
GR
GS
[0.5 0 0 0.5 0 0] CT
2 setlinecap
1 LJ
N
639 461 M
639 464.75 L
S
GR
GS
[0.5 0 0 0.5 0 0] CT
2 setlinecap
1 LJ
N
732.75 461 M
732.75 464.75 L
S
GR
GS
[0.5 0 0 0.5 0 0] CT
2 setlinecap
1 LJ
N
826.5 461 M
826.5 464.75 L
S
GR
GS
[0.5 0 0 0.5 0 0] CT
2 setlinecap
1 LJ
N
920.25 461 M
920.25 464.75 L
S
GR
GS
[0.5 0 0 0.5 0 0] CT
2 setlinecap
1 LJ
N
1014 461 M
1014 464.75 L
S
GR
GS
[0.5 0 0 0.5 319.5 378] CT
/Helvetica 20 F
GS
[1 0 0 1 0 0] CT
-6.5 19 moveto 
1 -1 scale
(0) t 
GR
GR
GS
[0.5 0 0 0.5 366.375 378] CT
/Helvetica 20 F
GS
[1 0 0 1 0 0] CT
-13 19 moveto 
1 -1 scale
(50) t 
GR
GR
GS
[0.5 0 0 0.5 413.25 378] CT
/Helvetica 20 F
GS
[1 0 0 1 0 0] CT
-19.5 19 moveto 
1 -1 scale
(100) t 
GR
GR
GS
[0.5 0 0 0.5 460.125 378] CT
/Helvetica 20 F
GS
[1 0 0 1 0 0] CT
-19.5 19 moveto 
1 -1 scale
(150) t 
GR
GR
GS
[0.5 0 0 0.5 507 378] CT
/Helvetica 20 F
GS
[1 0 0 1 0 0] CT
-19.5 19 moveto 
1 -1 scale
(200) t 
GR
GR
GS
[0.5 0 0 0.5 413.25009 391] CT
/Helvetica 22 F
GS
[1 0 0 1 0 0] CT
-45.5 21 moveto 
1 -1 scale
(Time [s]) t 
GR
GR
GS
[0.5 0 0 0.5 0 0] CT
2 setlinecap
1 LJ
N
639 748 M
639 461 L
S
GR
GS
[0.5 0 0 0.5 0 0] CT
2 setlinecap
1 LJ
N
1014 748 M
1014 461 L
S
GR
GS
[0.5 0 0 0.5 0 0] CT
2 setlinecap
1 LJ
N
639 748 M
642.75 748 L
S
GR
GS
[0.5 0 0 0.5 0 0] CT
2 setlinecap
1 LJ
N
639 695.818 M
642.75 695.818 L
S
GR
GS
[0.5 0 0 0.5 0 0] CT
2 setlinecap
1 LJ
N
639 643.636 M
642.75 643.636 L
S
GR
GS
[0.5 0 0 0.5 0 0] CT
2 setlinecap
1 LJ
N
639 591.455 M
642.75 591.455 L
S
GR
GS
[0.5 0 0 0.5 0 0] CT
2 setlinecap
1 LJ
N
639 539.273 M
642.75 539.273 L
S
GR
GS
[0.5 0 0 0.5 0 0] CT
2 setlinecap
1 LJ
N
639 487.091 M
642.75 487.091 L
S
GR
GS
[0.5 0 0 0.5 0 0] CT
2 setlinecap
1 LJ
N
1014 748 M
1010.25 748 L
S
GR
GS
[0.5 0 0 0.5 0 0] CT
2 setlinecap
1 LJ
N
1014 695.818 M
1010.25 695.818 L
S
GR
GS
[0.5 0 0 0.5 0 0] CT
2 setlinecap
1 LJ
N
1014 643.636 M
1010.25 643.636 L
S
GR
GS
[0.5 0 0 0.5 0 0] CT
2 setlinecap
1 LJ
N
1014 591.455 M
1010.25 591.455 L
S
GR
GS
[0.5 0 0 0.5 0 0] CT
2 setlinecap
1 LJ
N
1014 539.273 M
1010.25 539.273 L
S
GR
GS
[0.5 0 0 0.5 0 0] CT
2 setlinecap
1 LJ
N
1014 487.091 M
1010.25 487.091 L
S
GR
GS
[0.5 0 0 0.5 315.5 374] CT
/Helvetica 20 F
GS
[1 0 0 1 0 0] CT
-13 7 moveto 
1 -1 scale
(0) t 
GR
GR
GS
[0.5 0 0 0.5 315.5 347.90909] CT
/Helvetica 20 F
GS
[1 0 0 1 0 0] CT
-32 7 moveto 
1 -1 scale
(0.2) t 
GR
GR
GS
[0.5 0 0 0.5 315.5 321.81818] CT
/Helvetica 20 F
GS
[1 0 0 1 0 0] CT
-32 7 moveto 
1 -1 scale
(0.4) t 
GR
GR
GS
[0.5 0 0 0.5 315.5 295.72726] CT
/Helvetica 20 F
GS
[1 0 0 1 0 0] CT
-32 7 moveto 
1 -1 scale
(0.6) t 
GR
GR
GS
[0.5 0 0 0.5 315.5 269.63635] CT
/Helvetica 20 F
GS
[1 0 0 1 0 0] CT
-32 7 moveto 
1 -1 scale
(0.8) t 
GR
GR
GS
[0.5 0 0 0.5 315.5 243.54546] CT
/Helvetica 20 F
GS
[1 0 0 1 0 0] CT
-13 7 moveto 
1 -1 scale
(1) t 
GR
GR
GS
[0 -0.5 0.5 0 296.5 302.24994] CT
/Helvetica 22 F
GS
[1 0 0 1 0 0] CT
-111.5 -6 moveto 
1 -1 scale
(ARPT for Storage [s]) t 
GR
GR
GS
[0.5 0 0 0.5 413.2504 229.12498] CT
/Helvetica-Bold 22 F
GS
[1 0 0 1 0 0] CT
-219.5 -6 moveto 
1 -1 scale
(ARPT input data values for Storage) t 
GR
GR
GS
[0.5 0 0 0.5 0 0] CT
1 LJ
N
640.875 631.716 M
642.75 642.222 L
644.625 636.197 L
646.5 632.632 L
648.375 621.205 L
650.25 631.485 L
652.125 631.401 L
654 628.731 L
655.875 627.233 L
657.75 636.273 L
659.625 631.151 L
661.5 642.928 L
663.375 630.476 L
665.25 639.699 L
667.125 634.13 L
669 632.017 L
670.875 638.054 L
672.75 625.872 L
674.625 636.159 L
676.5 636.827 L
678.375 629.307 L
680.25 625.631 L
682.125 632.181 L
684 639.242 L
685.875 626.015 L
687.75 628.499 L
689.625 619.083 L
691.5 624.221 L
693.375 629.202 L
695.25 613.305 L
697.125 624.524 L
699 627.207 L
700.875 630.537 L
702.75 624.634 L
704.625 613.848 L
706.5 619.158 L
708.375 628.662 L
710.25 623.923 L
712.125 617.821 L
714 613.82 L
715.875 623.508 L
717.75 627.458 L
719.625 621.108 L
721.5 629.258 L
723.375 617.705 L
725.25 628.183 L
727.125 626.332 L
729 634.192 L
730.875 628.228 L
732.75 621.283 L
734.625 615.886 L
736.5 616.398 L
738.375 632.02 L
740.25 624.811 L
742.125 622.813 L
744 622.848 L
745.875 621.518 L
747.75 621.729 L
749.625 625.751 L
751.5 624.139 L
753.375 626.742 L
755.25 626.695 L
757.125 617.411 L
759 629.701 L
760.875 624.835 L
762.75 629.55 L
764.625 619.063 L
766.5 629.014 L
768.375 632.513 L
770.25 617.685 L
772.125 603.875 L
774 606.674 L
775.875 616.613 L
777.75 610.517 L
779.625 617.576 L
781.5 605.265 L
783.375 612.48 L
785.25 607.105 L
787.125 611.987 L
789 610.789 L
790.875 615.164 L
792.75 614.963 L
794.625 613.406 L
796.5 598.404 L
798.375 607.33 L
800.25 609.103 L
802.125 609.172 L
804 598.561 L
805.875 609.702 L
807.75 608.567 L
809.625 615.849 L
811.5 612.435 L
813.375 618.286 L
815.25 609.194 L
817.125 616.17 L
819 604.493 L
820.875 606.709 L
822.75 612.708 L
824.625 614.381 L
826.5 620.217 L
828.375 607.444 L
830.25 607.401 L
832.125 612.899 L
834 600.25 L
835.875 608.917 L
837.75 608.872 L
839.625 612.195 L
841.5 607.915 L
843.375 616.591 L
845.25 612.88 L
847.125 618.04 L
849 619.395 L
850.875 622.875 L
852.75 603.202 L
854.625 623.99 L
856.5 598.808 L
858.375 607.942 L
860.25 624.465 L
862.125 612.846 L
864 607.248 L
865.875 616.279 L
867.75 607.76 L
869.625 618.284 L
871.5 611.764 L
873.375 603.581 L
875.25 610.179 L
877.125 605.215 L
879 611.951 L
880.875 616.232 L
882.75 593.772 L
884.625 600.938 L
886.5 602.817 L
888.375 599.572 L
890.25 595.441 L
892.125 592.682 L
894 593.602 L
895.875 610.147 L
897.75 597.591 L
899.625 616.897 L
901.5 608.459 L
903.375 604.14 L
905.25 599.028 L
907.125 599.613 L
909 599.986 L
910.875 593.329 L
912.75 598.609 L
914.625 594.221 L
916.5 599.719 L
918.375 604.531 L
920.25 606.091 L
922.125 592.395 L
924 601.669 L
925.875 596.504 L
927.75 599.319 L
929.625 602.288 L
931.5 596.638 L
933.375 604.117 L
935.25 593.999 L
937.125 591.944 L
939 508.023 L
940.875 520.576 L
942.75 507.318 L
944.625 515.387 L
946.5 517.185 L
948.375 517.397 L
950.25 525.407 L
952.125 513.723 L
954 519.795 L
955.875 522.82 L
957.75 513.21 L
959.625 516.554 L
961.5 515.474 L
963.375 512.469 L
965.25 512.238 L
967.125 515.191 L
969 514.819 L
970.875 515.465 L
972.75 514.653 L
974.625 518.551 L
976.5 520.687 L
978.375 519.641 L
980.25 510.152 L
982.125 513.151 L
984 508.017 L
985.875 506.409 L
987.75 517.565 L
989.625 519.247 L
991.5 523.862 L
993.375 514.394 L
995.25 509.214 L
997.125 504.582 L
999 512.745 L
1000.875 515.85 L
1002.75 511.917 L
1004.625 517.899 L
1006.5 512.662 L
1008.375 513.646 L
1010.25 520.291 L
1012.125 515.113 L
1014 510.527 L
S
GR
GS
[0.5 0 0 0.5 0 0] CT
0.298 GC
1 LJ
N
639 632.751 M
1014 632.751 L
S
GR
GS
[0.5 0 0 0.5 0 0] CT
0.298 GC
1 LJ
N
639 748 M
1014 748 L
S
GR
%%Trailer
%%Pages: 1
%%EOF
