%!PS-Adobe-3.0 EPSF-3.0
%%Creator: (MATLAB, The Mathworks, Inc. Version 9.10.0.1739362 \(R2021a\) Update 5. Operating System: Linux)
%%Title: ./rlblt.eps
%%CreationDate: 2021-09-24T15:51:13
%%Pages: (atend)
%%BoundingBox:    35    14   521   377
%%LanguageLevel: 3
%%EndComments
%%BeginProlog
%%BeginResource: procset (Apache XML Graphics Std ProcSet) 1.2 0
%%Version: 1.2 0
%%Copyright: (Copyright 2001-2003,2010 The Apache Software Foundation. License terms: http://www.apache.org/licenses/LICENSE-2.0)
/bd{bind def}bind def
/ld{load def}bd
/GR/grestore ld
/GS/gsave ld
/RM/rmoveto ld
/C/curveto ld
/t/show ld
/L/lineto ld
/ML/setmiterlimit ld
/CT/concat ld
/f/fill ld
/N/newpath ld
/S/stroke ld
/CC/setcmykcolor ld
/A/ashow ld
/cp/closepath ld
/RC/setrgbcolor ld
/LJ/setlinejoin ld
/GC/setgray ld
/LW/setlinewidth ld
/M/moveto ld
/re {4 2 roll M
1 index 0 rlineto
0 exch rlineto
neg 0 rlineto
cp } bd
/_ctm matrix def
/_tm matrix def
/BT { _ctm currentmatrix pop matrix _tm copy pop 0 0 moveto } bd
/ET { _ctm setmatrix } bd
/iTm { _ctm setmatrix _tm concat } bd
/Tm { _tm astore pop iTm 0 0 moveto } bd
/ux 0.0 def
/uy 0.0 def
/F {
  /Tp exch def
  /Tf exch def
  Tf findfont Tp scalefont setfont
  /cf Tf def  /cs Tp def
} bd
/ULS {currentpoint /uy exch def /ux exch def} bd
/ULE {
  /Tcx currentpoint pop def
  gsave
  newpath
  cf findfont cs scalefont dup
  /FontMatrix get 0 get /Ts exch def /FontInfo get dup
  /UnderlinePosition get Ts mul /To exch def
  /UnderlineThickness get Ts mul /Tt exch def
  ux uy To add moveto  Tcx uy To add lineto
  Tt setlinewidth stroke
  grestore
} bd
/OLE {
  /Tcx currentpoint pop def
  gsave
  newpath
  cf findfont cs scalefont dup
  /FontMatrix get 0 get /Ts exch def /FontInfo get dup
  /UnderlinePosition get Ts mul /To exch def
  /UnderlineThickness get Ts mul /Tt exch def
  ux uy To add cs add moveto Tcx uy To add cs add lineto
  Tt setlinewidth stroke
  grestore
} bd
/SOE {
  /Tcx currentpoint pop def
  gsave
  newpath
  cf findfont cs scalefont dup
  /FontMatrix get 0 get /Ts exch def /FontInfo get dup
  /UnderlinePosition get Ts mul /To exch def
  /UnderlineThickness get Ts mul /Tt exch def
  ux uy To add cs 10 mul 26 idiv add moveto Tcx uy To add cs 10 mul 26 idiv add lineto
  Tt setlinewidth stroke
  grestore
} bd
/QT {
/Y22 exch store
/X22 exch store
/Y21 exch store
/X21 exch store
currentpoint
/Y21 load 2 mul add 3 div exch
/X21 load 2 mul add 3 div exch
/X21 load 2 mul /X22 load add 3 div
/Y21 load 2 mul /Y22 load add 3 div
/X22 load /Y22 load curveto
} bd
/SSPD {
dup length /d exch dict def
{
/v exch def
/k exch def
currentpagedevice k known {
/cpdv currentpagedevice k get def
v cpdv ne {
/upd false def
/nullv v type /nulltype eq def
/nullcpdv cpdv type /nulltype eq def
nullv nullcpdv or
{
/upd true def
} {
/sametype v type cpdv type eq def
sametype {
v type /arraytype eq {
/vlen v length def
/cpdvlen cpdv length def
vlen cpdvlen eq {
0 1 vlen 1 sub {
/i exch def
/obj v i get def
/cpdobj cpdv i get def
obj cpdobj ne {
/upd true def
exit
} if
} for
} {
/upd true def
} ifelse
} {
v type /dicttype eq {
v {
/dv exch def
/dk exch def
/cpddv cpdv dk get def
dv cpddv ne {
/upd true def
exit
} if
} forall
} {
/upd true def
} ifelse
} ifelse
} if
} ifelse
upd true eq {
d k v put
} if
} if
} if
} forall
d length 0 gt {
d setpagedevice
} if
} bd
/RE { % /NewFontName [NewEncodingArray] /FontName RE -
  findfont dup length dict begin
  {
    1 index /FID ne
    {def} {pop pop} ifelse
  } forall
  /Encoding exch def
  /FontName 1 index def
  currentdict definefont pop
  end
} bind def
%%EndResource
%%BeginResource: procset (Apache XML Graphics EPS ProcSet) 1.0 0
%%Version: 1.0 0
%%Copyright: (Copyright 2002-2003 The Apache Software Foundation. License terms: http://www.apache.org/licenses/LICENSE-2.0)
/BeginEPSF { %def
/b4_Inc_state save def         % Save state for cleanup
/dict_count countdictstack def % Count objects on dict stack
/op_count count 1 sub def      % Count objects on operand stack
userdict begin                 % Push userdict on dict stack
/showpage { } def              % Redefine showpage, { } = null proc
0 setgray 0 setlinecap         % Prepare graphics state
1 setlinewidth 0 setlinejoin
10 setmiterlimit [ ] 0 setdash newpath
/languagelevel where           % If level not equal to 1 then
{pop languagelevel             % set strokeadjust and
1 ne                           % overprint to their defaults.
{false setstrokeadjust false setoverprint
} if
} if
} bd
/EndEPSF { %def
count op_count sub {pop} repeat            % Clean up stacks
countdictstack dict_count sub {end} repeat
b4_Inc_state restore
} bd
%%EndResource
%FOPBeginFontDict
%%IncludeResource: font Courier-Oblique
%%IncludeResource: font Courier-BoldOblique
%%IncludeResource: font Courier-Bold
%%IncludeResource: font ZapfDingbats
%%IncludeResource: font Symbol
%%IncludeResource: font Helvetica
%%IncludeResource: font Helvetica-Oblique
%%IncludeResource: font Helvetica-Bold
%%IncludeResource: font Helvetica-BoldOblique
%%IncludeResource: font Times-Roman
%%IncludeResource: font Times-Italic
%%IncludeResource: font Times-Bold
%%IncludeResource: font Times-BoldItalic
%%IncludeResource: font Courier
%FOPEndFontDict
%%BeginResource: encoding WinAnsiEncoding
/WinAnsiEncoding [
/.notdef /.notdef /.notdef /.notdef /.notdef
/.notdef /.notdef /.notdef /.notdef /.notdef
/.notdef /.notdef /.notdef /.notdef /.notdef
/.notdef /.notdef /.notdef /.notdef /.notdef
/.notdef /.notdef /.notdef /.notdef /.notdef
/.notdef /.notdef /.notdef /.notdef /.notdef
/.notdef /.notdef /space /exclam /quotedbl
/numbersign /dollar /percent /ampersand /quotesingle
/parenleft /parenright /asterisk /plus /comma
/hyphen /period /slash /zero /one
/two /three /four /five /six
/seven /eight /nine /colon /semicolon
/less /equal /greater /question /at
/A /B /C /D /E
/F /G /H /I /J
/K /L /M /N /O
/P /Q /R /S /T
/U /V /W /X /Y
/Z /bracketleft /backslash /bracketright /asciicircum
/underscore /quoteleft /a /b /c
/d /e /f /g /h
/i /j /k /l /m
/n /o /p /q /r
/s /t /u /v /w
/x /y /z /braceleft /bar
/braceright /asciitilde /bullet /Euro /bullet
/quotesinglbase /florin /quotedblbase /ellipsis /dagger
/daggerdbl /circumflex /perthousand /Scaron /guilsinglleft
/OE /bullet /Zcaron /bullet /bullet
/quoteleft /quoteright /quotedblleft /quotedblright /bullet
/endash /emdash /asciitilde /trademark /scaron
/guilsinglright /oe /bullet /zcaron /Ydieresis
/space /exclamdown /cent /sterling /currency
/yen /brokenbar /section /dieresis /copyright
/ordfeminine /guillemotleft /logicalnot /sfthyphen /registered
/macron /degree /plusminus /twosuperior /threesuperior
/acute /mu /paragraph /middot /cedilla
/onesuperior /ordmasculine /guillemotright /onequarter /onehalf
/threequarters /questiondown /Agrave /Aacute /Acircumflex
/Atilde /Adieresis /Aring /AE /Ccedilla
/Egrave /Eacute /Ecircumflex /Edieresis /Igrave
/Iacute /Icircumflex /Idieresis /Eth /Ntilde
/Ograve /Oacute /Ocircumflex /Otilde /Odieresis
/multiply /Oslash /Ugrave /Uacute /Ucircumflex
/Udieresis /Yacute /Thorn /germandbls /agrave
/aacute /acircumflex /atilde /adieresis /aring
/ae /ccedilla /egrave /eacute /ecircumflex
/edieresis /igrave /iacute /icircumflex /idieresis
/eth /ntilde /ograve /oacute /ocircumflex
/otilde /odieresis /divide /oslash /ugrave
/uacute /ucircumflex /udieresis /yacute /thorn
/ydieresis
] def
%%EndResource
%FOPBeginFontReencode
/Courier-Oblique findfont
dup length dict begin
  {1 index /FID ne {def} {pop pop} ifelse} forall
  /Encoding WinAnsiEncoding def
  currentdict
end
/Courier-Oblique exch definefont pop
/Courier-BoldOblique findfont
dup length dict begin
  {1 index /FID ne {def} {pop pop} ifelse} forall
  /Encoding WinAnsiEncoding def
  currentdict
end
/Courier-BoldOblique exch definefont pop
/Courier-Bold findfont
dup length dict begin
  {1 index /FID ne {def} {pop pop} ifelse} forall
  /Encoding WinAnsiEncoding def
  currentdict
end
/Courier-Bold exch definefont pop
/Helvetica findfont
dup length dict begin
  {1 index /FID ne {def} {pop pop} ifelse} forall
  /Encoding WinAnsiEncoding def
  currentdict
end
/Helvetica exch definefont pop
/Helvetica-Oblique findfont
dup length dict begin
  {1 index /FID ne {def} {pop pop} ifelse} forall
  /Encoding WinAnsiEncoding def
  currentdict
end
/Helvetica-Oblique exch definefont pop
/Helvetica-Bold findfont
dup length dict begin
  {1 index /FID ne {def} {pop pop} ifelse} forall
  /Encoding WinAnsiEncoding def
  currentdict
end
/Helvetica-Bold exch definefont pop
/Helvetica-BoldOblique findfont
dup length dict begin
  {1 index /FID ne {def} {pop pop} ifelse} forall
  /Encoding WinAnsiEncoding def
  currentdict
end
/Helvetica-BoldOblique exch definefont pop
/Times-Roman findfont
dup length dict begin
  {1 index /FID ne {def} {pop pop} ifelse} forall
  /Encoding WinAnsiEncoding def
  currentdict
end
/Times-Roman exch definefont pop
/Times-Italic findfont
dup length dict begin
  {1 index /FID ne {def} {pop pop} ifelse} forall
  /Encoding WinAnsiEncoding def
  currentdict
end
/Times-Italic exch definefont pop
/Times-Bold findfont
dup length dict begin
  {1 index /FID ne {def} {pop pop} ifelse} forall
  /Encoding WinAnsiEncoding def
  currentdict
end
/Times-Bold exch definefont pop
/Times-BoldItalic findfont
dup length dict begin
  {1 index /FID ne {def} {pop pop} ifelse} forall
  /Encoding WinAnsiEncoding def
  currentdict
end
/Times-BoldItalic exch definefont pop
/Courier findfont
dup length dict begin
  {1 index /FID ne {def} {pop pop} ifelse} forall
  /Encoding WinAnsiEncoding def
  currentdict
end
/Courier exch definefont pop
%FOPEndFontReencode
%%EndProlog
%%Page: 1 1
%%PageBoundingBox: 0 0 565 393
%%BeginPageSetup
[1 0 0 -1 0 393] CT
%%EndPageSetup
GS
[0.5 0 0 0.5 0 0] CT
1 GC
N
0 0 1130 786 re
f
GR
GS
[0.5 0 0 0.5 0 0] CT
1 GC
N
0 0 1130 786 re
f
GR
GS
[0.5 0 0 0.5 0 0] CT
1 GC
N
147 700 M
1023 700 L
1023 59 L
147 59 L
cp
f
GR
GS
[0.5 0 0 0.5 0 0] CT
0.851 GC
1 LJ
N
147 700 M
147 59 L
S
GR
GS
[0.5 0 0 0.5 0 0] CT
0.851 GC
1 LJ
N
234.6 700 M
234.6 59 L
S
GR
GS
[0.5 0 0 0.5 0 0] CT
0.851 GC
1 LJ
N
322.2 700 M
322.2 59 L
S
GR
GS
[0.5 0 0 0.5 0 0] CT
0.851 GC
1 LJ
N
409.8 700 M
409.8 59 L
S
GR
GS
[0.5 0 0 0.5 0 0] CT
0.851 GC
1 LJ
N
497.4 700 M
497.4 59 L
S
GR
GS
[0.5 0 0 0.5 0 0] CT
0.851 GC
1 LJ
N
585 700 M
585 59 L
S
GR
GS
[0.5 0 0 0.5 0 0] CT
0.851 GC
1 LJ
N
672.6 700 M
672.6 59 L
S
GR
GS
[0.5 0 0 0.5 0 0] CT
0.851 GC
1 LJ
N
760.2 700 M
760.2 59 L
S
GR
GS
[0.5 0 0 0.5 0 0] CT
0.851 GC
1 LJ
N
847.8 700 M
847.8 59 L
S
GR
GS
[0.5 0 0 0.5 0 0] CT
0.851 GC
1 LJ
N
935.4 700 M
935.4 59 L
S
GR
GS
[0.5 0 0 0.5 0 0] CT
0.851 GC
1 LJ
N
1023 700 M
1023 59 L
S
GR
GS
[0.5 0 0 0.5 0 0] CT
0.851 GC
1 LJ
N
1023 700 M
147 700 L
S
GR
GS
[0.5 0 0 0.5 0 0] CT
0.851 GC
1 LJ
N
1023 635.9 M
147 635.9 L
S
GR
GS
[0.5 0 0 0.5 0 0] CT
0.851 GC
1 LJ
N
1023 571.8 M
147 571.8 L
S
GR
GS
[0.5 0 0 0.5 0 0] CT
0.851 GC
1 LJ
N
1023 507.7 M
147 507.7 L
S
GR
GS
[0.5 0 0 0.5 0 0] CT
0.851 GC
1 LJ
N
1023 443.6 M
147 443.6 L
S
GR
GS
[0.5 0 0 0.5 0 0] CT
0.851 GC
1 LJ
N
1023 379.5 M
147 379.5 L
S
GR
GS
[0.5 0 0 0.5 0 0] CT
0.851 GC
1 LJ
N
1023 315.4 M
147 315.4 L
S
GR
GS
[0.5 0 0 0.5 0 0] CT
0.851 GC
1 LJ
N
1023 251.3 M
147 251.3 L
S
GR
GS
[0.5 0 0 0.5 0 0] CT
0.851 GC
1 LJ
N
1023 187.2 M
147 187.2 L
S
GR
GS
[0.5 0 0 0.5 0 0] CT
0.851 GC
1 LJ
N
1023 123.1 M
147 123.1 L
S
GR
GS
[0.5 0 0 0.5 0 0] CT
0.851 GC
1 LJ
N
1023 59 M
147 59 L
S
GR
GS
[0.5 0 0 0.5 0 0] CT
2 setlinecap
1 LJ
N
147 700 M
1023 700 L
S
GR
GS
[0.5 0 0 0.5 0 0] CT
2 setlinecap
1 LJ
N
147 59 M
1023 59 L
S
GR
GS
[0.5 0 0 0.5 0 0] CT
2 setlinecap
1 LJ
N
147 700 M
147 691.24 L
S
GR
GS
[0.5 0 0 0.5 0 0] CT
2 setlinecap
1 LJ
N
234.6 700 M
234.6 691.24 L
S
GR
GS
[0.5 0 0 0.5 0 0] CT
2 setlinecap
1 LJ
N
322.2 700 M
322.2 691.24 L
S
GR
GS
[0.5 0 0 0.5 0 0] CT
2 setlinecap
1 LJ
N
409.8 700 M
409.8 691.24 L
S
GR
GS
[0.5 0 0 0.5 0 0] CT
2 setlinecap
1 LJ
N
497.4 700 M
497.4 691.24 L
S
GR
GS
[0.5 0 0 0.5 0 0] CT
2 setlinecap
1 LJ
N
585 700 M
585 691.24 L
S
GR
GS
[0.5 0 0 0.5 0 0] CT
2 setlinecap
1 LJ
N
672.6 700 M
672.6 691.24 L
S
GR
GS
[0.5 0 0 0.5 0 0] CT
2 setlinecap
1 LJ
N
760.2 700 M
760.2 691.24 L
S
GR
GS
[0.5 0 0 0.5 0 0] CT
2 setlinecap
1 LJ
N
847.8 700 M
847.8 691.24 L
S
GR
GS
[0.5 0 0 0.5 0 0] CT
2 setlinecap
1 LJ
N
935.4 700 M
935.4 691.24 L
S
GR
GS
[0.5 0 0 0.5 0 0] CT
2 setlinecap
1 LJ
N
1023 700 M
1023 691.24 L
S
GR
GS
[0.5 0 0 0.5 0 0] CT
2 setlinecap
1 LJ
N
147 59 M
147 67.76 L
S
GR
GS
[0.5 0 0 0.5 0 0] CT
2 setlinecap
1 LJ
N
234.6 59 M
234.6 67.76 L
S
GR
GS
[0.5 0 0 0.5 0 0] CT
2 setlinecap
1 LJ
N
322.2 59 M
322.2 67.76 L
S
GR
GS
[0.5 0 0 0.5 0 0] CT
2 setlinecap
1 LJ
N
409.8 59 M
409.8 67.76 L
S
GR
GS
[0.5 0 0 0.5 0 0] CT
2 setlinecap
1 LJ
N
497.4 59 M
497.4 67.76 L
S
GR
GS
[0.5 0 0 0.5 0 0] CT
2 setlinecap
1 LJ
N
585 59 M
585 67.76 L
S
GR
GS
[0.5 0 0 0.5 0 0] CT
2 setlinecap
1 LJ
N
672.6 59 M
672.6 67.76 L
S
GR
GS
[0.5 0 0 0.5 0 0] CT
2 setlinecap
1 LJ
N
760.2 59 M
760.2 67.76 L
S
GR
GS
[0.5 0 0 0.5 0 0] CT
2 setlinecap
1 LJ
N
847.8 59 M
847.8 67.76 L
S
GR
GS
[0.5 0 0 0.5 0 0] CT
2 setlinecap
1 LJ
N
935.4 59 M
935.4 67.76 L
S
GR
GS
[0.5 0 0 0.5 0 0] CT
2 setlinecap
1 LJ
N
1023 59 M
1023 67.76 L
S
GR
GS
[0.5 0 0 0.5 73.5 354] CT
/Helvetica 20 F
GS
[1 0 0 1 0 0] CT
-6.5 19 moveto 
1 -1 scale
(0) t 
GR
GR
GS
[0.5 0 0 0.5 117.3 354] CT
/Helvetica 20 F
GS
[1 0 0 1 0 0] CT
-13 19 moveto 
1 -1 scale
(20) t 
GR
GR
GS
[0.5 0 0 0.5 161.10001 354] CT
/Helvetica 20 F
GS
[1 0 0 1 0 0] CT
-13 19 moveto 
1 -1 scale
(40) t 
GR
GR
GS
[0.5 0 0 0.5 204.89999 354] CT
/Helvetica 20 F
GS
[1 0 0 1 0 0] CT
-13 19 moveto 
1 -1 scale
(60) t 
GR
GR
GS
[0.5 0 0 0.5 248.7 354] CT
/Helvetica 20 F
GS
[1 0 0 1 0 0] CT
-13 19 moveto 
1 -1 scale
(80) t 
GR
GR
GS
[0.5 0 0 0.5 292.5 354] CT
/Helvetica 20 F
GS
[1 0 0 1 0 0] CT
-19.5 19 moveto 
1 -1 scale
(100) t 
GR
GR
GS
[0.5 0 0 0.5 336.29999 354] CT
/Helvetica 20 F
GS
[1 0 0 1 0 0] CT
-19.5 19 moveto 
1 -1 scale
(120) t 
GR
GR
GS
[0.5 0 0 0.5 380.10001 354] CT
/Helvetica 20 F
GS
[1 0 0 1 0 0] CT
-19.5 19 moveto 
1 -1 scale
(140) t 
GR
GR
GS
[0.5 0 0 0.5 423.89999 354] CT
/Helvetica 20 F
GS
[1 0 0 1 0 0] CT
-19.5 19 moveto 
1 -1 scale
(160) t 
GR
GR
GS
[0.5 0 0 0.5 467.70001 354] CT
/Helvetica 20 F
GS
[1 0 0 1 0 0] CT
-19.5 19 moveto 
1 -1 scale
(180) t 
GR
GR
GS
[0.5 0 0 0.5 511.5 354] CT
/Helvetica 20 F
GS
[1 0 0 1 0 0] CT
-19.5 19 moveto 
1 -1 scale
(200) t 
GR
GR
GS
[0.5 0 0 0.5 292.50021 367] CT
/Helvetica 22 F
GS
[1 0 0 1 0 0] CT
-45.5 21 moveto 
1 -1 scale
(Time [s]) t 
GR
GR
GS
[0.5 0 0 0.5 0 0] CT
2 setlinecap
1 LJ
N
147 700 M
147 59 L
S
GR
GS
[0.5 0 0 0.5 0 0] CT
2 setlinecap
1 LJ
N
1023 700 M
1023 59 L
S
GR
GS
[0.5 0 0 0.5 0 0] CT
2 setlinecap
1 LJ
N
147 700 M
155.76 700 L
S
GR
GS
[0.5 0 0 0.5 0 0] CT
2 setlinecap
1 LJ
N
147 635.9 M
155.76 635.9 L
S
GR
GS
[0.5 0 0 0.5 0 0] CT
2 setlinecap
1 LJ
N
147 571.8 M
155.76 571.8 L
S
GR
GS
[0.5 0 0 0.5 0 0] CT
2 setlinecap
1 LJ
N
147 507.7 M
155.76 507.7 L
S
GR
GS
[0.5 0 0 0.5 0 0] CT
2 setlinecap
1 LJ
N
147 443.6 M
155.76 443.6 L
S
GR
GS
[0.5 0 0 0.5 0 0] CT
2 setlinecap
1 LJ
N
147 379.5 M
155.76 379.5 L
S
GR
GS
[0.5 0 0 0.5 0 0] CT
2 setlinecap
1 LJ
N
147 315.4 M
155.76 315.4 L
S
GR
GS
[0.5 0 0 0.5 0 0] CT
2 setlinecap
1 LJ
N
147 251.3 M
155.76 251.3 L
S
GR
GS
[0.5 0 0 0.5 0 0] CT
2 setlinecap
1 LJ
N
147 187.2 M
155.76 187.2 L
S
GR
GS
[0.5 0 0 0.5 0 0] CT
2 setlinecap
1 LJ
N
147 123.1 M
155.76 123.1 L
S
GR
GS
[0.5 0 0 0.5 0 0] CT
2 setlinecap
1 LJ
N
147 59 M
155.76 59 L
S
GR
GS
[0.5 0 0 0.5 0 0] CT
2 setlinecap
1 LJ
N
1023 700 M
1014.24 700 L
S
GR
GS
[0.5 0 0 0.5 0 0] CT
2 setlinecap
1 LJ
N
1023 635.9 M
1014.24 635.9 L
S
GR
GS
[0.5 0 0 0.5 0 0] CT
2 setlinecap
1 LJ
N
1023 571.8 M
1014.24 571.8 L
S
GR
GS
[0.5 0 0 0.5 0 0] CT
2 setlinecap
1 LJ
N
1023 507.7 M
1014.24 507.7 L
S
GR
GS
[0.5 0 0 0.5 0 0] CT
2 setlinecap
1 LJ
N
1023 443.6 M
1014.24 443.6 L
S
GR
GS
[0.5 0 0 0.5 0 0] CT
2 setlinecap
1 LJ
N
1023 379.5 M
1014.24 379.5 L
S
GR
GS
[0.5 0 0 0.5 0 0] CT
2 setlinecap
1 LJ
N
1023 315.4 M
1014.24 315.4 L
S
GR
GS
[0.5 0 0 0.5 0 0] CT
2 setlinecap
1 LJ
N
1023 251.3 M
1014.24 251.3 L
S
GR
GS
[0.5 0 0 0.5 0 0] CT
2 setlinecap
1 LJ
N
1023 187.2 M
1014.24 187.2 L
S
GR
GS
[0.5 0 0 0.5 0 0] CT
2 setlinecap
1 LJ
N
1023 123.1 M
1014.24 123.1 L
S
GR
GS
[0.5 0 0 0.5 0 0] CT
2 setlinecap
1 LJ
N
1023 59 M
1014.24 59 L
S
GR
GS
[0.5 0 0 0.5 69.5 350] CT
/Helvetica 20 F
GS
[1 0 0 1 0 0] CT
-20 7 moveto 
1 -1 scale
(-1) t 
GR
GR
GS
[0.5 0 0 0.5 69.5 317.95001] CT
/Helvetica 20 F
GS
[1 0 0 1 0 0] CT
-40 7 moveto 
1 -1 scale
(-0.8) t 
GR
GR
GS
[0.5 0 0 0.5 69.5 285.89999] CT
/Helvetica 20 F
GS
[1 0 0 1 0 0] CT
-40 7 moveto 
1 -1 scale
(-0.6) t 
GR
GR
GS
[0.5 0 0 0.5 69.5 253.85001] CT
/Helvetica 20 F
GS
[1 0 0 1 0 0] CT
-40 7 moveto 
1 -1 scale
(-0.4) t 
GR
GR
GS
[0.5 0 0 0.5 69.5 221.8] CT
/Helvetica 20 F
GS
[1 0 0 1 0 0] CT
-40 7 moveto 
1 -1 scale
(-0.2) t 
GR
GR
GS
[0.5 0 0 0.5 69.5 189.75] CT
/Helvetica 20 F
GS
[1 0 0 1 0 0] CT
-13 7 moveto 
1 -1 scale
(0) t 
GR
GR
GS
[0.5 0 0 0.5 69.5 157.7] CT
/Helvetica 20 F
GS
[1 0 0 1 0 0] CT
-32 7 moveto 
1 -1 scale
(0.2) t 
GR
GR
GS
[0.5 0 0 0.5 69.5 125.65] CT
/Helvetica 20 F
GS
[1 0 0 1 0 0] CT
-32 7 moveto 
1 -1 scale
(0.4) t 
GR
GR
GS
[0.5 0 0 0.5 69.5 93.6] CT
/Helvetica 20 F
GS
[1 0 0 1 0 0] CT
-32 7 moveto 
1 -1 scale
(0.6) t 
GR
GR
GS
[0.5 0 0 0.5 69.5 61.55] CT
/Helvetica 20 F
GS
[1 0 0 1 0 0] CT
-32 7 moveto 
1 -1 scale
(0.8) t 
GR
GR
GS
[0.5 0 0 0.5 69.5 29.5] CT
/Helvetica 20 F
GS
[1 0 0 1 0 0] CT
-13 7 moveto 
1 -1 scale
(1) t 
GR
GR
GS
[0 -0.5 0.5 0 46.5 189.74985] CT
/Helvetica 22 F
GS
[1 0 0 1 0 0] CT
-70.5 -6 moveto 
1 -1 scale
(Reliability [-]) t 
GR
GR
GS
[0.5 0 0 0.5 292.50027 28.125] CT
/Helvetica-Bold 22 F
GS
[1 0 0 1 0 0] CT
-151.5 -6 moveto 
1 -1 scale
(Reliability of the system) t 
GR
GR
GS
[0.5 0 0 0.5 0 0] CT
1 LJ
N
151.38 227.066 M
155.76 216.179 L
160.14 235.32 L
164.52 227.757 L
168.9 231.79 L
173.28 235.743 L
177.66 234.236 L
182.04 227.891 L
186.42 213.75 L
190.8 231.243 L
195.18 226.04 L
199.56 225.851 L
203.94 232.921 L
208.32 223.363 L
212.7 225.567 L
217.08 240.225 L
221.46 221.137 L
225.84 230.261 L
230.22 234.368 L
234.6 224.475 L
238.98 236.805 L
243.36 239.666 L
247.74 237.275 L
252.12 229.879 L
256.5 314.839 L
260.88 318.428 L
265.26 331.435 L
269.64 325.481 L
274.02 310.91 L
278.4 331.955 L
282.78 314.705 L
287.16 308.89 L
291.54 313.527 L
295.92 321.209 L
300.3 316.279 L
304.68 315.343 L
309.06 304.243 L
313.44 317.874 L
317.82 307.23 L
322.2 320.112 L
326.58 310.223 L
330.96 313.987 L
335.34 318.966 L
339.72 308.448 L
344.1 310.837 L
348.48 313.009 L
352.86 323.472 L
357.24 320.339 L
361.62 308.51 L
366 315.974 L
370.38 237.283 L
374.76 227.878 L
379.14 230.431 L
383.52 234.262 L
387.9 229.888 L
392.28 229.217 L
396.66 236.304 L
401.04 223.215 L
405.42 230.101 L
409.8 227.041 L
414.18 236.633 L
418.56 232.296 L
422.94 235.537 L
427.32 231.486 L
431.7 231.935 L
436.08 233.437 L
440.46 238.638 L
444.84 223.516 L
449.22 220.474 L
453.6 427.998 L
457.98 427.456 L
462.36 421.431 L
466.74 426.151 L
471.12 423.67 L
475.5 420.368 L
479.88 421.541 L
484.26 428.34 L
488.64 427.239 L
493.02 429.502 L
497.4 428.411 L
501.78 420.341 L
506.16 429.835 L
510.54 427.72 L
514.92 421.537 L
519.3 424.3 L
523.68 432.78 L
528.06 426.097 L
532.44 433.471 L
536.82 429.863 L
541.2 424.175 L
545.58 423.6 L
549.96 436.034 L
554.34 434.972 L
558.72 434.428 L
563.1 436.604 L
567.48 430.243 L
571.86 439.28 L
576.24 437.742 L
580.62 440.762 L
585 440.411 L
589.38 240.968 L
593.76 245.264 L
598.14 247.11 L
602.52 245.013 L
606.9 242.643 L
611.28 242.628 L
615.66 247.941 L
620.04 243.946 L
624.42 239.177 L
628.8 244.008 L
633.18 237.182 L
637.56 235.261 L
641.94 231.697 L
646.32 231.239 L
650.7 242.077 L
655.08 243.517 L
659.46 243.854 L
663.84 242.33 L
668.22 234.559 L
672.6 243.523 L
676.98 240.196 L
681.36 227.368 L
685.74 237.778 L
690.12 236.839 L
694.5 240.237 L
698.88 229.072 L
703.26 233.788 L
707.64 237.665 L
712.02 224.2 L
716.4 485.08 L
720.78 485.993 L
725.16 482.497 L
729.54 486.23 L
733.92 484.874 L
738.3 487.547 L
742.68 485.747 L
747.06 493.799 L
751.44 498.419 L
755.82 482.081 L
760.2 484.385 L
764.58 484.899 L
768.96 486.588 L
773.34 490.429 L
777.72 492.935 L
782.1 489.067 L
786.48 242.463 L
790.86 239.496 L
795.24 245.599 L
799.62 252.303 L
804 246.497 L
808.38 238.365 L
812.76 252.749 L
817.14 238.985 L
821.52 237.843 L
825.9 240.809 L
830.28 242.619 L
834.66 245.355 L
839.04 232.548 L
843.42 227.755 L
847.8 361.318 L
852.18 352.142 L
856.56 356.893 L
860.94 361.564 L
865.32 360.611 L
869.7 360.375 L
874.08 357.141 L
878.46 360.042 L
882.84 359.21 L
887.22 363.732 L
891.6 362.136 L
895.98 361.528 L
900.36 366.676 L
904.74 376.281 L
909.12 366.151 L
913.5 365.179 L
917.88 367.254 L
922.26 368.344 L
926.64 366.556 L
931.02 372.014 L
935.4 369.65 L
939.78 371.241 L
944.16 366.745 L
948.54 369.936 L
952.92 367.126 L
957.3 372.58 L
961.68 270.011 L
966.06 258.803 L
970.44 259.659 L
974.82 262.354 L
979.2 264.853 L
983.58 256.947 L
987.96 258.616 L
992.34 254.959 L
996.72 268.506 L
1001.1 263.5 L
1005.48 263.063 L
1009.86 270.195 L
1014.24 270.551 L
1018.62 278.985 L
1023 279.519 L
S
GR
GS
[0.5 0 0 0.5 75.69 113.53281] CT
10.0 ML
N
-4.243 -4.243 M
4.243 4.243 L
-4.243 4.243 M
4.243 -4.243 L
S
GR
GS
[0.5 0 0 0.5 77.88 108.08962] CT
10.0 ML
N
-4.243 -4.243 M
4.243 4.243 L
-4.243 4.243 M
4.243 -4.243 L
S
GR
GS
[0.5 0 0 0.5 80.07 117.6601] CT
10.0 ML
N
-4.243 -4.243 M
4.243 4.243 L
-4.243 4.243 M
4.243 -4.243 L
S
GR
GS
[0.5 0 0 0.5 82.26 113.87846] CT
10.0 ML
N
-4.243 -4.243 M
4.243 4.243 L
-4.243 4.243 M
4.243 -4.243 L
S
GR
GS
[0.5 0 0 0.5 84.45 115.89501] CT
10.0 ML
N
-4.243 -4.243 M
4.243 4.243 L
-4.243 4.243 M
4.243 -4.243 L
S
GR
GS
[0.5 0 0 0.5 86.64 117.87136] CT
10.0 ML
N
-4.243 -4.243 M
4.243 4.243 L
-4.243 4.243 M
4.243 -4.243 L
S
GR
GS
[0.5 0 0 0.5 88.83 117.11787] CT
10.0 ML
N
-4.243 -4.243 M
4.243 4.243 L
-4.243 4.243 M
4.243 -4.243 L
S
GR
GS
[0.5 0 0 0.5 91.02 113.94534] CT
10.0 ML
N
-4.243 -4.243 M
4.243 4.243 L
-4.243 4.243 M
4.243 -4.243 L
S
GR
GS
[0.5 0 0 0.5 93.21 106.8748] CT
10.0 ML
N
-4.243 -4.243 M
4.243 4.243 L
-4.243 4.243 M
4.243 -4.243 L
S
GR
GS
[0.5 0 0 0.5 95.4 115.62147] CT
10.0 ML
N
-4.243 -4.243 M
4.243 4.243 L
-4.243 4.243 M
4.243 -4.243 L
S
GR
GS
[0.5 0 0 0.5 97.59 113.01994] CT
10.0 ML
N
-4.243 -4.243 M
4.243 4.243 L
-4.243 4.243 M
4.243 -4.243 L
S
GR
GS
[0.5 0 0 0.5 99.78 112.92559] CT
10.0 ML
N
-4.243 -4.243 M
4.243 4.243 L
-4.243 4.243 M
4.243 -4.243 L
S
GR
GS
[0.5 0 0 0.5 101.97 116.46054] CT
10.0 ML
N
-4.243 -4.243 M
4.243 4.243 L
-4.243 4.243 M
4.243 -4.243 L
S
GR
GS
[0.5 0 0 0.5 104.16 111.68135] CT
10.0 ML
N
-4.243 -4.243 M
4.243 4.243 L
-4.243 4.243 M
4.243 -4.243 L
S
GR
GS
[0.5 0 0 0.5 106.35 112.78365] CT
10.0 ML
N
-4.243 -4.243 M
4.243 4.243 L
-4.243 4.243 M
4.243 -4.243 L
S
GR
GS
[0.5 0 0 0.5 108.54 120.11251] CT
10.0 ML
N
-4.243 -4.243 M
4.243 4.243 L
-4.243 4.243 M
4.243 -4.243 L
S
GR
GS
[0.5 0 0 0.5 110.73 110.56841] CT
10.0 ML
N
-4.243 -4.243 M
4.243 4.243 L
-4.243 4.243 M
4.243 -4.243 L
S
GR
GS
[0.5 0 0 0.5 112.92 115.13036] CT
10.0 ML
N
-4.243 -4.243 M
4.243 4.243 L
-4.243 4.243 M
4.243 -4.243 L
S
GR
GS
[0.5 0 0 0.5 115.11 117.18408] CT
10.0 ML
N
-4.243 -4.243 M
4.243 4.243 L
-4.243 4.243 M
4.243 -4.243 L
S
GR
GS
[0.5 0 0 0.5 117.3 112.2375] CT
10.0 ML
N
-4.243 -4.243 M
4.243 4.243 L
-4.243 4.243 M
4.243 -4.243 L
S
GR
GS
[0.5 0 0 0.5 119.49 118.40232] CT
10.0 ML
N
-4.243 -4.243 M
4.243 4.243 L
-4.243 4.243 M
4.243 -4.243 L
S
GR
GS
[0.5 0 0 0.5 121.68 119.83295] CT
10.0 ML
N
-4.243 -4.243 M
4.243 4.243 L
-4.243 4.243 M
4.243 -4.243 L
S
GR
GS
[0.5 0 0 0.5 123.87 118.6373] CT
10.0 ML
N
-4.243 -4.243 M
4.243 4.243 L
-4.243 4.243 M
4.243 -4.243 L
S
GR
GS
[0.5 0 0 0.5 126.06 114.93941] CT
10.0 ML
N
-4.243 -4.243 M
4.243 4.243 L
-4.243 4.243 M
4.243 -4.243 L
S
GR
GS
[0.5 0 0 0.5 128.25 157.41966] CT
10.0 ML
N
-4.243 -4.243 M
4.243 4.243 L
-4.243 4.243 M
4.243 -4.243 L
S
GR
GS
[0.5 0 0 0.5 130.44 159.21425] CT
10.0 ML
N
-4.243 -4.243 M
4.243 4.243 L
-4.243 4.243 M
4.243 -4.243 L
S
GR
GS
[0.5 0 0 0.5 132.63 165.71751] CT
10.0 ML
N
-4.243 -4.243 M
4.243 4.243 L
-4.243 4.243 M
4.243 -4.243 L
S
GR
GS
[0.5 0 0 0.5 134.82001 162.74069] CT
10.0 ML
N
-4.243 -4.243 M
4.243 4.243 L
-4.243 4.243 M
4.243 -4.243 L
S
GR
GS
[0.5 0 0 0.5 137.00999 155.45477] CT
10.0 ML
N
-4.243 -4.243 M
4.243 4.243 L
-4.243 4.243 M
4.243 -4.243 L
S
GR
GS
[0.5 0 0 0.5 139.2 165.97749] CT
10.0 ML
N
-4.243 -4.243 M
4.243 4.243 L
-4.243 4.243 M
4.243 -4.243 L
S
GR
GS
[0.5 0 0 0.5 141.39 157.35251] CT
10.0 ML
N
-4.243 -4.243 M
4.243 4.243 L
-4.243 4.243 M
4.243 -4.243 L
S
GR
GS
[0.5 0 0 0.5 143.58 154.44499] CT
10.0 ML
N
-4.243 -4.243 M
4.243 4.243 L
-4.243 4.243 M
4.243 -4.243 L
S
GR
GS
[0.5 0 0 0.5 145.77 156.76335] CT
10.0 ML
N
-4.243 -4.243 M
4.243 4.243 L
-4.243 4.243 M
4.243 -4.243 L
S
GR
GS
[0.5 0 0 0.5 147.96001 160.60472] CT
10.0 ML
N
-4.243 -4.243 M
4.243 4.243 L
-4.243 4.243 M
4.243 -4.243 L
S
GR
GS
[0.5 0 0 0.5 150.14999 158.13945] CT
10.0 ML
N
-4.243 -4.243 M
4.243 4.243 L
-4.243 4.243 M
4.243 -4.243 L
S
GR
GS
[0.5 0 0 0.5 152.34 157.67169] CT
10.0 ML
N
-4.243 -4.243 M
4.243 4.243 L
-4.243 4.243 M
4.243 -4.243 L
S
GR
GS
[0.5 0 0 0.5 154.53 152.12143] CT
10.0 ML
N
-4.243 -4.243 M
4.243 4.243 L
-4.243 4.243 M
4.243 -4.243 L
S
GR
GS
[0.5 0 0 0.5 156.72 158.937] CT
10.0 ML
N
-4.243 -4.243 M
4.243 4.243 L
-4.243 4.243 M
4.243 -4.243 L
S
GR
GS
[0.5 0 0 0.5 158.91 153.6152] CT
10.0 ML
N
-4.243 -4.243 M
4.243 4.243 L
-4.243 4.243 M
4.243 -4.243 L
S
GR
GS
[0.5 0 0 0.5 161.10001 160.05585] CT
10.0 ML
N
-4.243 -4.243 M
4.243 4.243 L
-4.243 4.243 M
4.243 -4.243 L
S
GR
GS
[0.5 0 0 0.5 163.28999 155.11127] CT
10.0 ML
N
-4.243 -4.243 M
4.243 4.243 L
-4.243 4.243 M
4.243 -4.243 L
S
GR
GS
[0.5 0 0 0.5 165.48 156.99329] CT
10.0 ML
N
-4.243 -4.243 M
4.243 4.243 L
-4.243 4.243 M
4.243 -4.243 L
S
GR
GS
[0.5 0 0 0.5 167.67 159.48318] CT
10.0 ML
N
-4.243 -4.243 M
4.243 4.243 L
-4.243 4.243 M
4.243 -4.243 L
S
GR
GS
[0.5 0 0 0.5 169.86 154.22412] CT
10.0 ML
N
-4.243 -4.243 M
4.243 4.243 L
-4.243 4.243 M
4.243 -4.243 L
S
GR
GS
[0.5 0 0 0.5 172.05 155.4187] CT
10.0 ML
N
-4.243 -4.243 M
4.243 4.243 L
-4.243 4.243 M
4.243 -4.243 L
S
GR
GS
[0.5 0 0 0.5 174.24001 156.50444] CT
10.0 ML
N
-4.243 -4.243 M
4.243 4.243 L
-4.243 4.243 M
4.243 -4.243 L
S
GR
GS
[0.5 0 0 0.5 176.42999 161.73621] CT
10.0 ML
N
-4.243 -4.243 M
4.243 4.243 L
-4.243 4.243 M
4.243 -4.243 L
S
GR
GS
[0.5 0 0 0.5 178.62 160.16954] CT
10.0 ML
N
-4.243 -4.243 M
4.243 4.243 L
-4.243 4.243 M
4.243 -4.243 L
S
GR
GS
[0.5 0 0 0.5 180.81 154.25488] CT
10.0 ML
N
-4.243 -4.243 M
4.243 4.243 L
-4.243 4.243 M
4.243 -4.243 L
S
GR
GS
[0.5 0 0 0.5 183 157.98712] CT
10.0 ML
N
-4.243 -4.243 M
4.243 4.243 L
-4.243 4.243 M
4.243 -4.243 L
S
GR
GS
[0.5 0 0 0.5 185.19 118.64134] CT
10.0 ML
N
-4.243 -4.243 M
4.243 4.243 L
-4.243 4.243 M
4.243 -4.243 L
S
GR
GS
[0.5 0 0 0.5 187.38 113.93876] CT
10.0 ML
N
-4.243 -4.243 M
4.243 4.243 L
-4.243 4.243 M
4.243 -4.243 L
S
GR
GS
[0.5 0 0 0.5 189.57001 115.21551] CT
10.0 ML
N
-4.243 -4.243 M
4.243 4.243 L
-4.243 4.243 M
4.243 -4.243 L
S
GR
GS
[0.5 0 0 0.5 191.75999 117.13086] CT
10.0 ML
N
-4.243 -4.243 M
4.243 4.243 L
-4.243 4.243 M
4.243 -4.243 L
S
GR
GS
[0.5 0 0 0.5 193.95 114.94386] CT
10.0 ML
N
-4.243 -4.243 M
4.243 4.243 L
-4.243 4.243 M
4.243 -4.243 L
S
GR
GS
[0.5 0 0 0.5 196.14 114.60861] CT
10.0 ML
N
-4.243 -4.243 M
4.243 4.243 L
-4.243 4.243 M
4.243 -4.243 L
S
GR
GS
[0.5 0 0 0.5 198.33 118.15184] CT
10.0 ML
N
-4.243 -4.243 M
4.243 4.243 L
-4.243 4.243 M
4.243 -4.243 L
S
GR
GS
[0.5 0 0 0.5 200.52 111.60738] CT
10.0 ML
N
-4.243 -4.243 M
4.243 4.243 L
-4.243 4.243 M
4.243 -4.243 L
S
GR
GS
[0.5 0 0 0.5 202.71001 115.05074] CT
10.0 ML
N
-4.243 -4.243 M
4.243 4.243 L
-4.243 4.243 M
4.243 -4.243 L
S
GR
GS
[0.5 0 0 0.5 204.89999 113.52043] CT
10.0 ML
N
-4.243 -4.243 M
4.243 4.243 L
-4.243 4.243 M
4.243 -4.243 L
S
GR
GS
[0.5 0 0 0.5 207.09 118.31626] CT
10.0 ML
N
-4.243 -4.243 M
4.243 4.243 L
-4.243 4.243 M
4.243 -4.243 L
S
GR
GS
[0.5 0 0 0.5 209.28 116.1481] CT
10.0 ML
N
-4.243 -4.243 M
4.243 4.243 L
-4.243 4.243 M
4.243 -4.243 L
S
GR
GS
[0.5 0 0 0.5 211.47 117.76849] CT
10.0 ML
N
-4.243 -4.243 M
4.243 4.243 L
-4.243 4.243 M
4.243 -4.243 L
S
GR
GS
[0.5 0 0 0.5 213.66 115.74312] CT
10.0 ML
N
-4.243 -4.243 M
4.243 4.243 L
-4.243 4.243 M
4.243 -4.243 L
S
GR
GS
[0.5 0 0 0.5 215.85001 115.96769] CT
10.0 ML
N
-4.243 -4.243 M
4.243 4.243 L
-4.243 4.243 M
4.243 -4.243 L
S
GR
GS
[0.5 0 0 0.5 218.03999 116.71851] CT
10.0 ML
N
-4.243 -4.243 M
4.243 4.243 L
-4.243 4.243 M
4.243 -4.243 L
S
GR
GS
[0.5 0 0 0.5 220.23 119.31921] CT
10.0 ML
N
-4.243 -4.243 M
4.243 4.243 L
-4.243 4.243 M
4.243 -4.243 L
S
GR
GS
[0.5 0 0 0.5 222.42 111.75801] CT
10.0 ML
N
-4.243 -4.243 M
4.243 4.243 L
-4.243 4.243 M
4.243 -4.243 L
S
GR
GS
[0.5 0 0 0.5 224.61 110.23722] CT
10.0 ML
N
-4.243 -4.243 M
4.243 4.243 L
-4.243 4.243 M
4.243 -4.243 L
S
GR
GS
[0.5 0 0 0.5 226.8 213.99878] CT
10.0 ML
N
-4.243 -4.243 M
4.243 4.243 L
-4.243 4.243 M
4.243 -4.243 L
S
GR
GS
[0.5 0 0 0.5 228.99001 213.72801] CT
10.0 ML
N
-4.243 -4.243 M
4.243 4.243 L
-4.243 4.243 M
4.243 -4.243 L
S
GR
GS
[0.5 0 0 0.5 231.17999 210.71555] CT
10.0 ML
N
-4.243 -4.243 M
4.243 4.243 L
-4.243 4.243 M
4.243 -4.243 L
S
GR
GS
[0.5 0 0 0.5 233.37 213.07552] CT
10.0 ML
N
-4.243 -4.243 M
4.243 4.243 L
-4.243 4.243 M
4.243 -4.243 L
S
GR
GS
[0.5 0 0 0.5 235.56 211.83511] CT
10.0 ML
N
-4.243 -4.243 M
4.243 4.243 L
-4.243 4.243 M
4.243 -4.243 L
S
GR
GS
[0.5 0 0 0.5 237.75 210.18425] CT
10.0 ML
N
-4.243 -4.243 M
4.243 4.243 L
-4.243 4.243 M
4.243 -4.243 L
S
GR
GS
[0.5 0 0 0.5 239.94 210.77031] CT
10.0 ML
N
-4.243 -4.243 M
4.243 4.243 L
-4.243 4.243 M
4.243 -4.243 L
S
GR
GS
[0.5 0 0 0.5 242.13 214.16975] CT
10.0 ML
N
-4.243 -4.243 M
4.243 4.243 L
-4.243 4.243 M
4.243 -4.243 L
S
GR
GS
[0.5 0 0 0.5 244.32001 213.61938] CT
10.0 ML
N
-4.243 -4.243 M
4.243 4.243 L
-4.243 4.243 M
4.243 -4.243 L
S
GR
GS
[0.5 0 0 0.5 246.50999 214.75079] CT
10.0 ML
N
-4.243 -4.243 M
4.243 4.243 L
-4.243 4.243 M
4.243 -4.243 L
S
GR
GS
[0.5 0 0 0.5 248.7 214.20572] CT
10.0 ML
N
-4.243 -4.243 M
4.243 4.243 L
-4.243 4.243 M
4.243 -4.243 L
S
GR
GS
[0.5 0 0 0.5 250.89 210.17049] CT
10.0 ML
N
-4.243 -4.243 M
4.243 4.243 L
-4.243 4.243 M
4.243 -4.243 L
S
GR
GS
[0.5 0 0 0.5 253.08 214.91737] CT
10.0 ML
N
-4.243 -4.243 M
4.243 4.243 L
-4.243 4.243 M
4.243 -4.243 L
S
GR
GS
[0.5 0 0 0.5 255.27 213.85989] CT
10.0 ML
N
-4.243 -4.243 M
4.243 4.243 L
-4.243 4.243 M
4.243 -4.243 L
S
GR
GS
[0.5 0 0 0.5 257.45999 210.76842] CT
10.0 ML
N
-4.243 -4.243 M
4.243 4.243 L
-4.243 4.243 M
4.243 -4.243 L
S
GR
GS
[0.5 0 0 0.5 259.64999 212.14987] CT
10.0 ML
N
-4.243 -4.243 M
4.243 4.243 L
-4.243 4.243 M
4.243 -4.243 L
S
GR
GS
[0.5 0 0 0.5 261.84 216.38989] CT
10.0 ML
N
-4.243 -4.243 M
4.243 4.243 L
-4.243 4.243 M
4.243 -4.243 L
S
GR
GS
[0.5 0 0 0.5 264.03 213.04872] CT
10.0 ML
N
-4.243 -4.243 M
4.243 4.243 L
-4.243 4.243 M
4.243 -4.243 L
S
GR
GS
[0.5 0 0 0.5 266.22 216.73544] CT
10.0 ML
N
-4.243 -4.243 M
4.243 4.243 L
-4.243 4.243 M
4.243 -4.243 L
S
GR
GS
[0.5 0 0 0.5 268.41 214.93143] CT
10.0 ML
N
-4.243 -4.243 M
4.243 4.243 L
-4.243 4.243 M
4.243 -4.243 L
S
GR
GS
[0.5 0 0 0.5 270.60001 212.08765] CT
10.0 ML
N
-4.243 -4.243 M
4.243 4.243 L
-4.243 4.243 M
4.243 -4.243 L
S
GR
GS
[0.5 0 0 0.5 272.79001 211.80014] CT
10.0 ML
N
-4.243 -4.243 M
4.243 4.243 L
-4.243 4.243 M
4.243 -4.243 L
S
GR
GS
[0.5 0 0 0.5 274.98001 218.01686] CT
10.0 ML
N
-4.243 -4.243 M
4.243 4.243 L
-4.243 4.243 M
4.243 -4.243 L
S
GR
GS
[0.5 0 0 0.5 277.17001 217.48599] CT
10.0 ML
N
-4.243 -4.243 M
4.243 4.243 L
-4.243 4.243 M
4.243 -4.243 L
S
GR
GS
[0.5 0 0 0.5 279.35999 217.21385] CT
10.0 ML
N
-4.243 -4.243 M
4.243 4.243 L
-4.243 4.243 M
4.243 -4.243 L
S
GR
GS
[0.5 0 0 0.5 281.54999 218.30222] CT
10.0 ML
N
-4.243 -4.243 M
4.243 4.243 L
-4.243 4.243 M
4.243 -4.243 L
S
GR
GS
[0.5 0 0 0.5 283.73999 215.12164] CT
10.0 ML
N
-4.243 -4.243 M
4.243 4.243 L
-4.243 4.243 M
4.243 -4.243 L
S
GR
GS
[0.5 0 0 0.5 285.92999 219.63992] CT
10.0 ML
N
-4.243 -4.243 M
4.243 4.243 L
-4.243 4.243 M
4.243 -4.243 L
S
GR
GS
[0.5 0 0 0.5 288.12 218.87077] CT
10.0 ML
N
-4.243 -4.243 M
4.243 4.243 L
-4.243 4.243 M
4.243 -4.243 L
S
GR
GS
[0.5 0 0 0.5 290.31 220.38097] CT
10.0 ML
N
-4.243 -4.243 M
4.243 4.243 L
-4.243 4.243 M
4.243 -4.243 L
S
GR
GS
[0.5 0 0 0.5 292.5 220.20572] CT
10.0 ML
N
-4.243 -4.243 M
4.243 4.243 L
-4.243 4.243 M
4.243 -4.243 L
S
GR
GS
[0.5 0 0 0.5 294.69 120.4838] CT
10.0 ML
N
-4.243 -4.243 M
4.243 4.243 L
-4.243 4.243 M
4.243 -4.243 L
S
GR
GS
[0.5 0 0 0.5 296.88 122.63225] CT
10.0 ML
N
-4.243 -4.243 M
4.243 4.243 L
-4.243 4.243 M
4.243 -4.243 L
S
GR
GS
[0.5 0 0 0.5 299.07001 123.5549] CT
10.0 ML
N
-4.243 -4.243 M
4.243 4.243 L
-4.243 4.243 M
4.243 -4.243 L
S
GR
GS
[0.5 0 0 0.5 301.26001 122.50674] CT
10.0 ML
N
-4.243 -4.243 M
4.243 4.243 L
-4.243 4.243 M
4.243 -4.243 L
S
GR
GS
[0.5 0 0 0.5 303.45001 121.3213] CT
10.0 ML
N
-4.243 -4.243 M
4.243 4.243 L
-4.243 4.243 M
4.243 -4.243 L
S
GR
GS
[0.5 0 0 0.5 305.64001 121.31388] CT
10.0 ML
N
-4.243 -4.243 M
4.243 4.243 L
-4.243 4.243 M
4.243 -4.243 L
S
GR
GS
[0.5 0 0 0.5 307.82999 123.97038] CT
10.0 ML
N
-4.243 -4.243 M
4.243 4.243 L
-4.243 4.243 M
4.243 -4.243 L
S
GR
GS
[0.5 0 0 0.5 310.01999 121.97286] CT
10.0 ML
N
-4.243 -4.243 M
4.243 4.243 L
-4.243 4.243 M
4.243 -4.243 L
S
GR
GS
[0.5 0 0 0.5 312.20999 119.58842] CT
10.0 ML
N
-4.243 -4.243 M
4.243 4.243 L
-4.243 4.243 M
4.243 -4.243 L
S
GR
GS
[0.5 0 0 0.5 314.39999 122.00391] CT
10.0 ML
N
-4.243 -4.243 M
4.243 4.243 L
-4.243 4.243 M
4.243 -4.243 L
S
GR
GS
[0.5 0 0 0.5 316.59 118.59106] CT
10.0 ML
N
-4.243 -4.243 M
4.243 4.243 L
-4.243 4.243 M
4.243 -4.243 L
S
GR
GS
[0.5 0 0 0.5 318.78 117.63059] CT
10.0 ML
N
-4.243 -4.243 M
4.243 4.243 L
-4.243 4.243 M
4.243 -4.243 L
S
GR
GS
[0.5 0 0 0.5 320.97 115.8487] CT
10.0 ML
N
-4.243 -4.243 M
4.243 4.243 L
-4.243 4.243 M
4.243 -4.243 L
S
GR
GS
[0.5 0 0 0.5 323.16 115.61945] CT
10.0 ML
N
-4.243 -4.243 M
4.243 4.243 L
-4.243 4.243 M
4.243 -4.243 L
S
GR
GS
[0.5 0 0 0.5 325.35001 121.0386] CT
10.0 ML
N
-4.243 -4.243 M
4.243 4.243 L
-4.243 4.243 M
4.243 -4.243 L
S
GR
GS
[0.5 0 0 0.5 327.54001 121.75857] CT
10.0 ML
N
-4.243 -4.243 M
4.243 4.243 L
-4.243 4.243 M
4.243 -4.243 L
S
GR
GS
[0.5 0 0 0.5 329.73001 121.92707] CT
10.0 ML
N
-4.243 -4.243 M
4.243 4.243 L
-4.243 4.243 M
4.243 -4.243 L
S
GR
GS
[0.5 0 0 0.5 331.92001 121.16489] CT
10.0 ML
N
-4.243 -4.243 M
4.243 4.243 L
-4.243 4.243 M
4.243 -4.243 L
S
GR
GS
[0.5 0 0 0.5 334.10999 117.27968] CT
10.0 ML
N
-4.243 -4.243 M
4.243 4.243 L
-4.243 4.243 M
4.243 -4.243 L
S
GR
GS
[0.5 0 0 0.5 336.29999 121.76131] CT
10.0 ML
N
-4.243 -4.243 M
4.243 4.243 L
-4.243 4.243 M
4.243 -4.243 L
S
GR
GS
[0.5 0 0 0.5 338.48999 120.09796] CT
10.0 ML
N
-4.243 -4.243 M
4.243 4.243 L
-4.243 4.243 M
4.243 -4.243 L
S
GR
GS
[0.5 0 0 0.5 340.67999 113.68417] CT
10.0 ML
N
-4.243 -4.243 M
4.243 4.243 L
-4.243 4.243 M
4.243 -4.243 L
S
GR
GS
[0.5 0 0 0.5 342.87 118.88892] CT
10.0 ML
N
-4.243 -4.243 M
4.243 4.243 L
-4.243 4.243 M
4.243 -4.243 L
S
GR
GS
[0.5 0 0 0.5 345.06 118.41963] CT
10.0 ML
N
-4.243 -4.243 M
4.243 4.243 L
-4.243 4.243 M
4.243 -4.243 L
S
GR
GS
[0.5 0 0 0.5 347.25 120.11868] CT
10.0 ML
N
-4.243 -4.243 M
4.243 4.243 L
-4.243 4.243 M
4.243 -4.243 L
S
GR
GS
[0.5 0 0 0.5 349.44 114.53619] CT
10.0 ML
N
-4.243 -4.243 M
4.243 4.243 L
-4.243 4.243 M
4.243 -4.243 L
S
GR
GS
[0.5 0 0 0.5 351.63 116.89403] CT
10.0 ML
N
-4.243 -4.243 M
4.243 4.243 L
-4.243 4.243 M
4.243 -4.243 L
S
GR
GS
[0.5 0 0 0.5 353.82001 118.83267] CT
10.0 ML
N
-4.243 -4.243 M
4.243 4.243 L
-4.243 4.243 M
4.243 -4.243 L
S
GR
GS
[0.5 0 0 0.5 356.01001 112.09987] CT
10.0 ML
N
-4.243 -4.243 M
4.243 4.243 L
-4.243 4.243 M
4.243 -4.243 L
S
GR
GS
[0.5 0 0 0.5 358.20001 242.53979] CT
10.0 ML
N
-4.243 -4.243 M
4.243 4.243 L
-4.243 4.243 M
4.243 -4.243 L
S
GR
GS
[0.5 0 0 0.5 360.39001 242.99649] CT
10.0 ML
N
-4.243 -4.243 M
4.243 4.243 L
-4.243 4.243 M
4.243 -4.243 L
S
GR
GS
[0.5 0 0 0.5 362.57999 241.2486] CT
10.0 ML
N
-4.243 -4.243 M
4.243 4.243 L
-4.243 4.243 M
4.243 -4.243 L
S
GR
GS
[0.5 0 0 0.5 364.76999 243.11508] CT
10.0 ML
N
-4.243 -4.243 M
4.243 4.243 L
-4.243 4.243 M
4.243 -4.243 L
S
GR
GS
[0.5 0 0 0.5 366.95999 242.43712] CT
10.0 ML
N
-4.243 -4.243 M
4.243 4.243 L
-4.243 4.243 M
4.243 -4.243 L
S
GR
GS
[0.5 0 0 0.5 369.14999 243.77354] CT
10.0 ML
N
-4.243 -4.243 M
4.243 4.243 L
-4.243 4.243 M
4.243 -4.243 L
S
GR
GS
[0.5 0 0 0.5 371.34 242.87341] CT
10.0 ML
N
-4.243 -4.243 M
4.243 4.243 L
-4.243 4.243 M
4.243 -4.243 L
S
GR
GS
[0.5 0 0 0.5 373.53 246.89932] CT
10.0 ML
N
-4.243 -4.243 M
4.243 4.243 L
-4.243 4.243 M
4.243 -4.243 L
S
GR
GS
[0.5 0 0 0.5 375.72 249.20975] CT
10.0 ML
N
-4.243 -4.243 M
4.243 4.243 L
-4.243 4.243 M
4.243 -4.243 L
S
GR
GS
[0.5 0 0 0.5 377.91 241.04068] CT
10.0 ML
N
-4.243 -4.243 M
4.243 4.243 L
-4.243 4.243 M
4.243 -4.243 L
S
GR
GS
[0.5 0 0 0.5 380.10001 242.19254] CT
10.0 ML
N
-4.243 -4.243 M
4.243 4.243 L
-4.243 4.243 M
4.243 -4.243 L
S
GR
GS
[0.5 0 0 0.5 382.29001 242.44942] CT
10.0 ML
N
-4.243 -4.243 M
4.243 4.243 L
-4.243 4.243 M
4.243 -4.243 L
S
GR
GS
[0.5 0 0 0.5 384.48001 243.29411] CT
10.0 ML
N
-4.243 -4.243 M
4.243 4.243 L
-4.243 4.243 M
4.243 -4.243 L
S
GR
GS
[0.5 0 0 0.5 386.67001 245.21446] CT
10.0 ML
N
-4.243 -4.243 M
4.243 4.243 L
-4.243 4.243 M
4.243 -4.243 L
S
GR
GS
[0.5 0 0 0.5 388.85999 246.46735] CT
10.0 ML
N
-4.243 -4.243 M
4.243 4.243 L
-4.243 4.243 M
4.243 -4.243 L
S
GR
GS
[0.5 0 0 0.5 391.04999 244.53374] CT
10.0 ML
N
-4.243 -4.243 M
4.243 4.243 L
-4.243 4.243 M
4.243 -4.243 L
S
GR
GS
[0.5 0 0 0.5 393.23999 121.23156] CT
10.0 ML
N
-4.243 -4.243 M
4.243 4.243 L
-4.243 4.243 M
4.243 -4.243 L
S
GR
GS
[0.5 0 0 0.5 395.42999 119.74789] CT
10.0 ML
N
-4.243 -4.243 M
4.243 4.243 L
-4.243 4.243 M
4.243 -4.243 L
S
GR
GS
[0.5 0 0 0.5 397.62 122.79933] CT
10.0 ML
N
-4.243 -4.243 M
4.243 4.243 L
-4.243 4.243 M
4.243 -4.243 L
S
GR
GS
[0.5 0 0 0.5 399.81 126.1516] CT
10.0 ML
N
-4.243 -4.243 M
4.243 4.243 L
-4.243 4.243 M
4.243 -4.243 L
S
GR
GS
[0.5 0 0 0.5 402 123.24866] CT
10.0 ML
N
-4.243 -4.243 M
4.243 4.243 L
-4.243 4.243 M
4.243 -4.243 L
S
GR
GS
[0.5 0 0 0.5 404.19 119.18269] CT
10.0 ML
N
-4.243 -4.243 M
4.243 4.243 L
-4.243 4.243 M
4.243 -4.243 L
S
GR
GS
[0.5 0 0 0.5 406.38 126.37444] CT
10.0 ML
N
-4.243 -4.243 M
4.243 4.243 L
-4.243 4.243 M
4.243 -4.243 L
S
GR
GS
[0.5 0 0 0.5 408.57001 119.49236] CT
10.0 ML
N
-4.243 -4.243 M
4.243 4.243 L
-4.243 4.243 M
4.243 -4.243 L
S
GR
GS
[0.5 0 0 0.5 410.76001 118.92158] CT
10.0 ML
N
-4.243 -4.243 M
4.243 4.243 L
-4.243 4.243 M
4.243 -4.243 L
S
GR
GS
[0.5 0 0 0.5 412.95001 120.40439] CT
10.0 ML
N
-4.243 -4.243 M
4.243 4.243 L
-4.243 4.243 M
4.243 -4.243 L
S
GR
GS
[0.5 0 0 0.5 415.14001 121.30935] CT
10.0 ML
N
-4.243 -4.243 M
4.243 4.243 L
-4.243 4.243 M
4.243 -4.243 L
S
GR
GS
[0.5 0 0 0.5 417.32999 122.67744] CT
10.0 ML
N
-4.243 -4.243 M
4.243 4.243 L
-4.243 4.243 M
4.243 -4.243 L
S
GR
GS
[0.5 0 0 0.5 419.51999 116.27392] CT
10.0 ML
N
-4.243 -4.243 M
4.243 4.243 L
-4.243 4.243 M
4.243 -4.243 L
S
GR
GS
[0.5 0 0 0.5 421.70999 113.87725] CT
10.0 ML
N
-4.243 -4.243 M
4.243 4.243 L
-4.243 4.243 M
4.243 -4.243 L
S
GR
GS
[0.5 0 0 0.5 423.89999 180.65907] CT
10.0 ML
N
-4.243 -4.243 M
4.243 4.243 L
-4.243 4.243 M
4.243 -4.243 L
S
GR
GS
[0.5 0 0 0.5 426.09 176.07123] CT
10.0 ML
N
-4.243 -4.243 M
4.243 4.243 L
-4.243 4.243 M
4.243 -4.243 L
S
GR
GS
[0.5 0 0 0.5 428.28 178.44655] CT
10.0 ML
N
-4.243 -4.243 M
4.243 4.243 L
-4.243 4.243 M
4.243 -4.243 L
S
GR
GS
[0.5 0 0 0.5 430.47 180.78197] CT
10.0 ML
N
-4.243 -4.243 M
4.243 4.243 L
-4.243 4.243 M
4.243 -4.243 L
S
GR
GS
[0.5 0 0 0.5 432.66 180.30568] CT
10.0 ML
N
-4.243 -4.243 M
4.243 4.243 L
-4.243 4.243 M
4.243 -4.243 L
S
GR
GS
[0.5 0 0 0.5 434.85001 180.18729] CT
10.0 ML
N
-4.243 -4.243 M
4.243 4.243 L
-4.243 4.243 M
4.243 -4.243 L
S
GR
GS
[0.5 0 0 0.5 437.04001 178.57034] CT
10.0 ML
N
-4.243 -4.243 M
4.243 4.243 L
-4.243 4.243 M
4.243 -4.243 L
S
GR
GS
[0.5 0 0 0.5 439.23001 180.02097] CT
10.0 ML
N
-4.243 -4.243 M
4.243 4.243 L
-4.243 4.243 M
4.243 -4.243 L
S
GR
GS
[0.5 0 0 0.5 441.42001 179.60484] CT
10.0 ML
N
-4.243 -4.243 M
4.243 4.243 L
-4.243 4.243 M
4.243 -4.243 L
S
GR
GS
[0.5 0 0 0.5 443.60999 181.86577] CT
10.0 ML
N
-4.243 -4.243 M
4.243 4.243 L
-4.243 4.243 M
4.243 -4.243 L
S
GR
GS
[0.5 0 0 0.5 445.79999 181.06802] CT
10.0 ML
N
-4.243 -4.243 M
4.243 4.243 L
-4.243 4.243 M
4.243 -4.243 L
S
GR
GS
[0.5 0 0 0.5 447.98999 180.7639] CT
10.0 ML
N
-4.243 -4.243 M
4.243 4.243 L
-4.243 4.243 M
4.243 -4.243 L
S
GR
GS
[0.5 0 0 0.5 450.17999 183.33794] CT
10.0 ML
N
-4.243 -4.243 M
4.243 4.243 L
-4.243 4.243 M
4.243 -4.243 L
S
GR
GS
[0.5 0 0 0.5 452.37 188.14029] CT
10.0 ML
N
-4.243 -4.243 M
4.243 4.243 L
-4.243 4.243 M
4.243 -4.243 L
S
GR
GS
[0.5 0 0 0.5 454.56 183.0755] CT
10.0 ML
N
-4.243 -4.243 M
4.243 4.243 L
-4.243 4.243 M
4.243 -4.243 L
S
GR
GS
[0.5 0 0 0.5 456.75 182.58949] CT
10.0 ML
N
-4.243 -4.243 M
4.243 4.243 L
-4.243 4.243 M
4.243 -4.243 L
S
GR
GS
[0.5 0 0 0.5 458.94 183.62689] CT
10.0 ML
N
-4.243 -4.243 M
4.243 4.243 L
-4.243 4.243 M
4.243 -4.243 L
S
GR
GS
[0.5 0 0 0.5 461.13 184.17192] CT
10.0 ML
N
-4.243 -4.243 M
4.243 4.243 L
-4.243 4.243 M
4.243 -4.243 L
S
GR
GS
[0.5 0 0 0.5 463.32001 183.2782] CT
10.0 ML
N
-4.243 -4.243 M
4.243 4.243 L
-4.243 4.243 M
4.243 -4.243 L
S
GR
GS
[0.5 0 0 0.5 465.51001 186.00696] CT
10.0 ML
N
-4.243 -4.243 M
4.243 4.243 L
-4.243 4.243 M
4.243 -4.243 L
S
GR
GS
[0.5 0 0 0.5 467.70001 184.82518] CT
10.0 ML
N
-4.243 -4.243 M
4.243 4.243 L
-4.243 4.243 M
4.243 -4.243 L
S
GR
GS
[0.5 0 0 0.5 469.89001 185.62025] CT
10.0 ML
N
-4.243 -4.243 M
4.243 4.243 L
-4.243 4.243 M
4.243 -4.243 L
S
GR
GS
[0.5 0 0 0.5 472.07999 183.37254] CT
10.0 ML
N
-4.243 -4.243 M
4.243 4.243 L
-4.243 4.243 M
4.243 -4.243 L
S
GR
GS
[0.5 0 0 0.5 474.26999 184.96806] CT
10.0 ML
N
-4.243 -4.243 M
4.243 4.243 L
-4.243 4.243 M
4.243 -4.243 L
S
GR
GS
[0.5 0 0 0.5 476.45999 183.56285] CT
10.0 ML
N
-4.243 -4.243 M
4.243 4.243 L
-4.243 4.243 M
4.243 -4.243 L
S
GR
GS
[0.5 0 0 0.5 478.64999 186.2901] CT
10.0 ML
N
-4.243 -4.243 M
4.243 4.243 L
-4.243 4.243 M
4.243 -4.243 L
S
GR
GS
[0.5 0 0 0.5 480.84 135.00574] CT
10.0 ML
N
-4.243 -4.243 M
4.243 4.243 L
-4.243 4.243 M
4.243 -4.243 L
S
GR
GS
[0.5 0 0 0.5 483.03 129.40155] CT
10.0 ML
N
-4.243 -4.243 M
4.243 4.243 L
-4.243 4.243 M
4.243 -4.243 L
S
GR
GS
[0.5 0 0 0.5 485.22 129.82973] CT
10.0 ML
N
-4.243 -4.243 M
4.243 4.243 L
-4.243 4.243 M
4.243 -4.243 L
S
GR
GS
[0.5 0 0 0.5 487.41 131.17715] CT
10.0 ML
N
-4.243 -4.243 M
4.243 4.243 L
-4.243 4.243 M
4.243 -4.243 L
S
GR
GS
[0.5 0 0 0.5 489.60001 132.42639] CT
10.0 ML
N
-4.243 -4.243 M
4.243 4.243 L
-4.243 4.243 M
4.243 -4.243 L
S
GR
GS
[0.5 0 0 0.5 491.79001 128.47372] CT
10.0 ML
N
-4.243 -4.243 M
4.243 4.243 L
-4.243 4.243 M
4.243 -4.243 L
S
GR
GS
[0.5 0 0 0.5 493.98001 129.30783] CT
10.0 ML
N
-4.243 -4.243 M
4.243 4.243 L
-4.243 4.243 M
4.243 -4.243 L
S
GR
GS
[0.5 0 0 0.5 496.17001 127.47964] CT
10.0 ML
N
-4.243 -4.243 M
4.243 4.243 L
-4.243 4.243 M
4.243 -4.243 L
S
GR
GS
[0.5 0 0 0.5 498.35999 134.25305] CT
10.0 ML
N
-4.243 -4.243 M
4.243 4.243 L
-4.243 4.243 M
4.243 -4.243 L
S
GR
GS
[0.5 0 0 0.5 500.54999 131.75005] CT
10.0 ML
N
-4.243 -4.243 M
4.243 4.243 L
-4.243 4.243 M
4.243 -4.243 L
S
GR
GS
[0.5 0 0 0.5 502.73999 131.53125] CT
10.0 ML
N
-4.243 -4.243 M
4.243 4.243 L
-4.243 4.243 M
4.243 -4.243 L
S
GR
GS
[0.5 0 0 0.5 504.92999 135.09761] CT
10.0 ML
N
-4.243 -4.243 M
4.243 4.243 L
-4.243 4.243 M
4.243 -4.243 L
S
GR
GS
[0.5 0 0 0.5 507.12 135.27525] CT
10.0 ML
N
-4.243 -4.243 M
4.243 4.243 L
-4.243 4.243 M
4.243 -4.243 L
S
GR
GS
[0.5 0 0 0.5 509.31 139.49258] CT
10.0 ML
N
-4.243 -4.243 M
4.243 4.243 L
-4.243 4.243 M
4.243 -4.243 L
S
GR
GS
[0.5 0 0 0.5 511.5 139.75945] CT
10.0 ML
N
-4.243 -4.243 M
4.243 4.243 L
-4.243 4.243 M
4.243 -4.243 L
S
GR
GS
[0.5 0 0 0.5 0 0] CT
0.298 GC
1 LJ
N
147 232.946 M
1023 232.946 L
S
GR
GS
[0.5 0 0 0.5 0 0] CT
0.298 GC
1 LJ
N
147 379.5 M
1023 379.5 L
S
GR
%%Trailer
%%Pages: 1
%%EOF
