%!PS-Adobe-3.0 EPSF-3.0
%%Creator: (MATLAB, The Mathworks, Inc. Version 9.10.0.1739362 \(R2021a\) Update 5. Operating System: Linux)
%%Title: ./wrkldAll.eps
%%CreationDate: 2021-09-24T15:51:16
%%Pages: (atend)
%%BoundingBox:    37    20   536   427
%%LanguageLevel: 3
%%EndComments
%%BeginProlog
%%BeginResource: procset (Apache XML Graphics Std ProcSet) 1.2 0
%%Version: 1.2 0
%%Copyright: (Copyright 2001-2003,2010 The Apache Software Foundation. License terms: http://www.apache.org/licenses/LICENSE-2.0)
/bd{bind def}bind def
/ld{load def}bd
/GR/grestore ld
/GS/gsave ld
/RM/rmoveto ld
/C/curveto ld
/t/show ld
/L/lineto ld
/ML/setmiterlimit ld
/CT/concat ld
/f/fill ld
/N/newpath ld
/S/stroke ld
/CC/setcmykcolor ld
/A/ashow ld
/cp/closepath ld
/RC/setrgbcolor ld
/LJ/setlinejoin ld
/GC/setgray ld
/LW/setlinewidth ld
/M/moveto ld
/re {4 2 roll M
1 index 0 rlineto
0 exch rlineto
neg 0 rlineto
cp } bd
/_ctm matrix def
/_tm matrix def
/BT { _ctm currentmatrix pop matrix _tm copy pop 0 0 moveto } bd
/ET { _ctm setmatrix } bd
/iTm { _ctm setmatrix _tm concat } bd
/Tm { _tm astore pop iTm 0 0 moveto } bd
/ux 0.0 def
/uy 0.0 def
/F {
  /Tp exch def
  /Tf exch def
  Tf findfont Tp scalefont setfont
  /cf Tf def  /cs Tp def
} bd
/ULS {currentpoint /uy exch def /ux exch def} bd
/ULE {
  /Tcx currentpoint pop def
  gsave
  newpath
  cf findfont cs scalefont dup
  /FontMatrix get 0 get /Ts exch def /FontInfo get dup
  /UnderlinePosition get Ts mul /To exch def
  /UnderlineThickness get Ts mul /Tt exch def
  ux uy To add moveto  Tcx uy To add lineto
  Tt setlinewidth stroke
  grestore
} bd
/OLE {
  /Tcx currentpoint pop def
  gsave
  newpath
  cf findfont cs scalefont dup
  /FontMatrix get 0 get /Ts exch def /FontInfo get dup
  /UnderlinePosition get Ts mul /To exch def
  /UnderlineThickness get Ts mul /Tt exch def
  ux uy To add cs add moveto Tcx uy To add cs add lineto
  Tt setlinewidth stroke
  grestore
} bd
/SOE {
  /Tcx currentpoint pop def
  gsave
  newpath
  cf findfont cs scalefont dup
  /FontMatrix get 0 get /Ts exch def /FontInfo get dup
  /UnderlinePosition get Ts mul /To exch def
  /UnderlineThickness get Ts mul /Tt exch def
  ux uy To add cs 10 mul 26 idiv add moveto Tcx uy To add cs 10 mul 26 idiv add lineto
  Tt setlinewidth stroke
  grestore
} bd
/QT {
/Y22 exch store
/X22 exch store
/Y21 exch store
/X21 exch store
currentpoint
/Y21 load 2 mul add 3 div exch
/X21 load 2 mul add 3 div exch
/X21 load 2 mul /X22 load add 3 div
/Y21 load 2 mul /Y22 load add 3 div
/X22 load /Y22 load curveto
} bd
/SSPD {
dup length /d exch dict def
{
/v exch def
/k exch def
currentpagedevice k known {
/cpdv currentpagedevice k get def
v cpdv ne {
/upd false def
/nullv v type /nulltype eq def
/nullcpdv cpdv type /nulltype eq def
nullv nullcpdv or
{
/upd true def
} {
/sametype v type cpdv type eq def
sametype {
v type /arraytype eq {
/vlen v length def
/cpdvlen cpdv length def
vlen cpdvlen eq {
0 1 vlen 1 sub {
/i exch def
/obj v i get def
/cpdobj cpdv i get def
obj cpdobj ne {
/upd true def
exit
} if
} for
} {
/upd true def
} ifelse
} {
v type /dicttype eq {
v {
/dv exch def
/dk exch def
/cpddv cpdv dk get def
dv cpddv ne {
/upd true def
exit
} if
} forall
} {
/upd true def
} ifelse
} ifelse
} if
} ifelse
upd true eq {
d k v put
} if
} if
} if
} forall
d length 0 gt {
d setpagedevice
} if
} bd
/RE { % /NewFontName [NewEncodingArray] /FontName RE -
  findfont dup length dict begin
  {
    1 index /FID ne
    {def} {pop pop} ifelse
  } forall
  /Encoding exch def
  /FontName 1 index def
  currentdict definefont pop
  end
} bind def
%%EndResource
%%BeginResource: procset (Apache XML Graphics EPS ProcSet) 1.0 0
%%Version: 1.0 0
%%Copyright: (Copyright 2002-2003 The Apache Software Foundation. License terms: http://www.apache.org/licenses/LICENSE-2.0)
/BeginEPSF { %def
/b4_Inc_state save def         % Save state for cleanup
/dict_count countdictstack def % Count objects on dict stack
/op_count count 1 sub def      % Count objects on operand stack
userdict begin                 % Push userdict on dict stack
/showpage { } def              % Redefine showpage, { } = null proc
0 setgray 0 setlinecap         % Prepare graphics state
1 setlinewidth 0 setlinejoin
10 setmiterlimit [ ] 0 setdash newpath
/languagelevel where           % If level not equal to 1 then
{pop languagelevel             % set strokeadjust and
1 ne                           % overprint to their defaults.
{false setstrokeadjust false setoverprint
} if
} if
} bd
/EndEPSF { %def
count op_count sub {pop} repeat            % Clean up stacks
countdictstack dict_count sub {end} repeat
b4_Inc_state restore
} bd
%%EndResource
%FOPBeginFontDict
%%IncludeResource: font Courier-Oblique
%%IncludeResource: font Courier-BoldOblique
%%IncludeResource: font Courier-Bold
%%IncludeResource: font ZapfDingbats
%%IncludeResource: font Symbol
%%IncludeResource: font Helvetica
%%IncludeResource: font Helvetica-Oblique
%%IncludeResource: font Helvetica-Bold
%%IncludeResource: font Helvetica-BoldOblique
%%IncludeResource: font Times-Roman
%%IncludeResource: font Times-Italic
%%IncludeResource: font Times-Bold
%%IncludeResource: font Times-BoldItalic
%%IncludeResource: font Courier
%FOPEndFontDict
%%BeginResource: encoding WinAnsiEncoding
/WinAnsiEncoding [
/.notdef /.notdef /.notdef /.notdef /.notdef
/.notdef /.notdef /.notdef /.notdef /.notdef
/.notdef /.notdef /.notdef /.notdef /.notdef
/.notdef /.notdef /.notdef /.notdef /.notdef
/.notdef /.notdef /.notdef /.notdef /.notdef
/.notdef /.notdef /.notdef /.notdef /.notdef
/.notdef /.notdef /space /exclam /quotedbl
/numbersign /dollar /percent /ampersand /quotesingle
/parenleft /parenright /asterisk /plus /comma
/hyphen /period /slash /zero /one
/two /three /four /five /six
/seven /eight /nine /colon /semicolon
/less /equal /greater /question /at
/A /B /C /D /E
/F /G /H /I /J
/K /L /M /N /O
/P /Q /R /S /T
/U /V /W /X /Y
/Z /bracketleft /backslash /bracketright /asciicircum
/underscore /quoteleft /a /b /c
/d /e /f /g /h
/i /j /k /l /m
/n /o /p /q /r
/s /t /u /v /w
/x /y /z /braceleft /bar
/braceright /asciitilde /bullet /Euro /bullet
/quotesinglbase /florin /quotedblbase /ellipsis /dagger
/daggerdbl /circumflex /perthousand /Scaron /guilsinglleft
/OE /bullet /Zcaron /bullet /bullet
/quoteleft /quoteright /quotedblleft /quotedblright /bullet
/endash /emdash /asciitilde /trademark /scaron
/guilsinglright /oe /bullet /zcaron /Ydieresis
/space /exclamdown /cent /sterling /currency
/yen /brokenbar /section /dieresis /copyright
/ordfeminine /guillemotleft /logicalnot /sfthyphen /registered
/macron /degree /plusminus /twosuperior /threesuperior
/acute /mu /paragraph /middot /cedilla
/onesuperior /ordmasculine /guillemotright /onequarter /onehalf
/threequarters /questiondown /Agrave /Aacute /Acircumflex
/Atilde /Adieresis /Aring /AE /Ccedilla
/Egrave /Eacute /Ecircumflex /Edieresis /Igrave
/Iacute /Icircumflex /Idieresis /Eth /Ntilde
/Ograve /Oacute /Ocircumflex /Otilde /Odieresis
/multiply /Oslash /Ugrave /Uacute /Ucircumflex
/Udieresis /Yacute /Thorn /germandbls /agrave
/aacute /acircumflex /atilde /adieresis /aring
/ae /ccedilla /egrave /eacute /ecircumflex
/edieresis /igrave /iacute /icircumflex /idieresis
/eth /ntilde /ograve /oacute /ocircumflex
/otilde /odieresis /divide /oslash /ugrave
/uacute /ucircumflex /udieresis /yacute /thorn
/ydieresis
] def
%%EndResource
%FOPBeginFontReencode
/Courier-Oblique findfont
dup length dict begin
  {1 index /FID ne {def} {pop pop} ifelse} forall
  /Encoding WinAnsiEncoding def
  currentdict
end
/Courier-Oblique exch definefont pop
/Courier-BoldOblique findfont
dup length dict begin
  {1 index /FID ne {def} {pop pop} ifelse} forall
  /Encoding WinAnsiEncoding def
  currentdict
end
/Courier-BoldOblique exch definefont pop
/Courier-Bold findfont
dup length dict begin
  {1 index /FID ne {def} {pop pop} ifelse} forall
  /Encoding WinAnsiEncoding def
  currentdict
end
/Courier-Bold exch definefont pop
/Helvetica findfont
dup length dict begin
  {1 index /FID ne {def} {pop pop} ifelse} forall
  /Encoding WinAnsiEncoding def
  currentdict
end
/Helvetica exch definefont pop
/Helvetica-Oblique findfont
dup length dict begin
  {1 index /FID ne {def} {pop pop} ifelse} forall
  /Encoding WinAnsiEncoding def
  currentdict
end
/Helvetica-Oblique exch definefont pop
/Helvetica-Bold findfont
dup length dict begin
  {1 index /FID ne {def} {pop pop} ifelse} forall
  /Encoding WinAnsiEncoding def
  currentdict
end
/Helvetica-Bold exch definefont pop
/Helvetica-BoldOblique findfont
dup length dict begin
  {1 index /FID ne {def} {pop pop} ifelse} forall
  /Encoding WinAnsiEncoding def
  currentdict
end
/Helvetica-BoldOblique exch definefont pop
/Times-Roman findfont
dup length dict begin
  {1 index /FID ne {def} {pop pop} ifelse} forall
  /Encoding WinAnsiEncoding def
  currentdict
end
/Times-Roman exch definefont pop
/Times-Italic findfont
dup length dict begin
  {1 index /FID ne {def} {pop pop} ifelse} forall
  /Encoding WinAnsiEncoding def
  currentdict
end
/Times-Italic exch definefont pop
/Times-Bold findfont
dup length dict begin
  {1 index /FID ne {def} {pop pop} ifelse} forall
  /Encoding WinAnsiEncoding def
  currentdict
end
/Times-Bold exch definefont pop
/Times-BoldItalic findfont
dup length dict begin
  {1 index /FID ne {def} {pop pop} ifelse} forall
  /Encoding WinAnsiEncoding def
  currentdict
end
/Times-BoldItalic exch definefont pop
/Courier findfont
dup length dict begin
  {1 index /FID ne {def} {pop pop} ifelse} forall
  /Encoding WinAnsiEncoding def
  currentdict
end
/Courier exch definefont pop
%FOPEndFontReencode
%%EndProlog
%%Page: 1 1
%%PageBoundingBox: 0 0 555 447
%%BeginPageSetup
[1 0 0 -1 0 447] CT
%%EndPageSetup
GS
[0.5 0 0 0.5 0 0] CT
1 GC
N
0 0 1110 894 re
f
GR
GS
[0.5 0 0 0.5 0 0] CT
1 GC
N
0 0 1110 894 re
f
GR
GS
[0.5 0 0 0.5 0 0] CT
1 GC
N
144 372 M
516 372 L
516 67 L
144 67 L
cp
f
GR
GS
[0.5 0 0 0.5 0 0] CT
0.851 GC
1 LJ
N
144 372 M
144 67 L
S
GR
GS
[0.5 0 0 0.5 0 0] CT
0.851 GC
1 LJ
N
237 372 M
237 67 L
S
GR
GS
[0.5 0 0 0.5 0 0] CT
0.851 GC
1 LJ
N
330 372 M
330 67 L
S
GR
GS
[0.5 0 0 0.5 0 0] CT
0.851 GC
1 LJ
N
423 372 M
423 67 L
S
GR
GS
[0.5 0 0 0.5 0 0] CT
0.851 GC
1 LJ
N
516 372 M
516 67 L
S
GR
GS
[0.5 0 0 0.5 0 0] CT
0.851 GC
1 LJ
N
516 372 M
144 372 L
S
GR
GS
[0.5 0 0 0.5 0 0] CT
0.851 GC
1 LJ
N
516 311 M
144 311 L
S
GR
GS
[0.5 0 0 0.5 0 0] CT
0.851 GC
1 LJ
N
516 250 M
144 250 L
S
GR
GS
[0.5 0 0 0.5 0 0] CT
0.851 GC
1 LJ
N
516 189 M
144 189 L
S
GR
GS
[0.5 0 0 0.5 0 0] CT
0.851 GC
1 LJ
N
516 128 M
144 128 L
S
GR
GS
[0.5 0 0 0.5 0 0] CT
0.851 GC
1 LJ
N
516 67 M
144 67 L
S
GR
GS
[0.5 0 0 0.5 0 0] CT
2 setlinecap
1 LJ
N
144 372 M
516 372 L
S
GR
GS
[0.5 0 0 0.5 0 0] CT
2 setlinecap
1 LJ
N
144 67 M
516 67 L
S
GR
GS
[0.5 0 0 0.5 0 0] CT
2 setlinecap
1 LJ
N
144 372 M
144 368.28 L
S
GR
GS
[0.5 0 0 0.5 0 0] CT
2 setlinecap
1 LJ
N
237 372 M
237 368.28 L
S
GR
GS
[0.5 0 0 0.5 0 0] CT
2 setlinecap
1 LJ
N
330 372 M
330 368.28 L
S
GR
GS
[0.5 0 0 0.5 0 0] CT
2 setlinecap
1 LJ
N
423 372 M
423 368.28 L
S
GR
GS
[0.5 0 0 0.5 0 0] CT
2 setlinecap
1 LJ
N
516 372 M
516 368.28 L
S
GR
GS
[0.5 0 0 0.5 0 0] CT
2 setlinecap
1 LJ
N
144 67 M
144 70.72 L
S
GR
GS
[0.5 0 0 0.5 0 0] CT
2 setlinecap
1 LJ
N
237 67 M
237 70.72 L
S
GR
GS
[0.5 0 0 0.5 0 0] CT
2 setlinecap
1 LJ
N
330 67 M
330 70.72 L
S
GR
GS
[0.5 0 0 0.5 0 0] CT
2 setlinecap
1 LJ
N
423 67 M
423 70.72 L
S
GR
GS
[0.5 0 0 0.5 0 0] CT
2 setlinecap
1 LJ
N
516 67 M
516 70.72 L
S
GR
GS
[0.5 0 0 0.5 72 190] CT
/Helvetica 20 F
GS
[1 0 0 1 0 0] CT
-6.5 19 moveto 
1 -1 scale
(0) t 
GR
GR
GS
[0.5 0 0 0.5 118.5 190] CT
/Helvetica 20 F
GS
[1 0 0 1 0 0] CT
-13 19 moveto 
1 -1 scale
(50) t 
GR
GR
GS
[0.5 0 0 0.5 165 190] CT
/Helvetica 20 F
GS
[1 0 0 1 0 0] CT
-19.5 19 moveto 
1 -1 scale
(100) t 
GR
GR
GS
[0.5 0 0 0.5 211.5 190] CT
/Helvetica 20 F
GS
[1 0 0 1 0 0] CT
-19.5 19 moveto 
1 -1 scale
(150) t 
GR
GR
GS
[0.5 0 0 0.5 258 190] CT
/Helvetica 20 F
GS
[1 0 0 1 0 0] CT
-19.5 19 moveto 
1 -1 scale
(200) t 
GR
GR
GS
[0.5 0 0 0.5 165.00009 203] CT
/Helvetica 22 F
GS
[1 0 0 1 0 0] CT
-45.5 21 moveto 
1 -1 scale
(Time [s]) t 
GR
GR
GS
[0.5 0 0 0.5 0 0] CT
2 setlinecap
1 LJ
N
144 372 M
144 67 L
S
GR
GS
[0.5 0 0 0.5 0 0] CT
2 setlinecap
1 LJ
N
516 372 M
516 67 L
S
GR
GS
[0.5 0 0 0.5 0 0] CT
2 setlinecap
1 LJ
N
144 372 M
147.72 372 L
S
GR
GS
[0.5 0 0 0.5 0 0] CT
2 setlinecap
1 LJ
N
144 311 M
147.72 311 L
S
GR
GS
[0.5 0 0 0.5 0 0] CT
2 setlinecap
1 LJ
N
144 250 M
147.72 250 L
S
GR
GS
[0.5 0 0 0.5 0 0] CT
2 setlinecap
1 LJ
N
144 189 M
147.72 189 L
S
GR
GS
[0.5 0 0 0.5 0 0] CT
2 setlinecap
1 LJ
N
144 128 M
147.72 128 L
S
GR
GS
[0.5 0 0 0.5 0 0] CT
2 setlinecap
1 LJ
N
144 67 M
147.72 67 L
S
GR
GS
[0.5 0 0 0.5 0 0] CT
2 setlinecap
1 LJ
N
516 372 M
512.28 372 L
S
GR
GS
[0.5 0 0 0.5 0 0] CT
2 setlinecap
1 LJ
N
516 311 M
512.28 311 L
S
GR
GS
[0.5 0 0 0.5 0 0] CT
2 setlinecap
1 LJ
N
516 250 M
512.28 250 L
S
GR
GS
[0.5 0 0 0.5 0 0] CT
2 setlinecap
1 LJ
N
516 189 M
512.28 189 L
S
GR
GS
[0.5 0 0 0.5 0 0] CT
2 setlinecap
1 LJ
N
516 128 M
512.28 128 L
S
GR
GS
[0.5 0 0 0.5 0 0] CT
2 setlinecap
1 LJ
N
516 67 M
512.28 67 L
S
GR
GS
[0.5 0 0 0.5 68 186] CT
/Helvetica 20 F
GS
[1 0 0 1 0 0] CT
-13 7 moveto 
1 -1 scale
(0) t 
GR
GR
GS
[0.5 0 0 0.5 68 155.5] CT
/Helvetica 20 F
GS
[1 0 0 1 0 0] CT
-32 7 moveto 
1 -1 scale
(0.2) t 
GR
GR
GS
[0.5 0 0 0.5 68 125] CT
/Helvetica 20 F
GS
[1 0 0 1 0 0] CT
-32 7 moveto 
1 -1 scale
(0.4) t 
GR
GR
GS
[0.5 0 0 0.5 68 94.5] CT
/Helvetica 20 F
GS
[1 0 0 1 0 0] CT
-32 7 moveto 
1 -1 scale
(0.6) t 
GR
GR
GS
[0.5 0 0 0.5 68 64] CT
/Helvetica 20 F
GS
[1 0 0 1 0 0] CT
-32 7 moveto 
1 -1 scale
(0.8) t 
GR
GR
GS
[0.5 0 0 0.5 68 33.5] CT
/Helvetica 20 F
GS
[1 0 0 1 0 0] CT
-13 7 moveto 
1 -1 scale
(1) t 
GR
GR
GS
[0 -0.5 0.5 0 49 109.74992] CT
/Helvetica 22 F
GS
[1 0 0 1 0 0] CT
-113 -6 moveto 
1 -1 scale
(Workload for CPU [-]) t 
GR
GR
GS
[0.5 0 0 0.5 165.00015 32.125] CT
/Helvetica-Bold 22 F
GS
[1 0 0 1 0 0] CT
-222 -6 moveto 
1 -1 scale
(Workload input data values for CPU) t 
GR
GR
GS
[0.5 0 0 0.5 0 0] CT
1 LJ
N
145.86 240.787 M
147.72 236.356 L
149.58 223.29 L
151.44 239.458 L
153.3 239.025 L
155.16 207.746 L
157.02 233.903 L
158.88 257.743 L
160.74 267.815 L
162.6 227.662 L
164.46 239.59 L
166.32 238.246 L
168.18 234 L
170.04 231.087 L
171.9 248.485 L
173.76 232.117 L
175.62 267.863 L
177.48 247.081 L
179.34 238.192 L
181.2 227.131 L
183.06 227.124 L
184.92 210.837 L
186.78 203.992 L
188.64 224.372 L
190.5 126.786 L
192.36 125.709 L
194.22 98.927 L
196.08 132.413 L
197.94 159.437 L
199.8 102.012 L
201.66 156.635 L
203.52 151.811 L
205.38 125.259 L
207.24 137.309 L
209.1 139.076 L
210.96 140.103 L
212.82 162.263 L
214.68 161.371 L
216.54 167.812 L
218.4 127.751 L
220.26 154.953 L
222.12 168.77 L
223.98 132.351 L
225.84 144.383 L
227.7 161.663 L
229.56 135.419 L
231.42 132.959 L
233.28 131.909 L
235.14 150.248 L
237 146.029 L
238.86 239.751 L
240.72 257.124 L
242.58 239.58 L
244.44 240.948 L
246.3 228.388 L
248.16 239.985 L
250.02 215.059 L
251.88 265.559 L
253.74 225.293 L
255.6 240.466 L
257.46 215.813 L
259.32 230.576 L
261.18 204.823 L
263.04 238.428 L
264.9 236.929 L
266.76 223.873 L
268.62 214.349 L
270.48 251.595 L
272.34 275.346 L
274.2 67.122 L
276.06 75.634 L
277.92 67 L
279.78 80.958 L
281.64 67 L
283.5 93.275 L
285.36 92.37 L
287.22 67 L
289.08 79.64 L
290.94 77.533 L
292.8 77.509 L
294.66 67 L
296.52 67 L
298.38 67 L
300.24 97.635 L
302.1 96.349 L
303.96 67 L
305.82 97.971 L
307.68 67 L
309.54 67 L
311.4 67 L
313.26 96.19 L
315.12 67 L
316.98 67 L
318.84 67 L
320.7 72.732 L
322.56 89.533 L
324.42 78.824 L
326.28 75.667 L
328.14 72.331 L
330 70.511 L
331.86 246.914 L
333.72 214.125 L
335.58 247.486 L
337.44 206.431 L
339.3 236.503 L
341.16 244.36 L
343.02 209.955 L
344.88 240.885 L
346.74 231.553 L
348.6 219.724 L
350.46 226.917 L
352.32 242.225 L
354.18 266.391 L
356.04 244.581 L
357.9 220.459 L
359.76 213.971 L
361.62 227.654 L
363.48 216.43 L
365.34 226.383 L
367.2 207.781 L
369.06 207.009 L
370.92 241.307 L
372.78 231.368 L
374.64 221.797 L
376.5 210.564 L
378.36 229.268 L
380.22 240.179 L
382.08 232.193 L
383.94 253.654 L
385.8 68.985 L
387.66 67 L
389.52 70.369 L
391.38 67.04 L
393.24 77.373 L
395.1 92.057 L
396.96 76.944 L
398.82 76.757 L
400.68 67 L
402.54 67 L
404.4 67 L
406.26 67 L
408.12 67 L
409.98 76.37 L
411.84 67 L
413.7 78.173 L
415.56 238.302 L
417.42 217.986 L
419.28 240.492 L
421.14 203.195 L
423 212.048 L
424.86 243.001 L
426.72 201.573 L
428.58 236.302 L
430.44 218.415 L
432.3 228.77 L
434.16 231.78 L
436.02 198.25 L
437.88 257.041 L
439.74 256.692 L
441.6 88.641 L
443.46 123.088 L
445.32 121.347 L
447.18 93.54 L
449.04 104.552 L
450.9 113.386 L
452.76 126.567 L
454.62 110.799 L
456.48 136.574 L
458.34 94.707 L
460.2 101.791 L
462.06 122.055 L
463.92 103.801 L
465.78 67 L
467.64 96.873 L
469.5 93.987 L
471.36 74.03 L
473.22 94.19 L
475.08 100.39 L
476.94 99.356 L
478.8 95.293 L
480.66 82.913 L
482.52 95.595 L
484.38 81.244 L
486.24 102.352 L
488.1 86.925 L
489.96 209.574 L
491.82 228.537 L
493.68 233.454 L
495.54 236.143 L
497.4 229.04 L
499.26 235.526 L
501.12 244.285 L
502.98 247.011 L
504.84 221.688 L
506.7 241.007 L
508.56 247.201 L
510.42 254.286 L
512.28 254.323 L
514.14 220.392 L
516 237.696 L
S
GR
GS
[0.5 0 0 0.5 0 0] CT
0.298 GC
1 LJ
N
144 230.827 M
516 230.827 L
S
GR
GS
[0.5 0 0 0.5 0 0] CT
1 GC
N
633 372 M
1005 372 L
1005 67 L
633 67 L
cp
f
GR
GS
[0.5 0 0 0.5 0 0] CT
0.851 GC
1 LJ
N
633 372 M
633 67 L
S
GR
GS
[0.5 0 0 0.5 0 0] CT
0.851 GC
1 LJ
N
726 372 M
726 67 L
S
GR
GS
[0.5 0 0 0.5 0 0] CT
0.851 GC
1 LJ
N
819 372 M
819 67 L
S
GR
GS
[0.5 0 0 0.5 0 0] CT
0.851 GC
1 LJ
N
912 372 M
912 67 L
S
GR
GS
[0.5 0 0 0.5 0 0] CT
0.851 GC
1 LJ
N
1005 372 M
1005 67 L
S
GR
GS
[0.5 0 0 0.5 0 0] CT
0.851 GC
1 LJ
N
1005 372 M
633 372 L
S
GR
GS
[0.5 0 0 0.5 0 0] CT
0.851 GC
1 LJ
N
1005 311 M
633 311 L
S
GR
GS
[0.5 0 0 0.5 0 0] CT
0.851 GC
1 LJ
N
1005 250 M
633 250 L
S
GR
GS
[0.5 0 0 0.5 0 0] CT
0.851 GC
1 LJ
N
1005 189 M
633 189 L
S
GR
GS
[0.5 0 0 0.5 0 0] CT
0.851 GC
1 LJ
N
1005 128 M
633 128 L
S
GR
GS
[0.5 0 0 0.5 0 0] CT
0.851 GC
1 LJ
N
1005 67 M
633 67 L
S
GR
GS
[0.5 0 0 0.5 0 0] CT
2 setlinecap
1 LJ
N
633 372 M
1005 372 L
S
GR
GS
[0.5 0 0 0.5 0 0] CT
2 setlinecap
1 LJ
N
633 67 M
1005 67 L
S
GR
GS
[0.5 0 0 0.5 0 0] CT
2 setlinecap
1 LJ
N
633 372 M
633 368.28 L
S
GR
GS
[0.5 0 0 0.5 0 0] CT
2 setlinecap
1 LJ
N
726 372 M
726 368.28 L
S
GR
GS
[0.5 0 0 0.5 0 0] CT
2 setlinecap
1 LJ
N
819 372 M
819 368.28 L
S
GR
GS
[0.5 0 0 0.5 0 0] CT
2 setlinecap
1 LJ
N
912 372 M
912 368.28 L
S
GR
GS
[0.5 0 0 0.5 0 0] CT
2 setlinecap
1 LJ
N
1005 372 M
1005 368.28 L
S
GR
GS
[0.5 0 0 0.5 0 0] CT
2 setlinecap
1 LJ
N
633 67 M
633 70.72 L
S
GR
GS
[0.5 0 0 0.5 0 0] CT
2 setlinecap
1 LJ
N
726 67 M
726 70.72 L
S
GR
GS
[0.5 0 0 0.5 0 0] CT
2 setlinecap
1 LJ
N
819 67 M
819 70.72 L
S
GR
GS
[0.5 0 0 0.5 0 0] CT
2 setlinecap
1 LJ
N
912 67 M
912 70.72 L
S
GR
GS
[0.5 0 0 0.5 0 0] CT
2 setlinecap
1 LJ
N
1005 67 M
1005 70.72 L
S
GR
GS
[0.5 0 0 0.5 316.5 190] CT
/Helvetica 20 F
GS
[1 0 0 1 0 0] CT
-6.5 19 moveto 
1 -1 scale
(0) t 
GR
GR
GS
[0.5 0 0 0.5 363 190] CT
/Helvetica 20 F
GS
[1 0 0 1 0 0] CT
-13 19 moveto 
1 -1 scale
(50) t 
GR
GR
GS
[0.5 0 0 0.5 409.5 190] CT
/Helvetica 20 F
GS
[1 0 0 1 0 0] CT
-19.5 19 moveto 
1 -1 scale
(100) t 
GR
GR
GS
[0.5 0 0 0.5 456 190] CT
/Helvetica 20 F
GS
[1 0 0 1 0 0] CT
-19.5 19 moveto 
1 -1 scale
(150) t 
GR
GR
GS
[0.5 0 0 0.5 502.5 190] CT
/Helvetica 20 F
GS
[1 0 0 1 0 0] CT
-19.5 19 moveto 
1 -1 scale
(200) t 
GR
GR
GS
[0.5 0 0 0.5 409.50009 203] CT
/Helvetica 22 F
GS
[1 0 0 1 0 0] CT
-45.5 21 moveto 
1 -1 scale
(Time [s]) t 
GR
GR
GS
[0.5 0 0 0.5 0 0] CT
2 setlinecap
1 LJ
N
633 372 M
633 67 L
S
GR
GS
[0.5 0 0 0.5 0 0] CT
2 setlinecap
1 LJ
N
1005 372 M
1005 67 L
S
GR
GS
[0.5 0 0 0.5 0 0] CT
2 setlinecap
1 LJ
N
633 372 M
636.72 372 L
S
GR
GS
[0.5 0 0 0.5 0 0] CT
2 setlinecap
1 LJ
N
633 311 M
636.72 311 L
S
GR
GS
[0.5 0 0 0.5 0 0] CT
2 setlinecap
1 LJ
N
633 250 M
636.72 250 L
S
GR
GS
[0.5 0 0 0.5 0 0] CT
2 setlinecap
1 LJ
N
633 189 M
636.72 189 L
S
GR
GS
[0.5 0 0 0.5 0 0] CT
2 setlinecap
1 LJ
N
633 128 M
636.72 128 L
S
GR
GS
[0.5 0 0 0.5 0 0] CT
2 setlinecap
1 LJ
N
633 67 M
636.72 67 L
S
GR
GS
[0.5 0 0 0.5 0 0] CT
2 setlinecap
1 LJ
N
1005 372 M
1001.28 372 L
S
GR
GS
[0.5 0 0 0.5 0 0] CT
2 setlinecap
1 LJ
N
1005 311 M
1001.28 311 L
S
GR
GS
[0.5 0 0 0.5 0 0] CT
2 setlinecap
1 LJ
N
1005 250 M
1001.28 250 L
S
GR
GS
[0.5 0 0 0.5 0 0] CT
2 setlinecap
1 LJ
N
1005 189 M
1001.28 189 L
S
GR
GS
[0.5 0 0 0.5 0 0] CT
2 setlinecap
1 LJ
N
1005 128 M
1001.28 128 L
S
GR
GS
[0.5 0 0 0.5 0 0] CT
2 setlinecap
1 LJ
N
1005 67 M
1001.28 67 L
S
GR
GS
[0.5 0 0 0.5 312.5 186] CT
/Helvetica 20 F
GS
[1 0 0 1 0 0] CT
-13 7 moveto 
1 -1 scale
(0) t 
GR
GR
GS
[0.5 0 0 0.5 312.5 155.5] CT
/Helvetica 20 F
GS
[1 0 0 1 0 0] CT
-32 7 moveto 
1 -1 scale
(0.2) t 
GR
GR
GS
[0.5 0 0 0.5 312.5 125] CT
/Helvetica 20 F
GS
[1 0 0 1 0 0] CT
-32 7 moveto 
1 -1 scale
(0.4) t 
GR
GR
GS
[0.5 0 0 0.5 312.5 94.5] CT
/Helvetica 20 F
GS
[1 0 0 1 0 0] CT
-32 7 moveto 
1 -1 scale
(0.6) t 
GR
GR
GS
[0.5 0 0 0.5 312.5 64] CT
/Helvetica 20 F
GS
[1 0 0 1 0 0] CT
-32 7 moveto 
1 -1 scale
(0.8) t 
GR
GR
GS
[0.5 0 0 0.5 312.5 33.5] CT
/Helvetica 20 F
GS
[1 0 0 1 0 0] CT
-13 7 moveto 
1 -1 scale
(1) t 
GR
GR
GS
[0 -0.5 0.5 0 293.5 109.74992] CT
/Helvetica 22 F
GS
[1 0 0 1 0 0] CT
-115 -6 moveto 
1 -1 scale
(Workload for RAM [-]) t 
GR
GR
GS
[0.5 0 0 0.5 409.5004 32.125] CT
/Helvetica-Bold 22 F
GS
[1 0 0 1 0 0] CT
-225 -6 moveto 
1 -1 scale
(Workload input data values for RAM) t 
GR
GR
GS
[0.5 0 0 0.5 0 0] CT
1 LJ
N
634.86 152.836 M
636.72 147.379 L
638.58 160.941 L
640.44 151.862 L
642.3 132.002 L
644.16 161.569 L
646.02 154.404 L
647.88 161.295 L
649.74 148.28 L
651.6 162.162 L
653.46 162.317 L
655.32 152.434 L
657.18 158.699 L
659.04 164.764 L
660.9 178.326 L
662.76 171.382 L
664.62 163.447 L
666.48 151.287 L
668.34 152.105 L
670.2 153.502 L
672.06 149.095 L
673.92 160.324 L
675.78 155.009 L
677.64 159.066 L
679.5 135.004 L
681.36 129.545 L
683.22 126.379 L
685.08 116.019 L
686.94 136.678 L
688.8 136.802 L
690.66 132.666 L
692.52 120.425 L
694.38 134.696 L
696.24 122.556 L
698.1 137.781 L
699.96 138.882 L
701.82 114.46 L
703.68 123.178 L
705.54 125.854 L
707.4 130.989 L
709.26 136.538 L
711.12 120.297 L
712.98 120.699 L
714.84 147.172 L
716.7 141.589 L
718.56 134.42 L
720.42 117.47 L
722.28 127.471 L
724.14 119.085 L
726 136.331 L
727.86 126.685 L
729.72 136.737 L
731.58 148.208 L
733.44 128.234 L
735.3 130.693 L
737.16 138.02 L
739.02 136.082 L
740.88 138.182 L
742.74 126.288 L
744.6 140.573 L
746.46 125.634 L
748.32 133.718 L
750.18 133.211 L
752.04 139.073 L
753.9 138.707 L
755.76 137.207 L
757.62 139.465 L
759.48 137.514 L
761.34 136.925 L
763.2 122.626 L
765.06 105.711 L
766.92 132.603 L
768.78 131.059 L
770.64 108.904 L
772.5 102.377 L
774.36 131.656 L
776.22 142.463 L
778.08 120.413 L
779.94 131.394 L
781.8 125.657 L
783.66 125.864 L
785.52 122 L
787.38 136.922 L
789.24 122.78 L
791.1 128.769 L
792.96 138.582 L
794.82 126.249 L
796.68 134.521 L
798.54 98.743 L
800.4 124.491 L
802.26 125.852 L
804.12 127.056 L
805.98 126.027 L
807.84 113.814 L
809.7 137.637 L
811.56 131.976 L
813.42 115.681 L
815.28 120.649 L
817.14 126.717 L
819 112.566 L
820.86 125.864 L
822.72 116.266 L
824.58 124.979 L
826.44 108.571 L
828.3 117.366 L
830.16 118.987 L
832.02 132.781 L
833.88 128.98 L
835.74 121.429 L
837.6 122.305 L
839.46 138.003 L
841.32 122.417 L
843.18 121.714 L
845.04 141.113 L
846.9 135.484 L
848.76 111.579 L
850.62 129.929 L
852.48 135.303 L
854.34 128.247 L
856.2 113.528 L
858.06 121.026 L
859.92 145.541 L
861.78 129.994 L
863.64 139.509 L
865.5 130.542 L
867.36 142.335 L
869.22 118.831 L
871.08 115.543 L
872.94 117.215 L
874.8 107.693 L
876.66 95.587 L
878.52 105.872 L
880.38 110.085 L
882.24 107.751 L
884.1 106.382 L
885.96 113.098 L
887.82 107.341 L
889.68 95.728 L
891.54 80.741 L
893.4 105.924 L
895.26 95.073 L
897.12 84.262 L
898.98 100.695 L
900.84 104.022 L
902.7 98.629 L
904.56 98.648 L
906.42 108.077 L
908.28 99.51 L
910.14 105.973 L
912 110.589 L
913.86 99.466 L
915.72 92.323 L
917.58 95.081 L
919.44 100.534 L
921.3 94.12 L
923.16 90.676 L
925.02 101.838 L
926.88 103.549 L
928.74 94.038 L
930.6 102.256 L
932.46 89.695 L
934.32 108.252 L
936.18 101.658 L
938.04 102.131 L
939.9 80.996 L
941.76 106.767 L
943.62 108.849 L
945.48 95.061 L
947.34 108.551 L
949.2 107.108 L
951.06 93.212 L
952.92 94.911 L
954.78 85.228 L
956.64 94.018 L
958.5 84.366 L
960.36 90.184 L
962.22 82.599 L
964.08 96.319 L
965.94 116.576 L
967.8 103.421 L
969.66 99.803 L
971.52 95.76 L
973.38 101.778 L
975.24 92.644 L
977.1 95.261 L
978.96 79.69 L
980.82 109.185 L
982.68 97.432 L
984.54 100.826 L
986.4 85.908 L
988.26 92.577 L
990.12 90.118 L
991.98 98.52 L
993.84 89.147 L
995.7 83.55 L
997.56 103.835 L
999.42 105.758 L
1001.28 96.856 L
1003.14 103.799 L
1005 86.237 L
S
GR
GS
[0.5 0 0 0.5 0 0] CT
0.298 GC
1 LJ
N
633 155.98 M
1005 155.98 L
S
GR
GS
[0.5 0 0 0.5 0 0] CT
1 GC
N
144 796 M
516 796 L
516 491 L
144 491 L
cp
f
GR
GS
[0.5 0 0 0.5 0 0] CT
0.851 GC
1 LJ
N
144 796 M
144 491 L
S
GR
GS
[0.5 0 0 0.5 0 0] CT
0.851 GC
1 LJ
N
237 796 M
237 491 L
S
GR
GS
[0.5 0 0 0.5 0 0] CT
0.851 GC
1 LJ
N
330 796 M
330 491 L
S
GR
GS
[0.5 0 0 0.5 0 0] CT
0.851 GC
1 LJ
N
423 796 M
423 491 L
S
GR
GS
[0.5 0 0 0.5 0 0] CT
0.851 GC
1 LJ
N
516 796 M
516 491 L
S
GR
GS
[0.5 0 0 0.5 0 0] CT
0.851 GC
1 LJ
N
516 796 M
144 796 L
S
GR
GS
[0.5 0 0 0.5 0 0] CT
0.851 GC
1 LJ
N
516 735 M
144 735 L
S
GR
GS
[0.5 0 0 0.5 0 0] CT
0.851 GC
1 LJ
N
516 674 M
144 674 L
S
GR
GS
[0.5 0 0 0.5 0 0] CT
0.851 GC
1 LJ
N
516 613 M
144 613 L
S
GR
GS
[0.5 0 0 0.5 0 0] CT
0.851 GC
1 LJ
N
516 552 M
144 552 L
S
GR
GS
[0.5 0 0 0.5 0 0] CT
0.851 GC
1 LJ
N
516 491 M
144 491 L
S
GR
GS
[0.5 0 0 0.5 0 0] CT
2 setlinecap
1 LJ
N
144 796 M
516 796 L
S
GR
GS
[0.5 0 0 0.5 0 0] CT
2 setlinecap
1 LJ
N
144 491 M
516 491 L
S
GR
GS
[0.5 0 0 0.5 0 0] CT
2 setlinecap
1 LJ
N
144 796 M
144 792.28 L
S
GR
GS
[0.5 0 0 0.5 0 0] CT
2 setlinecap
1 LJ
N
237 796 M
237 792.28 L
S
GR
GS
[0.5 0 0 0.5 0 0] CT
2 setlinecap
1 LJ
N
330 796 M
330 792.28 L
S
GR
GS
[0.5 0 0 0.5 0 0] CT
2 setlinecap
1 LJ
N
423 796 M
423 792.28 L
S
GR
GS
[0.5 0 0 0.5 0 0] CT
2 setlinecap
1 LJ
N
516 796 M
516 792.28 L
S
GR
GS
[0.5 0 0 0.5 0 0] CT
2 setlinecap
1 LJ
N
144 491 M
144 494.72 L
S
GR
GS
[0.5 0 0 0.5 0 0] CT
2 setlinecap
1 LJ
N
237 491 M
237 494.72 L
S
GR
GS
[0.5 0 0 0.5 0 0] CT
2 setlinecap
1 LJ
N
330 491 M
330 494.72 L
S
GR
GS
[0.5 0 0 0.5 0 0] CT
2 setlinecap
1 LJ
N
423 491 M
423 494.72 L
S
GR
GS
[0.5 0 0 0.5 0 0] CT
2 setlinecap
1 LJ
N
516 491 M
516 494.72 L
S
GR
GS
[0.5 0 0 0.5 72 402] CT
/Helvetica 20 F
GS
[1 0 0 1 0 0] CT
-6.5 19 moveto 
1 -1 scale
(0) t 
GR
GR
GS
[0.5 0 0 0.5 118.5 402] CT
/Helvetica 20 F
GS
[1 0 0 1 0 0] CT
-13 19 moveto 
1 -1 scale
(50) t 
GR
GR
GS
[0.5 0 0 0.5 165 402] CT
/Helvetica 20 F
GS
[1 0 0 1 0 0] CT
-19.5 19 moveto 
1 -1 scale
(100) t 
GR
GR
GS
[0.5 0 0 0.5 211.5 402] CT
/Helvetica 20 F
GS
[1 0 0 1 0 0] CT
-19.5 19 moveto 
1 -1 scale
(150) t 
GR
GR
GS
[0.5 0 0 0.5 258 402] CT
/Helvetica 20 F
GS
[1 0 0 1 0 0] CT
-19.5 19 moveto 
1 -1 scale
(200) t 
GR
GR
GS
[0.5 0 0 0.5 165.00009 415] CT
/Helvetica 22 F
GS
[1 0 0 1 0 0] CT
-45.5 21 moveto 
1 -1 scale
(Time [s]) t 
GR
GR
GS
[0.5 0 0 0.5 0 0] CT
2 setlinecap
1 LJ
N
144 796 M
144 491 L
S
GR
GS
[0.5 0 0 0.5 0 0] CT
2 setlinecap
1 LJ
N
516 796 M
516 491 L
S
GR
GS
[0.5 0 0 0.5 0 0] CT
2 setlinecap
1 LJ
N
144 796 M
147.72 796 L
S
GR
GS
[0.5 0 0 0.5 0 0] CT
2 setlinecap
1 LJ
N
144 735 M
147.72 735 L
S
GR
GS
[0.5 0 0 0.5 0 0] CT
2 setlinecap
1 LJ
N
144 674 M
147.72 674 L
S
GR
GS
[0.5 0 0 0.5 0 0] CT
2 setlinecap
1 LJ
N
144 613 M
147.72 613 L
S
GR
GS
[0.5 0 0 0.5 0 0] CT
2 setlinecap
1 LJ
N
144 552 M
147.72 552 L
S
GR
GS
[0.5 0 0 0.5 0 0] CT
2 setlinecap
1 LJ
N
144 491 M
147.72 491 L
S
GR
GS
[0.5 0 0 0.5 0 0] CT
2 setlinecap
1 LJ
N
516 796 M
512.28 796 L
S
GR
GS
[0.5 0 0 0.5 0 0] CT
2 setlinecap
1 LJ
N
516 735 M
512.28 735 L
S
GR
GS
[0.5 0 0 0.5 0 0] CT
2 setlinecap
1 LJ
N
516 674 M
512.28 674 L
S
GR
GS
[0.5 0 0 0.5 0 0] CT
2 setlinecap
1 LJ
N
516 613 M
512.28 613 L
S
GR
GS
[0.5 0 0 0.5 0 0] CT
2 setlinecap
1 LJ
N
516 552 M
512.28 552 L
S
GR
GS
[0.5 0 0 0.5 0 0] CT
2 setlinecap
1 LJ
N
516 491 M
512.28 491 L
S
GR
GS
[0.5 0 0 0.5 68 398] CT
/Helvetica 20 F
GS
[1 0 0 1 0 0] CT
-13 7 moveto 
1 -1 scale
(0) t 
GR
GR
GS
[0.5 0 0 0.5 68 367.5] CT
/Helvetica 20 F
GS
[1 0 0 1 0 0] CT
-32 7 moveto 
1 -1 scale
(0.2) t 
GR
GR
GS
[0.5 0 0 0.5 68 337] CT
/Helvetica 20 F
GS
[1 0 0 1 0 0] CT
-32 7 moveto 
1 -1 scale
(0.4) t 
GR
GR
GS
[0.5 0 0 0.5 68 306.5] CT
/Helvetica 20 F
GS
[1 0 0 1 0 0] CT
-32 7 moveto 
1 -1 scale
(0.6) t 
GR
GR
GS
[0.5 0 0 0.5 68 276] CT
/Helvetica 20 F
GS
[1 0 0 1 0 0] CT
-32 7 moveto 
1 -1 scale
(0.8) t 
GR
GR
GS
[0.5 0 0 0.5 68 245.5] CT
/Helvetica 20 F
GS
[1 0 0 1 0 0] CT
-13 7 moveto 
1 -1 scale
(1) t 
GR
GR
GS
[0 -0.5 0.5 0 49 321.74994] CT
/Helvetica 22 F
GS
[1 0 0 1 0 0] CT
-102 -6 moveto 
1 -1 scale
(Workload for NI [-]) t 
GR
GR
GS
[0.5 0 0 0.5 165.00015 244.125] CT
/Helvetica-Bold 22 F
GS
[1 0 0 1 0 0] CT
-210.5 -6 moveto 
1 -1 scale
(Workload input data values for NI) t 
GR
GR
GS
[0.5 0 0 0.5 0 0] CT
1 LJ
N
145.86 710.483 M
147.72 730.104 L
149.58 690.275 L
151.44 723.889 L
153.3 688.933 L
155.16 724.474 L
157.02 681.234 L
158.88 707.034 L
160.74 782.732 L
162.6 717.715 L
164.46 685.597 L
166.32 720.75 L
168.18 728.136 L
170.04 703.657 L
171.9 681.054 L
173.76 697.131 L
175.62 711.128 L
177.48 702.179 L
179.34 702.109 L
181.2 717.661 L
183.06 704.797 L
184.92 713.938 L
186.78 698.032 L
188.64 699.821 L
190.5 560.841 L
192.36 526.595 L
194.22 491 L
196.08 509.24 L
197.94 521.616 L
199.8 515.761 L
201.66 541.682 L
203.52 554.823 L
205.38 567.962 L
207.24 508.027 L
209.1 564.278 L
210.96 512.72 L
212.82 561.822 L
214.68 510.31 L
216.54 515.374 L
218.4 517.807 L
220.26 529.991 L
222.12 493.526 L
223.98 502.711 L
225.84 549.017 L
227.7 533.101 L
229.56 512.256 L
231.42 529.942 L
233.28 497.573 L
235.14 549.537 L
237 509.822 L
238.86 696.244 L
240.72 715.44 L
242.58 706.21 L
244.44 705.945 L
246.3 716.31 L
248.16 697.704 L
250.02 708.575 L
251.88 712.611 L
253.74 737.357 L
255.6 712.763 L
257.46 693.236 L
259.32 722.751 L
261.18 704.72 L
263.04 699.512 L
264.9 639.495 L
266.76 729.646 L
268.62 718.191 L
270.48 723.222 L
272.34 747.782 L
274.2 629.099 L
276.06 640.992 L
277.92 678.794 L
279.78 655.087 L
281.64 664.926 L
283.5 613.693 L
285.36 658.249 L
287.22 624.549 L
289.08 605.751 L
290.94 613.726 L
292.8 629.656 L
294.66 672.213 L
296.52 591.755 L
298.38 672.925 L
300.24 658.779 L
302.1 643.864 L
303.96 626.875 L
305.82 637.412 L
307.68 661.38 L
309.54 665.646 L
311.4 676.937 L
313.26 651.988 L
315.12 649.911 L
316.98 646.627 L
318.84 651.986 L
320.7 632.292 L
322.56 646.628 L
324.42 656.562 L
326.28 649.665 L
328.14 606.994 L
330 642.052 L
331.86 746.073 L
333.72 706.903 L
335.58 690.571 L
337.44 741.646 L
339.3 743.74 L
341.16 727.018 L
343.02 711.511 L
344.88 688.697 L
346.74 701.136 L
348.6 715.481 L
350.46 732.432 L
352.32 712.294 L
354.18 701.652 L
356.04 729.721 L
357.9 708.529 L
359.76 707.636 L
361.62 684.113 L
363.48 679.003 L
365.34 755.135 L
367.2 689.282 L
369.06 728.111 L
370.92 742.87 L
372.78 727.151 L
374.64 724.278 L
376.5 706.694 L
378.36 718.454 L
380.22 743.755 L
382.08 721.404 L
383.94 756.116 L
385.8 533.9 L
387.66 513.284 L
389.52 536.01 L
391.38 522.272 L
393.24 534.205 L
395.1 516.437 L
396.96 538.064 L
398.82 499.366 L
400.68 512.576 L
402.54 547.011 L
404.4 562.077 L
406.26 551.955 L
408.12 539.24 L
409.98 518.698 L
411.84 509.915 L
413.7 545.39 L
415.56 705.935 L
417.42 753.574 L
419.28 658.373 L
421.14 689.761 L
423 746.156 L
424.86 708.729 L
426.72 714.641 L
428.58 730.522 L
430.44 754.031 L
432.3 734.733 L
434.16 707.537 L
436.02 726.027 L
437.88 732.734 L
439.74 712.556 L
441.6 555.063 L
443.46 573.522 L
445.32 547.142 L
447.18 566.445 L
449.04 581.536 L
450.9 540.114 L
452.76 561.514 L
454.62 540.53 L
456.48 522.889 L
458.34 549.97 L
460.2 563.09 L
462.06 541.572 L
463.92 529.308 L
465.78 539.631 L
467.64 549.853 L
469.5 550.512 L
471.36 571.541 L
473.22 551.928 L
475.08 549.858 L
476.94 535.529 L
478.8 531.533 L
480.66 544.171 L
482.52 566.98 L
484.38 579.793 L
486.24 546.927 L
488.1 553.715 L
489.96 713.885 L
491.82 718.639 L
493.68 685.064 L
495.54 690.187 L
497.4 709.496 L
499.26 724.788 L
501.12 722.008 L
502.98 721.733 L
504.84 698.482 L
506.7 691.076 L
508.56 677.023 L
510.42 690.533 L
512.28 737.65 L
514.14 691.251 L
516 710.835 L
S
GR
GS
[0.5 0 0 0.5 0 0] CT
0.298 GC
1 LJ
N
144 703.348 M
516 703.348 L
S
GR
GS
[0.5 0 0 0.5 0 0] CT
1 GC
N
633 796 M
1005 796 L
1005 491 L
633 491 L
cp
f
GR
GS
[0.5 0 0 0.5 0 0] CT
0.851 GC
1 LJ
N
633 796 M
633 491 L
S
GR
GS
[0.5 0 0 0.5 0 0] CT
0.851 GC
1 LJ
N
726 796 M
726 491 L
S
GR
GS
[0.5 0 0 0.5 0 0] CT
0.851 GC
1 LJ
N
819 796 M
819 491 L
S
GR
GS
[0.5 0 0 0.5 0 0] CT
0.851 GC
1 LJ
N
912 796 M
912 491 L
S
GR
GS
[0.5 0 0 0.5 0 0] CT
0.851 GC
1 LJ
N
1005 796 M
1005 491 L
S
GR
GS
[0.5 0 0 0.5 0 0] CT
0.851 GC
1 LJ
N
1005 796 M
633 796 L
S
GR
GS
[0.5 0 0 0.5 0 0] CT
0.851 GC
1 LJ
N
1005 735 M
633 735 L
S
GR
GS
[0.5 0 0 0.5 0 0] CT
0.851 GC
1 LJ
N
1005 674 M
633 674 L
S
GR
GS
[0.5 0 0 0.5 0 0] CT
0.851 GC
1 LJ
N
1005 613 M
633 613 L
S
GR
GS
[0.5 0 0 0.5 0 0] CT
0.851 GC
1 LJ
N
1005 552 M
633 552 L
S
GR
GS
[0.5 0 0 0.5 0 0] CT
0.851 GC
1 LJ
N
1005 491 M
633 491 L
S
GR
GS
[0.5 0 0 0.5 0 0] CT
2 setlinecap
1 LJ
N
633 796 M
1005 796 L
S
GR
GS
[0.5 0 0 0.5 0 0] CT
2 setlinecap
1 LJ
N
633 491 M
1005 491 L
S
GR
GS
[0.5 0 0 0.5 0 0] CT
2 setlinecap
1 LJ
N
633 796 M
633 792.28 L
S
GR
GS
[0.5 0 0 0.5 0 0] CT
2 setlinecap
1 LJ
N
726 796 M
726 792.28 L
S
GR
GS
[0.5 0 0 0.5 0 0] CT
2 setlinecap
1 LJ
N
819 796 M
819 792.28 L
S
GR
GS
[0.5 0 0 0.5 0 0] CT
2 setlinecap
1 LJ
N
912 796 M
912 792.28 L
S
GR
GS
[0.5 0 0 0.5 0 0] CT
2 setlinecap
1 LJ
N
1005 796 M
1005 792.28 L
S
GR
GS
[0.5 0 0 0.5 0 0] CT
2 setlinecap
1 LJ
N
633 491 M
633 494.72 L
S
GR
GS
[0.5 0 0 0.5 0 0] CT
2 setlinecap
1 LJ
N
726 491 M
726 494.72 L
S
GR
GS
[0.5 0 0 0.5 0 0] CT
2 setlinecap
1 LJ
N
819 491 M
819 494.72 L
S
GR
GS
[0.5 0 0 0.5 0 0] CT
2 setlinecap
1 LJ
N
912 491 M
912 494.72 L
S
GR
GS
[0.5 0 0 0.5 0 0] CT
2 setlinecap
1 LJ
N
1005 491 M
1005 494.72 L
S
GR
GS
[0.5 0 0 0.5 316.5 402] CT
/Helvetica 20 F
GS
[1 0 0 1 0 0] CT
-6.5 19 moveto 
1 -1 scale
(0) t 
GR
GR
GS
[0.5 0 0 0.5 363 402] CT
/Helvetica 20 F
GS
[1 0 0 1 0 0] CT
-13 19 moveto 
1 -1 scale
(50) t 
GR
GR
GS
[0.5 0 0 0.5 409.5 402] CT
/Helvetica 20 F
GS
[1 0 0 1 0 0] CT
-19.5 19 moveto 
1 -1 scale
(100) t 
GR
GR
GS
[0.5 0 0 0.5 456 402] CT
/Helvetica 20 F
GS
[1 0 0 1 0 0] CT
-19.5 19 moveto 
1 -1 scale
(150) t 
GR
GR
GS
[0.5 0 0 0.5 502.5 402] CT
/Helvetica 20 F
GS
[1 0 0 1 0 0] CT
-19.5 19 moveto 
1 -1 scale
(200) t 
GR
GR
GS
[0.5 0 0 0.5 409.50009 415] CT
/Helvetica 22 F
GS
[1 0 0 1 0 0] CT
-45.5 21 moveto 
1 -1 scale
(Time [s]) t 
GR
GR
GS
[0.5 0 0 0.5 0 0] CT
2 setlinecap
1 LJ
N
633 796 M
633 491 L
S
GR
GS
[0.5 0 0 0.5 0 0] CT
2 setlinecap
1 LJ
N
1005 796 M
1005 491 L
S
GR
GS
[0.5 0 0 0.5 0 0] CT
2 setlinecap
1 LJ
N
633 796 M
636.72 796 L
S
GR
GS
[0.5 0 0 0.5 0 0] CT
2 setlinecap
1 LJ
N
633 735 M
636.72 735 L
S
GR
GS
[0.5 0 0 0.5 0 0] CT
2 setlinecap
1 LJ
N
633 674 M
636.72 674 L
S
GR
GS
[0.5 0 0 0.5 0 0] CT
2 setlinecap
1 LJ
N
633 613 M
636.72 613 L
S
GR
GS
[0.5 0 0 0.5 0 0] CT
2 setlinecap
1 LJ
N
633 552 M
636.72 552 L
S
GR
GS
[0.5 0 0 0.5 0 0] CT
2 setlinecap
1 LJ
N
633 491 M
636.72 491 L
S
GR
GS
[0.5 0 0 0.5 0 0] CT
2 setlinecap
1 LJ
N
1005 796 M
1001.28 796 L
S
GR
GS
[0.5 0 0 0.5 0 0] CT
2 setlinecap
1 LJ
N
1005 735 M
1001.28 735 L
S
GR
GS
[0.5 0 0 0.5 0 0] CT
2 setlinecap
1 LJ
N
1005 674 M
1001.28 674 L
S
GR
GS
[0.5 0 0 0.5 0 0] CT
2 setlinecap
1 LJ
N
1005 613 M
1001.28 613 L
S
GR
GS
[0.5 0 0 0.5 0 0] CT
2 setlinecap
1 LJ
N
1005 552 M
1001.28 552 L
S
GR
GS
[0.5 0 0 0.5 0 0] CT
2 setlinecap
1 LJ
N
1005 491 M
1001.28 491 L
S
GR
GS
[0.5 0 0 0.5 312.5 398] CT
/Helvetica 20 F
GS
[1 0 0 1 0 0] CT
-13 7 moveto 
1 -1 scale
(0) t 
GR
GR
GS
[0.5 0 0 0.5 312.5 367.5] CT
/Helvetica 20 F
GS
[1 0 0 1 0 0] CT
-32 7 moveto 
1 -1 scale
(0.2) t 
GR
GR
GS
[0.5 0 0 0.5 312.5 337] CT
/Helvetica 20 F
GS
[1 0 0 1 0 0] CT
-32 7 moveto 
1 -1 scale
(0.4) t 
GR
GR
GS
[0.5 0 0 0.5 312.5 306.5] CT
/Helvetica 20 F
GS
[1 0 0 1 0 0] CT
-32 7 moveto 
1 -1 scale
(0.6) t 
GR
GR
GS
[0.5 0 0 0.5 312.5 276] CT
/Helvetica 20 F
GS
[1 0 0 1 0 0] CT
-32 7 moveto 
1 -1 scale
(0.8) t 
GR
GR
GS
[0.5 0 0 0.5 312.5 245.5] CT
/Helvetica 20 F
GS
[1 0 0 1 0 0] CT
-13 7 moveto 
1 -1 scale
(1) t 
GR
GR
GS
[0 -0.5 0.5 0 293.5 321.74994] CT
/Helvetica 22 F
GS
[1 0 0 1 0 0] CT
-133.5 -6 moveto 
1 -1 scale
(Workload for Storage [-]) t 
GR
GR
GS
[0.5 0 0 0.5 409.5004 244.125] CT
/Helvetica-Bold 22 F
GS
[1 0 0 1 0 0] CT
-246 -6 moveto 
1 -1 scale
(Workload input data values for Storage) t 
GR
GR
GS
[0.5 0 0 0.5 0 0] CT
1 LJ
N
634.86 667.38 M
636.72 659.008 L
638.58 658.077 L
640.44 655.668 L
642.3 653.366 L
644.16 657.932 L
646.02 663.023 L
647.88 635.401 L
649.74 631.867 L
651.6 646.722 L
653.46 654.55 L
655.32 632.277 L
657.18 661.774 L
659.04 660.664 L
660.9 654.765 L
662.76 639.294 L
664.62 657.378 L
666.48 646.654 L
668.34 657.349 L
670.2 652.027 L
672.06 688.278 L
673.92 632.696 L
675.78 639.122 L
677.64 673.161 L
679.5 616.318 L
681.36 622.564 L
683.22 624.178 L
685.08 650.595 L
686.94 600.845 L
688.8 630.555 L
690.66 649.104 L
692.52 644.55 L
694.38 652.061 L
696.24 643.647 L
698.1 618.185 L
699.96 633.689 L
701.82 625.112 L
703.68 614.938 L
705.54 639.239 L
707.4 615.777 L
709.26 631.31 L
711.12 633.133 L
712.98 622.811 L
714.84 631.115 L
716.7 637.786 L
718.56 600.247 L
720.42 627.452 L
722.28 627.891 L
724.14 634.905 L
726 652.448 L
727.86 607.636 L
729.72 644.105 L
731.58 626.38 L
733.44 627.319 L
735.3 609.345 L
737.16 632.418 L
739.02 641.729 L
740.88 637.564 L
742.74 625.99 L
744.6 631.39 L
746.46 652.487 L
748.32 611.221 L
750.18 636.139 L
752.04 586.709 L
753.9 628.496 L
755.76 632.441 L
757.62 626.839 L
759.48 624.606 L
761.34 619.231 L
763.2 595.52 L
765.06 619.262 L
766.92 624.551 L
768.78 590.054 L
770.64 602.921 L
772.5 622.937 L
774.36 590.34 L
776.22 616.893 L
778.08 614.093 L
779.94 613.83 L
781.8 615.555 L
783.66 608.33 L
785.52 636.565 L
787.38 603.956 L
789.24 653.465 L
791.1 613.281 L
792.96 631.51 L
794.82 605.471 L
796.68 629.635 L
798.54 598.704 L
800.4 624.572 L
802.26 628.527 L
804.12 608.514 L
805.98 619 L
807.84 621.67 L
809.7 622.138 L
811.56 599.046 L
813.42 621.114 L
815.28 614.863 L
817.14 622.815 L
819 615.908 L
820.86 625.982 L
822.72 604.505 L
824.58 608.641 L
826.44 599.045 L
828.3 608.827 L
830.16 607.615 L
832.02 609.859 L
833.88 587.515 L
835.74 615.091 L
837.6 618.924 L
839.46 608.389 L
841.32 619.597 L
843.18 634.808 L
845.04 622.805 L
846.9 622.182 L
848.76 605.269 L
850.62 604.233 L
852.48 616.43 L
854.34 609.164 L
856.2 627.674 L
858.06 614.616 L
859.92 618.031 L
861.78 601.595 L
863.64 598.771 L
865.5 622.041 L
867.36 644.789 L
869.22 612 L
871.08 593.748 L
872.94 594.645 L
874.8 566.278 L
876.66 544.957 L
878.52 564.9 L
880.38 540.697 L
882.24 555.797 L
884.1 529.426 L
885.96 547.275 L
887.82 535.656 L
889.68 552.643 L
891.54 508.175 L
893.4 535.335 L
895.26 541.311 L
897.12 558.598 L
898.98 531.148 L
900.84 554.776 L
902.7 555.982 L
904.56 548.4 L
906.42 547.706 L
908.28 546.996 L
910.14 509.4 L
912 526.075 L
913.86 514.413 L
915.72 580.874 L
917.58 541.306 L
919.44 539.218 L
921.3 542.067 L
923.16 509.598 L
925.02 545.271 L
926.88 550.095 L
928.74 531.513 L
930.6 491 L
932.46 491 L
934.32 491 L
936.18 491 L
938.04 491 L
939.9 491 L
941.76 491 L
943.62 491 L
945.48 491 L
947.34 491 L
949.2 491 L
951.06 491 L
952.92 491 L
954.78 491 L
956.64 491 L
958.5 491 L
960.36 491 L
962.22 491 L
964.08 491 L
965.94 491 L
967.8 491 L
969.66 491 L
971.52 491 L
973.38 491 L
975.24 491 L
977.1 491 L
978.96 491 L
980.82 491 L
982.68 491 L
984.54 491 L
986.4 491 L
988.26 491 L
990.12 491 L
991.98 491 L
993.84 491 L
995.7 491 L
997.56 491 L
999.42 491 L
1001.28 491 L
1003.14 491 L
1005 491 L
S
GR
GS
[0.5 0 0 0.5 0 0] CT
0.298 GC
1 LJ
N
633 651.79 M
1005 651.79 L
S
GR
%%Trailer
%%Pages: 1
%%EOF
