%!PS-Adobe-3.0 EPSF-3.0
%%Creator: (MATLAB, The Mathworks, Inc. Version 9.10.0.1739362 \(R2021a\) Update 5. Operating System: Linux)
%%Title: ./epsTimeCmplxty.eps
%%CreationDate: 2021-09-23T13:51:52
%%Pages: (atend)
%%BoundingBox:    26    13   524   377
%%LanguageLevel: 3
%%EndComments
%%BeginProlog
%%BeginResource: procset (Apache XML Graphics Std ProcSet) 1.2 0
%%Version: 1.2 0
%%Copyright: (Copyright 2001-2003,2010 The Apache Software Foundation. License terms: http://www.apache.org/licenses/LICENSE-2.0)
/bd{bind def}bind def
/ld{load def}bd
/GR/grestore ld
/GS/gsave ld
/RM/rmoveto ld
/C/curveto ld
/t/show ld
/L/lineto ld
/ML/setmiterlimit ld
/CT/concat ld
/f/fill ld
/N/newpath ld
/S/stroke ld
/CC/setcmykcolor ld
/A/ashow ld
/cp/closepath ld
/RC/setrgbcolor ld
/LJ/setlinejoin ld
/GC/setgray ld
/LW/setlinewidth ld
/M/moveto ld
/re {4 2 roll M
1 index 0 rlineto
0 exch rlineto
neg 0 rlineto
cp } bd
/_ctm matrix def
/_tm matrix def
/BT { _ctm currentmatrix pop matrix _tm copy pop 0 0 moveto } bd
/ET { _ctm setmatrix } bd
/iTm { _ctm setmatrix _tm concat } bd
/Tm { _tm astore pop iTm 0 0 moveto } bd
/ux 0.0 def
/uy 0.0 def
/F {
  /Tp exch def
  /Tf exch def
  Tf findfont Tp scalefont setfont
  /cf Tf def  /cs Tp def
} bd
/ULS {currentpoint /uy exch def /ux exch def} bd
/ULE {
  /Tcx currentpoint pop def
  gsave
  newpath
  cf findfont cs scalefont dup
  /FontMatrix get 0 get /Ts exch def /FontInfo get dup
  /UnderlinePosition get Ts mul /To exch def
  /UnderlineThickness get Ts mul /Tt exch def
  ux uy To add moveto  Tcx uy To add lineto
  Tt setlinewidth stroke
  grestore
} bd
/OLE {
  /Tcx currentpoint pop def
  gsave
  newpath
  cf findfont cs scalefont dup
  /FontMatrix get 0 get /Ts exch def /FontInfo get dup
  /UnderlinePosition get Ts mul /To exch def
  /UnderlineThickness get Ts mul /Tt exch def
  ux uy To add cs add moveto Tcx uy To add cs add lineto
  Tt setlinewidth stroke
  grestore
} bd
/SOE {
  /Tcx currentpoint pop def
  gsave
  newpath
  cf findfont cs scalefont dup
  /FontMatrix get 0 get /Ts exch def /FontInfo get dup
  /UnderlinePosition get Ts mul /To exch def
  /UnderlineThickness get Ts mul /Tt exch def
  ux uy To add cs 10 mul 26 idiv add moveto Tcx uy To add cs 10 mul 26 idiv add lineto
  Tt setlinewidth stroke
  grestore
} bd
/QT {
/Y22 exch store
/X22 exch store
/Y21 exch store
/X21 exch store
currentpoint
/Y21 load 2 mul add 3 div exch
/X21 load 2 mul add 3 div exch
/X21 load 2 mul /X22 load add 3 div
/Y21 load 2 mul /Y22 load add 3 div
/X22 load /Y22 load curveto
} bd
/SSPD {
dup length /d exch dict def
{
/v exch def
/k exch def
currentpagedevice k known {
/cpdv currentpagedevice k get def
v cpdv ne {
/upd false def
/nullv v type /nulltype eq def
/nullcpdv cpdv type /nulltype eq def
nullv nullcpdv or
{
/upd true def
} {
/sametype v type cpdv type eq def
sametype {
v type /arraytype eq {
/vlen v length def
/cpdvlen cpdv length def
vlen cpdvlen eq {
0 1 vlen 1 sub {
/i exch def
/obj v i get def
/cpdobj cpdv i get def
obj cpdobj ne {
/upd true def
exit
} if
} for
} {
/upd true def
} ifelse
} {
v type /dicttype eq {
v {
/dv exch def
/dk exch def
/cpddv cpdv dk get def
dv cpddv ne {
/upd true def
exit
} if
} forall
} {
/upd true def
} ifelse
} ifelse
} if
} ifelse
upd true eq {
d k v put
} if
} if
} if
} forall
d length 0 gt {
d setpagedevice
} if
} bd
/RE { % /NewFontName [NewEncodingArray] /FontName RE -
  findfont dup length dict begin
  {
    1 index /FID ne
    {def} {pop pop} ifelse
  } forall
  /Encoding exch def
  /FontName 1 index def
  currentdict definefont pop
  end
} bind def
%%EndResource
%%BeginResource: procset (Apache XML Graphics EPS ProcSet) 1.0 0
%%Version: 1.0 0
%%Copyright: (Copyright 2002-2003 The Apache Software Foundation. License terms: http://www.apache.org/licenses/LICENSE-2.0)
/BeginEPSF { %def
/b4_Inc_state save def         % Save state for cleanup
/dict_count countdictstack def % Count objects on dict stack
/op_count count 1 sub def      % Count objects on operand stack
userdict begin                 % Push userdict on dict stack
/showpage { } def              % Redefine showpage, { } = null proc
0 setgray 0 setlinecap         % Prepare graphics state
1 setlinewidth 0 setlinejoin
10 setmiterlimit [ ] 0 setdash newpath
/languagelevel where           % If level not equal to 1 then
{pop languagelevel             % set strokeadjust and
1 ne                           % overprint to their defaults.
{false setstrokeadjust false setoverprint
} if
} if
} bd
/EndEPSF { %def
count op_count sub {pop} repeat            % Clean up stacks
countdictstack dict_count sub {end} repeat
b4_Inc_state restore
} bd
%%EndResource
%FOPBeginFontDict
%%IncludeResource: font Courier-Oblique
%%IncludeResource: font Courier-BoldOblique
%%IncludeResource: font Courier-Bold
%%IncludeResource: font ZapfDingbats
%%IncludeResource: font Symbol
%%IncludeResource: font Helvetica
%%IncludeResource: font Helvetica-Oblique
%%IncludeResource: font Helvetica-Bold
%%IncludeResource: font Helvetica-BoldOblique
%%IncludeResource: font Times-Roman
%%IncludeResource: font Times-Italic
%%IncludeResource: font Times-Bold
%%IncludeResource: font Times-BoldItalic
%%IncludeResource: font Courier
%FOPEndFontDict
%%BeginResource: encoding WinAnsiEncoding
/WinAnsiEncoding [
/.notdef /.notdef /.notdef /.notdef /.notdef
/.notdef /.notdef /.notdef /.notdef /.notdef
/.notdef /.notdef /.notdef /.notdef /.notdef
/.notdef /.notdef /.notdef /.notdef /.notdef
/.notdef /.notdef /.notdef /.notdef /.notdef
/.notdef /.notdef /.notdef /.notdef /.notdef
/.notdef /.notdef /space /exclam /quotedbl
/numbersign /dollar /percent /ampersand /quotesingle
/parenleft /parenright /asterisk /plus /comma
/hyphen /period /slash /zero /one
/two /three /four /five /six
/seven /eight /nine /colon /semicolon
/less /equal /greater /question /at
/A /B /C /D /E
/F /G /H /I /J
/K /L /M /N /O
/P /Q /R /S /T
/U /V /W /X /Y
/Z /bracketleft /backslash /bracketright /asciicircum
/underscore /quoteleft /a /b /c
/d /e /f /g /h
/i /j /k /l /m
/n /o /p /q /r
/s /t /u /v /w
/x /y /z /braceleft /bar
/braceright /asciitilde /bullet /Euro /bullet
/quotesinglbase /florin /quotedblbase /ellipsis /dagger
/daggerdbl /circumflex /perthousand /Scaron /guilsinglleft
/OE /bullet /Zcaron /bullet /bullet
/quoteleft /quoteright /quotedblleft /quotedblright /bullet
/endash /emdash /asciitilde /trademark /scaron
/guilsinglright /oe /bullet /zcaron /Ydieresis
/space /exclamdown /cent /sterling /currency
/yen /brokenbar /section /dieresis /copyright
/ordfeminine /guillemotleft /logicalnot /sfthyphen /registered
/macron /degree /plusminus /twosuperior /threesuperior
/acute /mu /paragraph /middot /cedilla
/onesuperior /ordmasculine /guillemotright /onequarter /onehalf
/threequarters /questiondown /Agrave /Aacute /Acircumflex
/Atilde /Adieresis /Aring /AE /Ccedilla
/Egrave /Eacute /Ecircumflex /Edieresis /Igrave
/Iacute /Icircumflex /Idieresis /Eth /Ntilde
/Ograve /Oacute /Ocircumflex /Otilde /Odieresis
/multiply /Oslash /Ugrave /Uacute /Ucircumflex
/Udieresis /Yacute /Thorn /germandbls /agrave
/aacute /acircumflex /atilde /adieresis /aring
/ae /ccedilla /egrave /eacute /ecircumflex
/edieresis /igrave /iacute /icircumflex /idieresis
/eth /ntilde /ograve /oacute /ocircumflex
/otilde /odieresis /divide /oslash /ugrave
/uacute /ucircumflex /udieresis /yacute /thorn
/ydieresis
] def
%%EndResource
%FOPBeginFontReencode
/Courier-Oblique findfont
dup length dict begin
  {1 index /FID ne {def} {pop pop} ifelse} forall
  /Encoding WinAnsiEncoding def
  currentdict
end
/Courier-Oblique exch definefont pop
/Courier-BoldOblique findfont
dup length dict begin
  {1 index /FID ne {def} {pop pop} ifelse} forall
  /Encoding WinAnsiEncoding def
  currentdict
end
/Courier-BoldOblique exch definefont pop
/Courier-Bold findfont
dup length dict begin
  {1 index /FID ne {def} {pop pop} ifelse} forall
  /Encoding WinAnsiEncoding def
  currentdict
end
/Courier-Bold exch definefont pop
/Helvetica findfont
dup length dict begin
  {1 index /FID ne {def} {pop pop} ifelse} forall
  /Encoding WinAnsiEncoding def
  currentdict
end
/Helvetica exch definefont pop
/Helvetica-Oblique findfont
dup length dict begin
  {1 index /FID ne {def} {pop pop} ifelse} forall
  /Encoding WinAnsiEncoding def
  currentdict
end
/Helvetica-Oblique exch definefont pop
/Helvetica-Bold findfont
dup length dict begin
  {1 index /FID ne {def} {pop pop} ifelse} forall
  /Encoding WinAnsiEncoding def
  currentdict
end
/Helvetica-Bold exch definefont pop
/Helvetica-BoldOblique findfont
dup length dict begin
  {1 index /FID ne {def} {pop pop} ifelse} forall
  /Encoding WinAnsiEncoding def
  currentdict
end
/Helvetica-BoldOblique exch definefont pop
/Times-Roman findfont
dup length dict begin
  {1 index /FID ne {def} {pop pop} ifelse} forall
  /Encoding WinAnsiEncoding def
  currentdict
end
/Times-Roman exch definefont pop
/Times-Italic findfont
dup length dict begin
  {1 index /FID ne {def} {pop pop} ifelse} forall
  /Encoding WinAnsiEncoding def
  currentdict
end
/Times-Italic exch definefont pop
/Times-Bold findfont
dup length dict begin
  {1 index /FID ne {def} {pop pop} ifelse} forall
  /Encoding WinAnsiEncoding def
  currentdict
end
/Times-Bold exch definefont pop
/Times-BoldItalic findfont
dup length dict begin
  {1 index /FID ne {def} {pop pop} ifelse} forall
  /Encoding WinAnsiEncoding def
  currentdict
end
/Times-BoldItalic exch definefont pop
/Courier findfont
dup length dict begin
  {1 index /FID ne {def} {pop pop} ifelse} forall
  /Encoding WinAnsiEncoding def
  currentdict
end
/Courier exch definefont pop
%FOPEndFontReencode
%%EndProlog
%%Page: 1 1
%%PageBoundingBox: 0 0 565 393
%%BeginPageSetup
[1 0 0 -1 0 393] CT
%%EndPageSetup
GS
[0.5 0 0 0.5 0 0] CT
1 GC
N
0 0 1130 786 re
f
GR
GS
[0.5 0 0 0.5 0 0] CT
1 GC
N
0 0 1130 786 re
f
GR
GS
[0.5 0 0 0.5 0 0] CT
1 GC
N
147 700 M
1023 700 L
1023 59 L
147 59 L
cp
f
GR
GS
[0.5 0 0 0.5 0 0] CT
0.851 GC
1 LJ
N
147 700 M
147 59 L
S
GR
GS
[0.5 0 0 0.5 0 0] CT
0.851 GC
1 LJ
N
234.6 700 M
234.6 59 L
S
GR
GS
[0.5 0 0 0.5 0 0] CT
0.851 GC
1 LJ
N
322.2 700 M
322.2 59 L
S
GR
GS
[0.5 0 0 0.5 0 0] CT
0.851 GC
1 LJ
N
409.8 700 M
409.8 59 L
S
GR
GS
[0.5 0 0 0.5 0 0] CT
0.851 GC
1 LJ
N
497.4 700 M
497.4 59 L
S
GR
GS
[0.5 0 0 0.5 0 0] CT
0.851 GC
1 LJ
N
585 700 M
585 59 L
S
GR
GS
[0.5 0 0 0.5 0 0] CT
0.851 GC
1 LJ
N
672.6 700 M
672.6 59 L
S
GR
GS
[0.5 0 0 0.5 0 0] CT
0.851 GC
1 LJ
N
760.2 700 M
760.2 59 L
S
GR
GS
[0.5 0 0 0.5 0 0] CT
0.851 GC
1 LJ
N
847.8 700 M
847.8 59 L
S
GR
GS
[0.5 0 0 0.5 0 0] CT
0.851 GC
1 LJ
N
935.4 700 M
935.4 59 L
S
GR
GS
[0.5 0 0 0.5 0 0] CT
0.851 GC
1 LJ
N
1023 700 M
1023 59 L
S
GR
GS
[0.5 0 0 0.5 0 0] CT
0.851 GC
1 LJ
N
1023 627.87 M
147 627.87 L
S
GR
GS
[0.5 0 0 0.5 0 0] CT
0.851 GC
1 LJ
N
1023 555.683 M
147 555.683 L
S
GR
GS
[0.5 0 0 0.5 0 0] CT
0.851 GC
1 LJ
N
1023 483.496 M
147 483.496 L
S
GR
GS
[0.5 0 0 0.5 0 0] CT
0.851 GC
1 LJ
N
1023 411.309 M
147 411.309 L
S
GR
GS
[0.5 0 0 0.5 0 0] CT
0.851 GC
1 LJ
N
1023 339.122 M
147 339.122 L
S
GR
GS
[0.5 0 0 0.5 0 0] CT
0.851 GC
1 LJ
N
1023 266.934 M
147 266.934 L
S
GR
GS
[0.5 0 0 0.5 0 0] CT
0.851 GC
1 LJ
N
1023 194.747 M
147 194.747 L
S
GR
GS
[0.5 0 0 0.5 0 0] CT
0.851 GC
1 LJ
N
1023 122.56 M
147 122.56 L
S
GR
GS
[0.5 0 0 0.5 0 0] CT
2 setlinecap
1 LJ
N
147 700 M
1023 700 L
S
GR
GS
[0.5 0 0 0.5 0 0] CT
2 setlinecap
1 LJ
N
147 59 M
1023 59 L
S
GR
GS
[0.5 0 0 0.5 0 0] CT
2 setlinecap
1 LJ
N
147 700 M
147 691.24 L
S
GR
GS
[0.5 0 0 0.5 0 0] CT
2 setlinecap
1 LJ
N
234.6 700 M
234.6 691.24 L
S
GR
GS
[0.5 0 0 0.5 0 0] CT
2 setlinecap
1 LJ
N
322.2 700 M
322.2 691.24 L
S
GR
GS
[0.5 0 0 0.5 0 0] CT
2 setlinecap
1 LJ
N
409.8 700 M
409.8 691.24 L
S
GR
GS
[0.5 0 0 0.5 0 0] CT
2 setlinecap
1 LJ
N
497.4 700 M
497.4 691.24 L
S
GR
GS
[0.5 0 0 0.5 0 0] CT
2 setlinecap
1 LJ
N
585 700 M
585 691.24 L
S
GR
GS
[0.5 0 0 0.5 0 0] CT
2 setlinecap
1 LJ
N
672.6 700 M
672.6 691.24 L
S
GR
GS
[0.5 0 0 0.5 0 0] CT
2 setlinecap
1 LJ
N
760.2 700 M
760.2 691.24 L
S
GR
GS
[0.5 0 0 0.5 0 0] CT
2 setlinecap
1 LJ
N
847.8 700 M
847.8 691.24 L
S
GR
GS
[0.5 0 0 0.5 0 0] CT
2 setlinecap
1 LJ
N
935.4 700 M
935.4 691.24 L
S
GR
GS
[0.5 0 0 0.5 0 0] CT
2 setlinecap
1 LJ
N
1023 700 M
1023 691.24 L
S
GR
GS
[0.5 0 0 0.5 0 0] CT
2 setlinecap
1 LJ
N
147 59 M
147 67.76 L
S
GR
GS
[0.5 0 0 0.5 0 0] CT
2 setlinecap
1 LJ
N
234.6 59 M
234.6 67.76 L
S
GR
GS
[0.5 0 0 0.5 0 0] CT
2 setlinecap
1 LJ
N
322.2 59 M
322.2 67.76 L
S
GR
GS
[0.5 0 0 0.5 0 0] CT
2 setlinecap
1 LJ
N
409.8 59 M
409.8 67.76 L
S
GR
GS
[0.5 0 0 0.5 0 0] CT
2 setlinecap
1 LJ
N
497.4 59 M
497.4 67.76 L
S
GR
GS
[0.5 0 0 0.5 0 0] CT
2 setlinecap
1 LJ
N
585 59 M
585 67.76 L
S
GR
GS
[0.5 0 0 0.5 0 0] CT
2 setlinecap
1 LJ
N
672.6 59 M
672.6 67.76 L
S
GR
GS
[0.5 0 0 0.5 0 0] CT
2 setlinecap
1 LJ
N
760.2 59 M
760.2 67.76 L
S
GR
GS
[0.5 0 0 0.5 0 0] CT
2 setlinecap
1 LJ
N
847.8 59 M
847.8 67.76 L
S
GR
GS
[0.5 0 0 0.5 0 0] CT
2 setlinecap
1 LJ
N
935.4 59 M
935.4 67.76 L
S
GR
GS
[0.5 0 0 0.5 0 0] CT
2 setlinecap
1 LJ
N
1023 59 M
1023 67.76 L
S
GR
GS
[0.5 0 0 0.5 73.5 354] CT
/Helvetica 20 F
GS
[1 0 0 1 0 0] CT
-6.5 19 moveto 
1 -1 scale
(0) t 
GR
GR
GS
[0.5 0 0 0.5 117.3 354] CT
/Helvetica 20 F
GS
[1 0 0 1 0 0] CT
-19.5 19 moveto 
1 -1 scale
(100) t 
GR
GR
GS
[0.5 0 0 0.5 161.10001 354] CT
/Helvetica 20 F
GS
[1 0 0 1 0 0] CT
-19.5 19 moveto 
1 -1 scale
(200) t 
GR
GR
GS
[0.5 0 0 0.5 204.89999 354] CT
/Helvetica 20 F
GS
[1 0 0 1 0 0] CT
-19.5 19 moveto 
1 -1 scale
(300) t 
GR
GR
GS
[0.5 0 0 0.5 248.7 354] CT
/Helvetica 20 F
GS
[1 0 0 1 0 0] CT
-19.5 19 moveto 
1 -1 scale
(400) t 
GR
GR
GS
[0.5 0 0 0.5 292.5 354] CT
/Helvetica 20 F
GS
[1 0 0 1 0 0] CT
-19.5 19 moveto 
1 -1 scale
(500) t 
GR
GR
GS
[0.5 0 0 0.5 336.29999 354] CT
/Helvetica 20 F
GS
[1 0 0 1 0 0] CT
-19.5 19 moveto 
1 -1 scale
(600) t 
GR
GR
GS
[0.5 0 0 0.5 380.10001 354] CT
/Helvetica 20 F
GS
[1 0 0 1 0 0] CT
-19.5 19 moveto 
1 -1 scale
(700) t 
GR
GR
GS
[0.5 0 0 0.5 423.89999 354] CT
/Helvetica 20 F
GS
[1 0 0 1 0 0] CT
-19.5 19 moveto 
1 -1 scale
(800) t 
GR
GR
GS
[0.5 0 0 0.5 467.70001 354] CT
/Helvetica 20 F
GS
[1 0 0 1 0 0] CT
-19.5 19 moveto 
1 -1 scale
(900) t 
GR
GR
GS
[0.5 0 0 0.5 511.5 354] CT
/Helvetica 20 F
GS
[1 0 0 1 0 0] CT
-25.5 19 moveto 
1 -1 scale
(1000) t 
GR
GR
GS
[0.5 0 0 0.5 292.50021 367] CT
/Helvetica 22 F
GS
[1 0 0 1 0 0] CT
-123.5 21 moveto 
1 -1 scale
(Number of systems [-]) t 
GR
GR
GS
[0.5 0 0 0.5 0 0] CT
2 setlinecap
1 LJ
N
147 700 M
147 59 L
S
GR
GS
[0.5 0 0 0.5 0 0] CT
2 setlinecap
1 LJ
N
1023 700 M
1023 59 L
S
GR
GS
[0.5 0 0 0.5 0 0] CT
2 setlinecap
1 LJ
N
147 627.87 M
155.76 627.87 L
S
GR
GS
[0.5 0 0 0.5 0 0] CT
2 setlinecap
1 LJ
N
147 555.683 M
155.76 555.683 L
S
GR
GS
[0.5 0 0 0.5 0 0] CT
2 setlinecap
1 LJ
N
147 483.496 M
155.76 483.496 L
S
GR
GS
[0.5 0 0 0.5 0 0] CT
2 setlinecap
1 LJ
N
147 411.309 M
155.76 411.309 L
S
GR
GS
[0.5 0 0 0.5 0 0] CT
2 setlinecap
1 LJ
N
147 339.122 M
155.76 339.122 L
S
GR
GS
[0.5 0 0 0.5 0 0] CT
2 setlinecap
1 LJ
N
147 266.934 M
155.76 266.934 L
S
GR
GS
[0.5 0 0 0.5 0 0] CT
2 setlinecap
1 LJ
N
147 194.747 M
155.76 194.747 L
S
GR
GS
[0.5 0 0 0.5 0 0] CT
2 setlinecap
1 LJ
N
147 122.56 M
155.76 122.56 L
S
GR
GS
[0.5 0 0 0.5 0 0] CT
2 setlinecap
1 LJ
N
1023 627.87 M
1014.24 627.87 L
S
GR
GS
[0.5 0 0 0.5 0 0] CT
2 setlinecap
1 LJ
N
1023 555.683 M
1014.24 555.683 L
S
GR
GS
[0.5 0 0 0.5 0 0] CT
2 setlinecap
1 LJ
N
1023 483.496 M
1014.24 483.496 L
S
GR
GS
[0.5 0 0 0.5 0 0] CT
2 setlinecap
1 LJ
N
1023 411.309 M
1014.24 411.309 L
S
GR
GS
[0.5 0 0 0.5 0 0] CT
2 setlinecap
1 LJ
N
1023 339.122 M
1014.24 339.122 L
S
GR
GS
[0.5 0 0 0.5 0 0] CT
2 setlinecap
1 LJ
N
1023 266.934 M
1014.24 266.934 L
S
GR
GS
[0.5 0 0 0.5 0 0] CT
2 setlinecap
1 LJ
N
1023 194.747 M
1014.24 194.747 L
S
GR
GS
[0.5 0 0 0.5 0 0] CT
2 setlinecap
1 LJ
N
1023 122.56 M
1014.24 122.56 L
S
GR
GS
[0.5 0 0 0.5 69.5 313.93515] CT
/Helvetica 20 F
GS
[1 0 0 1 0 0] CT
-58 7 moveto 
1 -1 scale
(0.005) t 
GR
GR
GS
[0.5 0 0 0.5 69.5 277.84155] CT
/Helvetica 20 F
GS
[1 0 0 1 0 0] CT
-45 7 moveto 
1 -1 scale
(0.01) t 
GR
GR
GS
[0.5 0 0 0.5 69.5 241.74797] CT
/Helvetica 20 F
GS
[1 0 0 1 0 0] CT
-58 7 moveto 
1 -1 scale
(0.015) t 
GR
GR
GS
[0.5 0 0 0.5 69.5 205.65439] CT
/Helvetica 20 F
GS
[1 0 0 1 0 0] CT
-45 7 moveto 
1 -1 scale
(0.02) t 
GR
GR
GS
[0.5 0 0 0.5 69.5 169.56079] CT
/Helvetica 20 F
GS
[1 0 0 1 0 0] CT
-58 7 moveto 
1 -1 scale
(0.025) t 
GR
GR
GS
[0.5 0 0 0.5 69.5 133.46721] CT
/Helvetica 20 F
GS
[1 0 0 1 0 0] CT
-45 7 moveto 
1 -1 scale
(0.03) t 
GR
GR
GS
[0.5 0 0 0.5 69.5 97.37363] CT
/Helvetica 20 F
GS
[1 0 0 1 0 0] CT
-58 7 moveto 
1 -1 scale
(0.035) t 
GR
GR
GS
[0.5 0 0 0.5 69.5 61.28005] CT
/Helvetica 20 F
GS
[1 0 0 1 0 0] CT
-45 7 moveto 
1 -1 scale
(0.04) t 
GR
GR
GS
[0 -0.5 0.5 0 37.5 189.74983] CT
/Helvetica 22 F
GS
[1 0 0 1 0 0] CT
-45.5 -6 moveto 
1 -1 scale
(Time [s]) t 
GR
GR
GS
[0.5 0 0 0.5 292.50027 28.12499] CT
/Helvetica-Bold 22 F
GS
[1 0 0 1 0 0] CT
-215 -6 moveto 
1 -1 scale
(Reliability models time complexity) t 
GR
GR
GS
[0.5 0 0 0.5 0 0] CT
1 LJ
N
155.76 699.47 M
164.52 698.963 L
173.28 698.446 L
182.04 697.938 L
190.8 697.404 L
199.56 696.894 L
208.32 696.367 L
217.08 695.868 L
225.84 695.323 L
234.6 694.843 L
243.36 694.316 L
252.12 693.795 L
260.88 693.281 L
269.64 692.74 L
278.4 692.248 L
287.16 691.724 L
295.92 691.217 L
304.68 690.73 L
313.44 690.207 L
322.2 689.7 L
330.96 689.179 L
339.72 688.67 L
348.48 688.148 L
357.24 687.646 L
366 687.117 L
374.76 686.593 L
383.52 686.067 L
392.28 685.561 L
401.04 685.083 L
409.8 684.57 L
418.56 684.083 L
427.32 683.531 L
436.08 683.05 L
444.84 682.541 L
453.6 681.987 L
462.36 681.437 L
471.12 680.902 L
479.88 680.399 L
488.64 679.883 L
497.4 679.386 L
506.16 678.87 L
514.92 678.363 L
523.68 677.853 L
532.44 677.351 L
541.2 676.811 L
549.96 676.313 L
558.72 675.795 L
567.48 675.29 L
576.24 674.725 L
585 674.239 L
593.76 673.702 L
602.52 673.232 L
611.28 672.685 L
620.04 672.171 L
628.8 671.673 L
637.56 671.099 L
646.32 670.573 L
655.08 670.06 L
663.84 669.507 L
672.6 669.076 L
681.36 668.565 L
690.12 668.018 L
698.88 667.526 L
707.64 667.034 L
716.4 666.536 L
725.16 666.006 L
733.92 665.473 L
742.68 664.958 L
751.44 664.428 L
760.2 663.916 L
768.96 663.442 L
777.72 662.976 L
786.48 662.419 L
795.24 661.911 L
804 661.35 L
812.76 660.872 L
821.52 660.342 L
830.28 659.873 L
839.04 659.365 L
847.8 658.844 L
856.56 658.359 L
865.32 657.822 L
874.08 657.239 L
882.84 656.727 L
891.6 656.22 L
900.36 655.725 L
909.12 655.202 L
917.88 654.727 L
926.64 654.23 L
935.4 653.688 L
944.16 653.168 L
952.92 652.64 L
961.68 652.079 L
970.44 651.661 L
979.2 651.196 L
987.96 650.533 L
996.72 649.999 L
1005.48 649.474 L
1014.24 649.017 L
1023 648.449 L
S
GR
GS
[0.5 0 0 0.5 77.88 349.73505] CT
10.0 ML
N
-4.243 -4.243 M
4.243 4.243 L
-4.243 4.243 M
4.243 -4.243 L
S
GR
GS
[0.5 0 0 0.5 82.26 349.48148] CT
10.0 ML
N
-4.243 -4.243 M
4.243 4.243 L
-4.243 4.243 M
4.243 -4.243 L
S
GR
GS
[0.5 0 0 0.5 86.64 349.22296] CT
10.0 ML
N
-4.243 -4.243 M
4.243 4.243 L
-4.243 4.243 M
4.243 -4.243 L
S
GR
GS
[0.5 0 0 0.5 91.02 348.96881] CT
10.0 ML
N
-4.243 -4.243 M
4.243 4.243 L
-4.243 4.243 M
4.243 -4.243 L
S
GR
GS
[0.5 0 0 0.5 95.4 348.70181] CT
10.0 ML
N
-4.243 -4.243 M
4.243 4.243 L
-4.243 4.243 M
4.243 -4.243 L
S
GR
GS
[0.5 0 0 0.5 99.78 348.44684] CT
10.0 ML
N
-4.243 -4.243 M
4.243 4.243 L
-4.243 4.243 M
4.243 -4.243 L
S
GR
GS
[0.5 0 0 0.5 104.16 348.18338] CT
10.0 ML
N
-4.243 -4.243 M
4.243 4.243 L
-4.243 4.243 M
4.243 -4.243 L
S
GR
GS
[0.5 0 0 0.5 108.54 347.93396] CT
10.0 ML
N
-4.243 -4.243 M
4.243 4.243 L
-4.243 4.243 M
4.243 -4.243 L
S
GR
GS
[0.5 0 0 0.5 112.92 347.66125] CT
10.0 ML
N
-4.243 -4.243 M
4.243 4.243 L
-4.243 4.243 M
4.243 -4.243 L
S
GR
GS
[0.5 0 0 0.5 117.3 347.42136] CT
10.0 ML
N
-4.243 -4.243 M
4.243 4.243 L
-4.243 4.243 M
4.243 -4.243 L
S
GR
GS
[0.5 0 0 0.5 121.68 347.15781] CT
10.0 ML
N
-4.243 -4.243 M
4.243 4.243 L
-4.243 4.243 M
4.243 -4.243 L
S
GR
GS
[0.5 0 0 0.5 126.06 346.89771] CT
10.0 ML
N
-4.243 -4.243 M
4.243 4.243 L
-4.243 4.243 M
4.243 -4.243 L
S
GR
GS
[0.5 0 0 0.5 130.44 346.64075] CT
10.0 ML
N
-4.243 -4.243 M
4.243 4.243 L
-4.243 4.243 M
4.243 -4.243 L
S
GR
GS
[0.5 0 0 0.5 134.82001 346.36978] CT
10.0 ML
N
-4.243 -4.243 M
4.243 4.243 L
-4.243 4.243 M
4.243 -4.243 L
S
GR
GS
[0.5 0 0 0.5 139.2 346.12387] CT
10.0 ML
N
-4.243 -4.243 M
4.243 4.243 L
-4.243 4.243 M
4.243 -4.243 L
S
GR
GS
[0.5 0 0 0.5 143.58 345.86191] CT
10.0 ML
N
-4.243 -4.243 M
4.243 4.243 L
-4.243 4.243 M
4.243 -4.243 L
S
GR
GS
[0.5 0 0 0.5 147.96001 345.60843] CT
10.0 ML
N
-4.243 -4.243 M
4.243 4.243 L
-4.243 4.243 M
4.243 -4.243 L
S
GR
GS
[0.5 0 0 0.5 152.34 345.3649] CT
10.0 ML
N
-4.243 -4.243 M
4.243 4.243 L
-4.243 4.243 M
4.243 -4.243 L
S
GR
GS
[0.5 0 0 0.5 156.72 345.10327] CT
10.0 ML
N
-4.243 -4.243 M
4.243 4.243 L
-4.243 4.243 M
4.243 -4.243 L
S
GR
GS
[0.5 0 0 0.5 161.10001 344.84995] CT
10.0 ML
N
-4.243 -4.243 M
4.243 4.243 L
-4.243 4.243 M
4.243 -4.243 L
S
GR
GS
[0.5 0 0 0.5 165.48 344.58951] CT
10.0 ML
N
-4.243 -4.243 M
4.243 4.243 L
-4.243 4.243 M
4.243 -4.243 L
S
GR
GS
[0.5 0 0 0.5 169.86 344.33505] CT
10.0 ML
N
-4.243 -4.243 M
4.243 4.243 L
-4.243 4.243 M
4.243 -4.243 L
S
GR
GS
[0.5 0 0 0.5 174.24001 344.07407] CT
10.0 ML
N
-4.243 -4.243 M
4.243 4.243 L
-4.243 4.243 M
4.243 -4.243 L
S
GR
GS
[0.5 0 0 0.5 178.62 343.82324] CT
10.0 ML
N
-4.243 -4.243 M
4.243 4.243 L
-4.243 4.243 M
4.243 -4.243 L
S
GR
GS
[0.5 0 0 0.5 183 343.5585] CT
10.0 ML
N
-4.243 -4.243 M
4.243 4.243 L
-4.243 4.243 M
4.243 -4.243 L
S
GR
GS
[0.5 0 0 0.5 187.38 343.29642] CT
10.0 ML
N
-4.243 -4.243 M
4.243 4.243 L
-4.243 4.243 M
4.243 -4.243 L
S
GR
GS
[0.5 0 0 0.5 191.75999 343.03363] CT
10.0 ML
N
-4.243 -4.243 M
4.243 4.243 L
-4.243 4.243 M
4.243 -4.243 L
S
GR
GS
[0.5 0 0 0.5 196.14 342.78052] CT
10.0 ML
N
-4.243 -4.243 M
4.243 4.243 L
-4.243 4.243 M
4.243 -4.243 L
S
GR
GS
[0.5 0 0 0.5 200.52 342.54132] CT
10.0 ML
N
-4.243 -4.243 M
4.243 4.243 L
-4.243 4.243 M
4.243 -4.243 L
S
GR
GS
[0.5 0 0 0.5 204.89999 342.28503] CT
10.0 ML
N
-4.243 -4.243 M
4.243 4.243 L
-4.243 4.243 M
4.243 -4.243 L
S
GR
GS
[0.5 0 0 0.5 209.28 342.04166] CT
10.0 ML
N
-4.243 -4.243 M
4.243 4.243 L
-4.243 4.243 M
4.243 -4.243 L
S
GR
GS
[0.5 0 0 0.5 213.66 341.76526] CT
10.0 ML
N
-4.243 -4.243 M
4.243 4.243 L
-4.243 4.243 M
4.243 -4.243 L
S
GR
GS
[0.5 0 0 0.5 218.03999 341.5249] CT
10.0 ML
N
-4.243 -4.243 M
4.243 4.243 L
-4.243 4.243 M
4.243 -4.243 L
S
GR
GS
[0.5 0 0 0.5 222.42 341.27069] CT
10.0 ML
N
-4.243 -4.243 M
4.243 4.243 L
-4.243 4.243 M
4.243 -4.243 L
S
GR
GS
[0.5 0 0 0.5 226.8 340.99332] CT
10.0 ML
N
-4.243 -4.243 M
4.243 4.243 L
-4.243 4.243 M
4.243 -4.243 L
S
GR
GS
[0.5 0 0 0.5 231.17999 340.71826] CT
10.0 ML
N
-4.243 -4.243 M
4.243 4.243 L
-4.243 4.243 M
4.243 -4.243 L
S
GR
GS
[0.5 0 0 0.5 235.56 340.45117] CT
10.0 ML
N
-4.243 -4.243 M
4.243 4.243 L
-4.243 4.243 M
4.243 -4.243 L
S
GR
GS
[0.5 0 0 0.5 239.94 340.19928] CT
10.0 ML
N
-4.243 -4.243 M
4.243 4.243 L
-4.243 4.243 M
4.243 -4.243 L
S
GR
GS
[0.5 0 0 0.5 244.32001 339.94168] CT
10.0 ML
N
-4.243 -4.243 M
4.243 4.243 L
-4.243 4.243 M
4.243 -4.243 L
S
GR
GS
[0.5 0 0 0.5 248.7 339.69324] CT
10.0 ML
N
-4.243 -4.243 M
4.243 4.243 L
-4.243 4.243 M
4.243 -4.243 L
S
GR
GS
[0.5 0 0 0.5 253.08 339.43497] CT
10.0 ML
N
-4.243 -4.243 M
4.243 4.243 L
-4.243 4.243 M
4.243 -4.243 L
S
GR
GS
[0.5 0 0 0.5 257.45999 339.18152] CT
10.0 ML
N
-4.243 -4.243 M
4.243 4.243 L
-4.243 4.243 M
4.243 -4.243 L
S
GR
GS
[0.5 0 0 0.5 261.84 338.92639] CT
10.0 ML
N
-4.243 -4.243 M
4.243 4.243 L
-4.243 4.243 M
4.243 -4.243 L
S
GR
GS
[0.5 0 0 0.5 266.22 338.67548] CT
10.0 ML
N
-4.243 -4.243 M
4.243 4.243 L
-4.243 4.243 M
4.243 -4.243 L
S
GR
GS
[0.5 0 0 0.5 270.60001 338.40546] CT
10.0 ML
N
-4.243 -4.243 M
4.243 4.243 L
-4.243 4.243 M
4.243 -4.243 L
S
GR
GS
[0.5 0 0 0.5 274.98001 338.15656] CT
10.0 ML
N
-4.243 -4.243 M
4.243 4.243 L
-4.243 4.243 M
4.243 -4.243 L
S
GR
GS
[0.5 0 0 0.5 279.35999 337.89728] CT
10.0 ML
N
-4.243 -4.243 M
4.243 4.243 L
-4.243 4.243 M
4.243 -4.243 L
S
GR
GS
[0.5 0 0 0.5 283.73999 337.6452] CT
10.0 ML
N
-4.243 -4.243 M
4.243 4.243 L
-4.243 4.243 M
4.243 -4.243 L
S
GR
GS
[0.5 0 0 0.5 288.12 337.36264] CT
10.0 ML
N
-4.243 -4.243 M
4.243 4.243 L
-4.243 4.243 M
4.243 -4.243 L
S
GR
GS
[0.5 0 0 0.5 292.5 337.11951] CT
10.0 ML
N
-4.243 -4.243 M
4.243 4.243 L
-4.243 4.243 M
4.243 -4.243 L
S
GR
GS
[0.5 0 0 0.5 296.88 336.85107] CT
10.0 ML
N
-4.243 -4.243 M
4.243 4.243 L
-4.243 4.243 M
4.243 -4.243 L
S
GR
GS
[0.5 0 0 0.5 301.26001 336.61578] CT
10.0 ML
N
-4.243 -4.243 M
4.243 4.243 L
-4.243 4.243 M
4.243 -4.243 L
S
GR
GS
[0.5 0 0 0.5 305.64001 336.34232] CT
10.0 ML
N
-4.243 -4.243 M
4.243 4.243 L
-4.243 4.243 M
4.243 -4.243 L
S
GR
GS
[0.5 0 0 0.5 310.01999 336.08557] CT
10.0 ML
N
-4.243 -4.243 M
4.243 4.243 L
-4.243 4.243 M
4.243 -4.243 L
S
GR
GS
[0.5 0 0 0.5 314.39999 335.8363] CT
10.0 ML
N
-4.243 -4.243 M
4.243 4.243 L
-4.243 4.243 M
4.243 -4.243 L
S
GR
GS
[0.5 0 0 0.5 318.78 335.54956] CT
10.0 ML
N
-4.243 -4.243 M
4.243 4.243 L
-4.243 4.243 M
4.243 -4.243 L
S
GR
GS
[0.5 0 0 0.5 323.16 335.28625] CT
10.0 ML
N
-4.243 -4.243 M
4.243 4.243 L
-4.243 4.243 M
4.243 -4.243 L
S
GR
GS
[0.5 0 0 0.5 327.54001 335.02994] CT
10.0 ML
N
-4.243 -4.243 M
4.243 4.243 L
-4.243 4.243 M
4.243 -4.243 L
S
GR
GS
[0.5 0 0 0.5 331.92001 334.75354] CT
10.0 ML
N
-4.243 -4.243 M
4.243 4.243 L
-4.243 4.243 M
4.243 -4.243 L
S
GR
GS
[0.5 0 0 0.5 336.29999 334.53818] CT
10.0 ML
N
-4.243 -4.243 M
4.243 4.243 L
-4.243 4.243 M
4.243 -4.243 L
S
GR
GS
[0.5 0 0 0.5 340.67999 334.2825] CT
10.0 ML
N
-4.243 -4.243 M
4.243 4.243 L
-4.243 4.243 M
4.243 -4.243 L
S
GR
GS
[0.5 0 0 0.5 345.06 334.00919] CT
10.0 ML
N
-4.243 -4.243 M
4.243 4.243 L
-4.243 4.243 M
4.243 -4.243 L
S
GR
GS
[0.5 0 0 0.5 349.44 333.76303] CT
10.0 ML
N
-4.243 -4.243 M
4.243 4.243 L
-4.243 4.243 M
4.243 -4.243 L
S
GR
GS
[0.5 0 0 0.5 353.82001 333.51694] CT
10.0 ML
N
-4.243 -4.243 M
4.243 4.243 L
-4.243 4.243 M
4.243 -4.243 L
S
GR
GS
[0.5 0 0 0.5 358.20001 333.26797] CT
10.0 ML
N
-4.243 -4.243 M
4.243 4.243 L
-4.243 4.243 M
4.243 -4.243 L
S
GR
GS
[0.5 0 0 0.5 362.57999 333.0032] CT
10.0 ML
N
-4.243 -4.243 M
4.243 4.243 L
-4.243 4.243 M
4.243 -4.243 L
S
GR
GS
[0.5 0 0 0.5 366.95999 332.73645] CT
10.0 ML
N
-4.243 -4.243 M
4.243 4.243 L
-4.243 4.243 M
4.243 -4.243 L
S
GR
GS
[0.5 0 0 0.5 371.34 332.479] CT
10.0 ML
N
-4.243 -4.243 M
4.243 4.243 L
-4.243 4.243 M
4.243 -4.243 L
S
GR
GS
[0.5 0 0 0.5 375.72 332.21399] CT
10.0 ML
N
-4.243 -4.243 M
4.243 4.243 L
-4.243 4.243 M
4.243 -4.243 L
S
GR
GS
[0.5 0 0 0.5 380.10001 331.95816] CT
10.0 ML
N
-4.243 -4.243 M
4.243 4.243 L
-4.243 4.243 M
4.243 -4.243 L
S
GR
GS
[0.5 0 0 0.5 384.48001 331.72104] CT
10.0 ML
N
-4.243 -4.243 M
4.243 4.243 L
-4.243 4.243 M
4.243 -4.243 L
S
GR
GS
[0.5 0 0 0.5 388.85999 331.48816] CT
10.0 ML
N
-4.243 -4.243 M
4.243 4.243 L
-4.243 4.243 M
4.243 -4.243 L
S
GR
GS
[0.5 0 0 0.5 393.23999 331.20972] CT
10.0 ML
N
-4.243 -4.243 M
4.243 4.243 L
-4.243 4.243 M
4.243 -4.243 L
S
GR
GS
[0.5 0 0 0.5 397.62 330.95575] CT
10.0 ML
N
-4.243 -4.243 M
4.243 4.243 L
-4.243 4.243 M
4.243 -4.243 L
S
GR
GS
[0.5 0 0 0.5 402 330.67484] CT
10.0 ML
N
-4.243 -4.243 M
4.243 4.243 L
-4.243 4.243 M
4.243 -4.243 L
S
GR
GS
[0.5 0 0 0.5 406.38 330.43579] CT
10.0 ML
N
-4.243 -4.243 M
4.243 4.243 L
-4.243 4.243 M
4.243 -4.243 L
S
GR
GS
[0.5 0 0 0.5 410.76001 330.17102] CT
10.0 ML
N
-4.243 -4.243 M
4.243 4.243 L
-4.243 4.243 M
4.243 -4.243 L
S
GR
GS
[0.5 0 0 0.5 415.14001 329.93655] CT
10.0 ML
N
-4.243 -4.243 M
4.243 4.243 L
-4.243 4.243 M
4.243 -4.243 L
S
GR
GS
[0.5 0 0 0.5 419.51999 329.68274] CT
10.0 ML
N
-4.243 -4.243 M
4.243 4.243 L
-4.243 4.243 M
4.243 -4.243 L
S
GR
GS
[0.5 0 0 0.5 423.89999 329.42194] CT
10.0 ML
N
-4.243 -4.243 M
4.243 4.243 L
-4.243 4.243 M
4.243 -4.243 L
S
GR
GS
[0.5 0 0 0.5 428.28 329.17975] CT
10.0 ML
N
-4.243 -4.243 M
4.243 4.243 L
-4.243 4.243 M
4.243 -4.243 L
S
GR
GS
[0.5 0 0 0.5 432.66 328.91122] CT
10.0 ML
N
-4.243 -4.243 M
4.243 4.243 L
-4.243 4.243 M
4.243 -4.243 L
S
GR
GS
[0.5 0 0 0.5 437.04001 328.61972] CT
10.0 ML
N
-4.243 -4.243 M
4.243 4.243 L
-4.243 4.243 M
4.243 -4.243 L
S
GR
GS
[0.5 0 0 0.5 441.42001 328.36353] CT
10.0 ML
N
-4.243 -4.243 M
4.243 4.243 L
-4.243 4.243 M
4.243 -4.243 L
S
GR
GS
[0.5 0 0 0.5 445.79999 328.11011] CT
10.0 ML
N
-4.243 -4.243 M
4.243 4.243 L
-4.243 4.243 M
4.243 -4.243 L
S
GR
GS
[0.5 0 0 0.5 450.17999 327.86237] CT
10.0 ML
N
-4.243 -4.243 M
4.243 4.243 L
-4.243 4.243 M
4.243 -4.243 L
S
GR
GS
[0.5 0 0 0.5 454.56 327.60117] CT
10.0 ML
N
-4.243 -4.243 M
4.243 4.243 L
-4.243 4.243 M
4.243 -4.243 L
S
GR
GS
[0.5 0 0 0.5 458.94 327.36349] CT
10.0 ML
N
-4.243 -4.243 M
4.243 4.243 L
-4.243 4.243 M
4.243 -4.243 L
S
GR
GS
[0.5 0 0 0.5 463.32001 327.11502] CT
10.0 ML
N
-4.243 -4.243 M
4.243 4.243 L
-4.243 4.243 M
4.243 -4.243 L
S
GR
GS
[0.5 0 0 0.5 467.70001 326.84406] CT
10.0 ML
N
-4.243 -4.243 M
4.243 4.243 L
-4.243 4.243 M
4.243 -4.243 L
S
GR
GS
[0.5 0 0 0.5 472.07999 326.58405] CT
10.0 ML
N
-4.243 -4.243 M
4.243 4.243 L
-4.243 4.243 M
4.243 -4.243 L
S
GR
GS
[0.5 0 0 0.5 476.45999 326.32022] CT
10.0 ML
N
-4.243 -4.243 M
4.243 4.243 L
-4.243 4.243 M
4.243 -4.243 L
S
GR
GS
[0.5 0 0 0.5 480.84 326.03973] CT
10.0 ML
N
-4.243 -4.243 M
4.243 4.243 L
-4.243 4.243 M
4.243 -4.243 L
S
GR
GS
[0.5 0 0 0.5 485.22 325.83026] CT
10.0 ML
N
-4.243 -4.243 M
4.243 4.243 L
-4.243 4.243 M
4.243 -4.243 L
S
GR
GS
[0.5 0 0 0.5 489.60001 325.59784] CT
10.0 ML
N
-4.243 -4.243 M
4.243 4.243 L
-4.243 4.243 M
4.243 -4.243 L
S
GR
GS
[0.5 0 0 0.5 493.98001 325.26648] CT
10.0 ML
N
-4.243 -4.243 M
4.243 4.243 L
-4.243 4.243 M
4.243 -4.243 L
S
GR
GS
[0.5 0 0 0.5 498.35999 324.99945] CT
10.0 ML
N
-4.243 -4.243 M
4.243 4.243 L
-4.243 4.243 M
4.243 -4.243 L
S
GR
GS
[0.5 0 0 0.5 502.73999 324.73682] CT
10.0 ML
N
-4.243 -4.243 M
4.243 4.243 L
-4.243 4.243 M
4.243 -4.243 L
S
GR
GS
[0.5 0 0 0.5 507.12 324.50861] CT
10.0 ML
N
-4.243 -4.243 M
4.243 4.243 L
-4.243 4.243 M
4.243 -4.243 L
S
GR
GS
[0.5 0 0 0.5 511.5 324.22473] CT
10.0 ML
N
-4.243 -4.243 M
4.243 4.243 L
-4.243 4.243 M
4.243 -4.243 L
S
GR
GS
[0.5 0 0 0.5 0 0] CT
1 LJ
N
155.76 699.965 M
164.52 699.864 L
173.28 699.723 L
182.04 699.537 L
190.8 699.336 L
199.56 699.099 L
208.32 698.827 L
217.08 698.496 L
225.84 698.165 L
234.6 697.763 L
243.36 697.307 L
252.12 696.82 L
260.88 696.273 L
269.64 695.685 L
278.4 695.008 L
287.16 694.075 L
295.92 693.647 L
304.68 692.838 L
313.44 692.005 L
322.2 691.161 L
330.96 690.238 L
339.72 689.302 L
348.48 688.275 L
357.24 686.972 L
366 686.059 L
374.76 685.4 L
383.52 683.382 L
392.28 680.239 L
401.04 677.23 L
409.8 674.004 L
418.56 669.697 L
427.32 666.457 L
436.08 662.575 L
444.84 658.938 L
453.6 652.895 L
462.36 648.813 L
471.12 644.558 L
479.88 640.713 L
488.64 635.825 L
497.4 629.711 L
506.16 626.458 L
514.92 622.46 L
523.68 615.19 L
532.44 611.095 L
541.2 603.341 L
549.96 597.361 L
558.72 588.715 L
567.48 576.459 L
576.24 569.855 L
585 570.903 L
593.76 560.953 L
602.52 552.456 L
611.28 544.277 L
620.04 536.582 L
628.8 528.319 L
637.56 518.313 L
646.32 507.273 L
655.08 497.714 L
663.84 498.006 L
672.6 491.186 L
681.36 481.722 L
690.12 474.633 L
698.88 458.891 L
707.64 444.139 L
716.4 442.817 L
725.16 437.039 L
733.92 427.124 L
742.68 415.518 L
751.44 408.531 L
760.2 399.062 L
768.96 385.019 L
777.72 382.006 L
786.48 366.121 L
795.24 359.297 L
804 349.674 L
812.76 339.119 L
821.52 331.735 L
830.28 332.296 L
839.04 320.399 L
847.8 290.611 L
856.56 289.898 L
865.32 282.638 L
874.08 279.576 L
882.84 263.012 L
891.6 248.667 L
900.36 240.036 L
909.12 228.927 L
917.88 211.437 L
926.64 200.641 L
935.4 192.02 L
944.16 186.824 L
952.92 160.48 L
961.68 154.208 L
970.44 142.374 L
979.2 136.484 L
987.96 101.89 L
996.72 100.517 L
1005.48 91.734 L
1014.24 75.495 L
1023 59 L
S
GR
GS
[0.5 0 0 0.5 77.88 349.98251] CT
N
0 -5.5 M
3.038 -5.5 5.5 -3.038 5.5 0 C
5.5 0 L
5.5 3.038 3.038 5.5 0 5.5 C
-3.038 5.5 -5.5 3.038 -5.5 0 C
-5.5 -3.038 -3.038 -5.5 0 -5.5 C
cp
0 -6.5 M
-3.59 -6.5 -6.5 -3.59 -6.5 0 C
-6.5 3.59 -3.59 6.5 0 6.5 C
3.59 6.5 6.5 3.59 6.5 0 C
6.5 0 L
6.5 -3.59 3.59 -6.5 0 -6.5 C
cp
f
GR
GS
[0.5 0 0 0.5 82.26 349.93213] CT
N
/f-1521356186{0 -5.5 M
3.038 -5.5 5.5 -3.038 5.5 0 C
5.5 0 L
5.5 3.038 3.038 5.5 0 5.5 C
-3.038 5.5 -5.5 3.038 -5.5 0 C
-5.5 -3.038 -3.038 -5.5 0 -5.5 C
cp
0 -6.5 M
-3.59 -6.5 -6.5 -3.59 -6.5 0 C
-6.5 3.59 -3.59 6.5 0 6.5 C
3.59 6.5 6.5 3.59 6.5 0 C
6.5 0 L
6.5 -3.59 3.59 -6.5 0 -6.5 C
cp}def
f-1521356186
f
GR
GS
[0.5 0 0 0.5 86.64 349.86172] CT
N
f-1521356186
f
GR
GS
[0.5 0 0 0.5 91.02 349.76852] CT
N
f-1521356186
f
GR
GS
[0.5 0 0 0.5 95.4 349.66821] CT
N
f-1521356186
f
GR
GS
[0.5 0 0 0.5 99.78 349.54962] CT
N
f-1521356186
f
GR
GS
[0.5 0 0 0.5 104.16 349.41364] CT
N
f-1521356186
f
GR
GS
[0.5 0 0 0.5 108.54 349.24823] CT
N
f-1521356186
f
GR
GS
[0.5 0 0 0.5 112.92 349.08234] CT
N
f-1521356186
f
GR
GS
[0.5 0 0 0.5 117.3 348.88138] CT
N
f-1521356186
f
GR
GS
[0.5 0 0 0.5 121.68 348.65344] CT
N
f-1521356186
f
GR
GS
[0.5 0 0 0.5 126.06 348.41] CT
N
f-1521356186
f
GR
GS
[0.5 0 0 0.5 130.44 348.13641] CT
N
f-1521356186
f
GR
GS
[0.5 0 0 0.5 134.82001 347.84247] CT
N
f-1521356186
f
GR
GS
[0.5 0 0 0.5 139.2 347.50403] CT
N
f-1521356186
f
GR
GS
[0.5 0 0 0.5 143.58 347.03766] CT
N
f-1521356186
f
GR
GS
[0.5 0 0 0.5 147.96001 346.82355] CT
N
f-1521356186
f
GR
GS
[0.5 0 0 0.5 152.34 346.41898] CT
N
f-1521356186
f
GR
GS
[0.5 0 0 0.5 156.72 346.00232] CT
N
f-1521356186
f
GR
GS
[0.5 0 0 0.5 161.10001 345.58038] CT
N
f-1521356186
f
GR
GS
[0.5 0 0 0.5 165.48 345.11902] CT
N
f-1521356186
f
GR
GS
[0.5 0 0 0.5 169.86 344.65091] CT
N
f-1521356186
f
GR
GS
[0.5 0 0 0.5 174.24001 344.13763] CT
N
f-1521356186
f
GR
GS
[0.5 0 0 0.5 178.62 343.48602] CT
N
f-1521356186
f
GR
GS
[0.5 0 0 0.5 183 343.02948] CT
N
f-1521356186
f
GR
GS
[0.5 0 0 0.5 187.38 342.6998] CT
N
f-1521356186
f
GR
GS
[0.5 0 0 0.5 191.75999 341.69101] CT
N
f-1521356186
f
GR
GS
[0.5 0 0 0.5 196.14 340.11951] CT
N
f-1521356186
f
GR
GS
[0.5 0 0 0.5 200.52 338.61499] CT
N
f-1521356186
f
GR
GS
[0.5 0 0 0.5 204.89999 337.00223] CT
N
f-1521356186
f
GR
GS
[0.5 0 0 0.5 209.28 334.84872] CT
N
f-1521356186
f
GR
GS
[0.5 0 0 0.5 213.66 333.22827] CT
N
f-1521356186
f
GR
GS
[0.5 0 0 0.5 218.03999 331.28757] CT
N
f-1521356186
f
GR
GS
[0.5 0 0 0.5 222.42 329.46915] CT
N
f-1521356186
f
GR
GS
[0.5 0 0 0.5 226.8 326.44742] CT
N
f-1521356186
f
GR
GS
[0.5 0 0 0.5 231.17999 324.40646] CT
N
f-1521356186
f
GR
GS
[0.5 0 0 0.5 235.56 322.27921] CT
N
f-1521356186
f
GR
GS
[0.5 0 0 0.5 239.94 320.35657] CT
N
f-1521356186
f
GR
GS
[0.5 0 0 0.5 244.32001 317.9126] CT
N
f-1521356186
f
GR
GS
[0.5 0 0 0.5 248.7 314.85562] CT
N
f-1521356186
f
GR
GS
[0.5 0 0 0.5 253.08 313.22894] CT
N
f-1521356186
f
GR
GS
[0.5 0 0 0.5 257.45999 311.22983] CT
N
f-1521356186
f
GR
GS
[0.5 0 0 0.5 261.84 307.59479] CT
N
f-1521356186
f
GR
GS
[0.5 0 0 0.5 266.22 305.54755] CT
N
f-1521356186
f
GR
GS
[0.5 0 0 0.5 270.60001 301.67062] CT
N
f-1521356186
f
GR
GS
[0.5 0 0 0.5 274.98001 298.6803] CT
N
f-1521356186
f
GR
GS
[0.5 0 0 0.5 279.35999 294.35745] CT
N
f-1521356186
f
GR
GS
[0.5 0 0 0.5 283.73999 288.22971] CT
N
f-1521356186
f
GR
GS
[0.5 0 0 0.5 288.12 284.92767] CT
N
f-1521356186
f
GR
GS
[0.5 0 0 0.5 292.5 285.45166] CT
N
f-1521356186
f
GR
GS
[0.5 0 0 0.5 296.88 280.47626] CT
N
f-1521356186
f
GR
GS
[0.5 0 0 0.5 301.26001 276.22824] CT
N
f-1521356186
f
GR
GS
[0.5 0 0 0.5 305.64001 272.13849] CT
N
f-1521356186
f
GR
GS
[0.5 0 0 0.5 310.01999 268.29114] CT
N
f-1521356186
f
GR
GS
[0.5 0 0 0.5 314.39999 264.1597] CT
N
f-1521356186
f
GR
GS
[0.5 0 0 0.5 318.78 259.1564] CT
N
f-1521356186
f
GR
GS
[0.5 0 0 0.5 323.16 253.63669] CT
N
f-1521356186
f
GR
GS
[0.5 0 0 0.5 327.54001 248.85704] CT
N
f-1521356186
f
GR
GS
[0.5 0 0 0.5 331.92001 249.00278] CT
N
f-1521356186
f
GR
GS
[0.5 0 0 0.5 336.29999 245.59305] CT
N
f-1521356186
f
GR
GS
[0.5 0 0 0.5 340.67999 240.86093] CT
N
f-1521356186
f
GR
GS
[0.5 0 0 0.5 345.06 237.31659] CT
N
f-1521356186
f
GR
GS
[0.5 0 0 0.5 349.44 229.44569] CT
N
f-1521356186
f
GR
GS
[0.5 0 0 0.5 353.82001 222.06931] CT
N
f-1521356186
f
GR
GS
[0.5 0 0 0.5 358.20001 221.40855] CT
N
f-1521356186
f
GR
GS
[0.5 0 0 0.5 362.57999 218.51941] CT
N
f-1521356186
f
GR
GS
[0.5 0 0 0.5 366.95999 213.56221] CT
N
f-1521356186
f
GR
GS
[0.5 0 0 0.5 371.34 207.7592] CT
N
f-1521356186
f
GR
GS
[0.5 0 0 0.5 375.72 204.26537] CT
N
f-1521356186
f
GR
GS
[0.5 0 0 0.5 380.10001 199.53122] CT
N
f-1521356186
f
GR
GS
[0.5 0 0 0.5 384.48001 192.5097] CT
N
f-1521356186
f
GR
GS
[0.5 0 0 0.5 388.85999 191.00313] CT
N
f-1521356186
f
GR
GS
[0.5 0 0 0.5 393.23999 183.06058] CT
N
f-1521356186
f
GR
GS
[0.5 0 0 0.5 397.62 179.64874] CT
N
f-1521356186
f
GR
GS
[0.5 0 0 0.5 402 174.83713] CT
N
f-1521356186
f
GR
GS
[0.5 0 0 0.5 406.38 169.55954] CT
N
f-1521356186
f
GR
GS
[0.5 0 0 0.5 410.76001 165.86771] CT
N
f-1521356186
f
GR
GS
[0.5 0 0 0.5 415.14001 166.14824] CT
N
f-1521356186
f
GR
GS
[0.5 0 0 0.5 419.51999 160.19962] CT
N
f-1521356186
f
GR
GS
[0.5 0 0 0.5 423.89999 145.30571] CT
N
f-1521356186
f
GR
GS
[0.5 0 0 0.5 428.28 144.9489] CT
N
f-1521356186
f
GR
GS
[0.5 0 0 0.5 432.66 141.31876] CT
N
f-1521356186
f
GR
GS
[0.5 0 0 0.5 437.04001 139.78807] CT
N
f-1521356186
f
GR
GS
[0.5 0 0 0.5 441.42001 131.50618] CT
N
f-1521356186
f
GR
GS
[0.5 0 0 0.5 445.79999 124.33337] CT
N
f-1521356186
f
GR
GS
[0.5 0 0 0.5 450.17999 120.01817] CT
N
f-1521356186
f
GR
GS
[0.5 0 0 0.5 454.56 114.46335] CT
N
f-1521356186
f
GR
GS
[0.5 0 0 0.5 458.94 105.71835] CT
N
f-1521356186
f
GR
GS
[0.5 0 0 0.5 463.32001 100.3203] CT
N
f-1521356186
f
GR
GS
[0.5 0 0 0.5 467.70001 96.01008] CT
N
f-1521356186
f
GR
GS
[0.5 0 0 0.5 472.07999 93.41195] CT
N
f-1521356186
f
GR
GS
[0.5 0 0 0.5 476.45999 80.23988] CT
N
f-1521356186
f
GR
GS
[0.5 0 0 0.5 480.84 77.10408] CT
N
f-1521356186
f
GR
GS
[0.5 0 0 0.5 485.22 71.18694] CT
N
f-1521356186
f
GR
GS
[0.5 0 0 0.5 489.60001 68.24213] CT
N
f-1521356186
f
GR
GS
[0.5 0 0 0.5 493.98001 50.94501] CT
N
f-1521356186
f
GR
GS
[0.5 0 0 0.5 498.35999 50.25838] CT
N
f-1521356186
f
GR
GS
[0.5 0 0 0.5 502.73999 45.86687] CT
N
f-1521356186
f
GR
GS
[0.5 0 0 0.5 507.12 37.74753] CT
N
f-1521356186
f
GR
GS
[0.5 0 0 0.5 511.5 29.5] CT
N
f-1521356186
f
GR
GS
[0.5 0 0 0.5 0 0] CT
1 LJ
N
155.76 700 M
164.52 699.928 L
173.28 699.805 L
182.04 699.631 L
190.8 699.428 L
199.56 699.167 L
208.32 698.855 L
217.08 698.501 L
225.84 698.101 L
234.6 697.648 L
243.36 697.153 L
252.12 696.6 L
260.88 695.996 L
269.64 695.354 L
278.4 694.654 L
287.16 693.925 L
295.92 693.127 L
304.68 692.291 L
313.44 691.403 L
322.2 690.036 L
330.96 688.997 L
339.72 687.949 L
348.48 686.848 L
357.24 685.744 L
366 684.554 L
374.76 683.329 L
383.52 682.069 L
392.28 680.798 L
401.04 679.33 L
409.8 677.969 L
418.56 676.406 L
427.32 674.938 L
436.08 673.167 L
444.84 671.698 L
453.6 669.672 L
462.36 668.346 L
471.12 665.961 L
479.88 664.062 L
488.64 661.435 L
497.4 659.535 L
506.16 655.399 L
514.92 653.494 L
523.68 649.731 L
532.44 648.231 L
541.2 643.626 L
549.96 641.672 L
558.72 637.028 L
567.48 634.705 L
576.24 629.84 L
585 627.766 L
593.76 622.213 L
602.52 622.623 L
611.28 615.922 L
620.04 614.22 L
628.8 607.65 L
637.56 607.968 L
646.32 598.68 L
655.08 598.183 L
663.84 587.087 L
672.6 590.8 L
681.36 576.425 L
690.12 578.66 L
698.88 564.021 L
707.64 567.576 L
716.4 550.29 L
725.16 555.9 L
733.92 539.858 L
742.68 543.747 L
751.44 529.966 L
760.2 540.069 L
768.96 515.723 L
777.72 535.853 L
786.48 504.767 L
795.24 506.129 L
804 488.263 L
812.76 515.664 L
821.52 468.521 L
830.28 486.501 L
839.04 459.409 L
847.8 483.443 L
856.56 451.635 L
865.32 472.374 L
874.08 429.524 L
882.84 472.905 L
891.6 417.594 L
900.36 446.71 L
909.12 403.205 L
917.88 443.184 L
926.64 388.484 L
935.4 420.879 L
944.16 375.955 L
952.92 420.378 L
961.68 358.11 L
970.44 395.631 L
979.2 345.094 L
987.96 369.79 L
996.72 324.291 L
1005.48 367.848 L
1014.24 310.323 L
1023 368.158 L
S
GR
GS
[0.5 0 0 0.5 77.88 350] CT
10.0 ML
N
-5.706 -1.854 M
-1.411 -1.854 L
0 -6 L
1.411 -1.854 L
5.706 -1.854 L
2.283 0.742 L
3.527 4.854 L
0 2.4 L
-3.527 4.854 L
-2.283 0.742 L
cp
S
GR
GS
[0.5 0 0 0.5 82.26 349.9639] CT
10.0 ML
N
-5.706 -1.854 M
-1.411 -1.854 L
0 -6 L
1.411 -1.854 L
5.706 -1.854 L
2.283 0.742 L
3.527 4.854 L
0 2.4 L
-3.527 4.854 L
-2.283 0.742 L
cp
S
GR
GS
[0.5 0 0 0.5 86.64 349.90268] CT
10.0 ML
N
-5.706 -1.854 M
-1.411 -1.854 L
0 -6 L
1.411 -1.854 L
5.706 -1.854 L
2.283 0.742 L
3.527 4.854 L
0 2.4 L
-3.527 4.854 L
-2.283 0.742 L
cp
S
GR
GS
[0.5 0 0 0.5 91.02 349.81537] CT
10.0 ML
N
-5.706 -1.854 M
-1.411 -1.854 L
0 -6 L
1.411 -1.854 L
5.706 -1.854 L
2.283 0.742 L
3.527 4.854 L
0 2.4 L
-3.527 4.854 L
-2.283 0.742 L
cp
S
GR
GS
[0.5 0 0 0.5 95.4 349.71423] CT
10.0 ML
N
-5.706 -1.854 M
-1.411 -1.854 L
0 -6 L
1.411 -1.854 L
5.706 -1.854 L
2.283 0.742 L
3.527 4.854 L
0 2.4 L
-3.527 4.854 L
-2.283 0.742 L
cp
S
GR
GS
[0.5 0 0 0.5 99.78 349.5835] CT
10.0 ML
N
-5.706 -1.854 M
-1.411 -1.854 L
0 -6 L
1.411 -1.854 L
5.706 -1.854 L
2.283 0.742 L
3.527 4.854 L
0 2.4 L
-3.527 4.854 L
-2.283 0.742 L
cp
S
GR
GS
[0.5 0 0 0.5 104.16 349.42752] CT
10.0 ML
N
-5.706 -1.854 M
-1.411 -1.854 L
0 -6 L
1.411 -1.854 L
5.706 -1.854 L
2.283 0.742 L
3.527 4.854 L
0 2.4 L
-3.527 4.854 L
-2.283 0.742 L
cp
S
GR
GS
[0.5 0 0 0.5 108.54 349.25073] CT
10.0 ML
N
-5.706 -1.854 M
-1.411 -1.854 L
0 -6 L
1.411 -1.854 L
5.706 -1.854 L
2.283 0.742 L
3.527 4.854 L
0 2.4 L
-3.527 4.854 L
-2.283 0.742 L
cp
S
GR
GS
[0.5 0 0 0.5 112.92 349.05029] CT
10.0 ML
N
-5.706 -1.854 M
-1.411 -1.854 L
0 -6 L
1.411 -1.854 L
5.706 -1.854 L
2.283 0.742 L
3.527 4.854 L
0 2.4 L
-3.527 4.854 L
-2.283 0.742 L
cp
S
GR
GS
[0.5 0 0 0.5 117.3 348.82413] CT
10.0 ML
N
-5.706 -1.854 M
-1.411 -1.854 L
0 -6 L
1.411 -1.854 L
5.706 -1.854 L
2.283 0.742 L
3.527 4.854 L
0 2.4 L
-3.527 4.854 L
-2.283 0.742 L
cp
S
GR
GS
[0.5 0 0 0.5 121.68 348.57672] CT
10.0 ML
N
-5.706 -1.854 M
-1.411 -1.854 L
0 -6 L
1.411 -1.854 L
5.706 -1.854 L
2.283 0.742 L
3.527 4.854 L
0 2.4 L
-3.527 4.854 L
-2.283 0.742 L
cp
S
GR
GS
[0.5 0 0 0.5 126.06 348.29984] CT
10.0 ML
N
-5.706 -1.854 M
-1.411 -1.854 L
0 -6 L
1.411 -1.854 L
5.706 -1.854 L
2.283 0.742 L
3.527 4.854 L
0 2.4 L
-3.527 4.854 L
-2.283 0.742 L
cp
S
GR
GS
[0.5 0 0 0.5 130.44 347.99811] CT
10.0 ML
N
-5.706 -1.854 M
-1.411 -1.854 L
0 -6 L
1.411 -1.854 L
5.706 -1.854 L
2.283 0.742 L
3.527 4.854 L
0 2.4 L
-3.527 4.854 L
-2.283 0.742 L
cp
S
GR
GS
[0.5 0 0 0.5 134.82001 347.67697] CT
10.0 ML
N
-5.706 -1.854 M
-1.411 -1.854 L
0 -6 L
1.411 -1.854 L
5.706 -1.854 L
2.283 0.742 L
3.527 4.854 L
0 2.4 L
-3.527 4.854 L
-2.283 0.742 L
cp
S
GR
GS
[0.5 0 0 0.5 139.2 347.32721] CT
10.0 ML
N
-5.706 -1.854 M
-1.411 -1.854 L
0 -6 L
1.411 -1.854 L
5.706 -1.854 L
2.283 0.742 L
3.527 4.854 L
0 2.4 L
-3.527 4.854 L
-2.283 0.742 L
cp
S
GR
GS
[0.5 0 0 0.5 143.58 346.96271] CT
10.0 ML
N
-5.706 -1.854 M
-1.411 -1.854 L
0 -6 L
1.411 -1.854 L
5.706 -1.854 L
2.283 0.742 L
3.527 4.854 L
0 2.4 L
-3.527 4.854 L
-2.283 0.742 L
cp
S
GR
GS
[0.5 0 0 0.5 147.96001 346.56354] CT
10.0 ML
N
-5.706 -1.854 M
-1.411 -1.854 L
0 -6 L
1.411 -1.854 L
5.706 -1.854 L
2.283 0.742 L
3.527 4.854 L
0 2.4 L
-3.527 4.854 L
-2.283 0.742 L
cp
S
GR
GS
[0.5 0 0 0.5 152.34 346.14572] CT
10.0 ML
N
-5.706 -1.854 M
-1.411 -1.854 L
0 -6 L
1.411 -1.854 L
5.706 -1.854 L
2.283 0.742 L
3.527 4.854 L
0 2.4 L
-3.527 4.854 L
-2.283 0.742 L
cp
S
GR
GS
[0.5 0 0 0.5 156.72 345.70151] CT
10.0 ML
N
-5.706 -1.854 M
-1.411 -1.854 L
0 -6 L
1.411 -1.854 L
5.706 -1.854 L
2.283 0.742 L
3.527 4.854 L
0 2.4 L
-3.527 4.854 L
-2.283 0.742 L
cp
S
GR
GS
[0.5 0 0 0.5 161.10001 345.01801] CT
10.0 ML
N
-5.706 -1.854 M
-1.411 -1.854 L
0 -6 L
1.411 -1.854 L
5.706 -1.854 L
2.283 0.742 L
3.527 4.854 L
0 2.4 L
-3.527 4.854 L
-2.283 0.742 L
cp
S
GR
GS
[0.5 0 0 0.5 165.48 344.4986] CT
10.0 ML
N
-5.706 -1.854 M
-1.411 -1.854 L
0 -6 L
1.411 -1.854 L
5.706 -1.854 L
2.283 0.742 L
3.527 4.854 L
0 2.4 L
-3.527 4.854 L
-2.283 0.742 L
cp
S
GR
GS
[0.5 0 0 0.5 169.86 343.97433] CT
10.0 ML
N
-5.706 -1.854 M
-1.411 -1.854 L
0 -6 L
1.411 -1.854 L
5.706 -1.854 L
2.283 0.742 L
3.527 4.854 L
0 2.4 L
-3.527 4.854 L
-2.283 0.742 L
cp
S
GR
GS
[0.5 0 0 0.5 174.24001 343.42392] CT
10.0 ML
N
-5.706 -1.854 M
-1.411 -1.854 L
0 -6 L
1.411 -1.854 L
5.706 -1.854 L
2.283 0.742 L
3.527 4.854 L
0 2.4 L
-3.527 4.854 L
-2.283 0.742 L
cp
S
GR
GS
[0.5 0 0 0.5 178.62 342.87222] CT
10.0 ML
N
-5.706 -1.854 M
-1.411 -1.854 L
0 -6 L
1.411 -1.854 L
5.706 -1.854 L
2.283 0.742 L
3.527 4.854 L
0 2.4 L
-3.527 4.854 L
-2.283 0.742 L
cp
S
GR
GS
[0.5 0 0 0.5 183 342.27704] CT
10.0 ML
N
-5.706 -1.854 M
-1.411 -1.854 L
0 -6 L
1.411 -1.854 L
5.706 -1.854 L
2.283 0.742 L
3.527 4.854 L
0 2.4 L
-3.527 4.854 L
-2.283 0.742 L
cp
S
GR
GS
[0.5 0 0 0.5 187.38 341.66428] CT
10.0 ML
N
-5.706 -1.854 M
-1.411 -1.854 L
0 -6 L
1.411 -1.854 L
5.706 -1.854 L
2.283 0.742 L
3.527 4.854 L
0 2.4 L
-3.527 4.854 L
-2.283 0.742 L
cp
S
GR
GS
[0.5 0 0 0.5 191.75999 341.03433] CT
10.0 ML
N
-5.706 -1.854 M
-1.411 -1.854 L
0 -6 L
1.411 -1.854 L
5.706 -1.854 L
2.283 0.742 L
3.527 4.854 L
0 2.4 L
-3.527 4.854 L
-2.283 0.742 L
cp
S
GR
GS
[0.5 0 0 0.5 196.14 340.39883] CT
10.0 ML
N
-5.706 -1.854 M
-1.411 -1.854 L
0 -6 L
1.411 -1.854 L
5.706 -1.854 L
2.283 0.742 L
3.527 4.854 L
0 2.4 L
-3.527 4.854 L
-2.283 0.742 L
cp
S
GR
GS
[0.5 0 0 0.5 200.52 339.66507] CT
10.0 ML
N
-5.706 -1.854 M
-1.411 -1.854 L
0 -6 L
1.411 -1.854 L
5.706 -1.854 L
2.283 0.742 L
3.527 4.854 L
0 2.4 L
-3.527 4.854 L
-2.283 0.742 L
cp
S
GR
GS
[0.5 0 0 0.5 204.89999 338.98447] CT
10.0 ML
N
-5.706 -1.854 M
-1.411 -1.854 L
0 -6 L
1.411 -1.854 L
5.706 -1.854 L
2.283 0.742 L
3.527 4.854 L
0 2.4 L
-3.527 4.854 L
-2.283 0.742 L
cp
S
GR
GS
[0.5 0 0 0.5 209.28 338.20322] CT
10.0 ML
N
-5.706 -1.854 M
-1.411 -1.854 L
0 -6 L
1.411 -1.854 L
5.706 -1.854 L
2.283 0.742 L
3.527 4.854 L
0 2.4 L
-3.527 4.854 L
-2.283 0.742 L
cp
S
GR
GS
[0.5 0 0 0.5 213.66 337.46906] CT
10.0 ML
N
-5.706 -1.854 M
-1.411 -1.854 L
0 -6 L
1.411 -1.854 L
5.706 -1.854 L
2.283 0.742 L
3.527 4.854 L
0 2.4 L
-3.527 4.854 L
-2.283 0.742 L
cp
S
GR
GS
[0.5 0 0 0.5 218.03999 336.58359] CT
10.0 ML
N
-5.706 -1.854 M
-1.411 -1.854 L
0 -6 L
1.411 -1.854 L
5.706 -1.854 L
2.283 0.742 L
3.527 4.854 L
0 2.4 L
-3.527 4.854 L
-2.283 0.742 L
cp
S
GR
GS
[0.5 0 0 0.5 222.42 335.84924] CT
10.0 ML
N
-5.706 -1.854 M
-1.411 -1.854 L
0 -6 L
1.411 -1.854 L
5.706 -1.854 L
2.283 0.742 L
3.527 4.854 L
0 2.4 L
-3.527 4.854 L
-2.283 0.742 L
cp
S
GR
GS
[0.5 0 0 0.5 226.8 334.83612] CT
10.0 ML
N
-5.706 -1.854 M
-1.411 -1.854 L
0 -6 L
1.411 -1.854 L
5.706 -1.854 L
2.283 0.742 L
3.527 4.854 L
0 2.4 L
-3.527 4.854 L
-2.283 0.742 L
cp
S
GR
GS
[0.5 0 0 0.5 231.17999 334.17294] CT
10.0 ML
N
-5.706 -1.854 M
-1.411 -1.854 L
0 -6 L
1.411 -1.854 L
5.706 -1.854 L
2.283 0.742 L
3.527 4.854 L
0 2.4 L
-3.527 4.854 L
-2.283 0.742 L
cp
S
GR
GS
[0.5 0 0 0.5 235.56 332.98032] CT
10.0 ML
N
-5.706 -1.854 M
-1.411 -1.854 L
0 -6 L
1.411 -1.854 L
5.706 -1.854 L
2.283 0.742 L
3.527 4.854 L
0 2.4 L
-3.527 4.854 L
-2.283 0.742 L
cp
S
GR
GS
[0.5 0 0 0.5 239.94 332.03113] CT
10.0 ML
N
-5.706 -1.854 M
-1.411 -1.854 L
0 -6 L
1.411 -1.854 L
5.706 -1.854 L
2.283 0.742 L
3.527 4.854 L
0 2.4 L
-3.527 4.854 L
-2.283 0.742 L
cp
S
GR
GS
[0.5 0 0 0.5 244.32001 330.71732] CT
10.0 ML
N
-5.706 -1.854 M
-1.411 -1.854 L
0 -6 L
1.411 -1.854 L
5.706 -1.854 L
2.283 0.742 L
3.527 4.854 L
0 2.4 L
-3.527 4.854 L
-2.283 0.742 L
cp
S
GR
GS
[0.5 0 0 0.5 248.7 329.7673] CT
10.0 ML
N
-5.706 -1.854 M
-1.411 -1.854 L
0 -6 L
1.411 -1.854 L
5.706 -1.854 L
2.283 0.742 L
3.527 4.854 L
0 2.4 L
-3.527 4.854 L
-2.283 0.742 L
cp
S
GR
GS
[0.5 0 0 0.5 253.08 327.69955] CT
10.0 ML
N
-5.706 -1.854 M
-1.411 -1.854 L
0 -6 L
1.411 -1.854 L
5.706 -1.854 L
2.283 0.742 L
3.527 4.854 L
0 2.4 L
-3.527 4.854 L
-2.283 0.742 L
cp
S
GR
GS
[0.5 0 0 0.5 257.45999 326.74716] CT
10.0 ML
N
-5.706 -1.854 M
-1.411 -1.854 L
0 -6 L
1.411 -1.854 L
5.706 -1.854 L
2.283 0.742 L
3.527 4.854 L
0 2.4 L
-3.527 4.854 L
-2.283 0.742 L
cp
S
GR
GS
[0.5 0 0 0.5 261.84 324.86554] CT
10.0 ML
N
-5.706 -1.854 M
-1.411 -1.854 L
0 -6 L
1.411 -1.854 L
5.706 -1.854 L
2.283 0.742 L
3.527 4.854 L
0 2.4 L
-3.527 4.854 L
-2.283 0.742 L
cp
S
GR
GS
[0.5 0 0 0.5 266.22 324.1156] CT
10.0 ML
N
-5.706 -1.854 M
-1.411 -1.854 L
0 -6 L
1.411 -1.854 L
5.706 -1.854 L
2.283 0.742 L
3.527 4.854 L
0 2.4 L
-3.527 4.854 L
-2.283 0.742 L
cp
S
GR
GS
[0.5 0 0 0.5 270.60001 321.81302] CT
10.0 ML
N
-5.706 -1.854 M
-1.411 -1.854 L
0 -6 L
1.411 -1.854 L
5.706 -1.854 L
2.283 0.742 L
3.527 4.854 L
0 2.4 L
-3.527 4.854 L
-2.283 0.742 L
cp
S
GR
GS
[0.5 0 0 0.5 274.98001 320.83597] CT
10.0 ML
N
-5.706 -1.854 M
-1.411 -1.854 L
0 -6 L
1.411 -1.854 L
5.706 -1.854 L
2.283 0.742 L
3.527 4.854 L
0 2.4 L
-3.527 4.854 L
-2.283 0.742 L
cp
S
GR
GS
[0.5 0 0 0.5 279.35999 318.51413] CT
10.0 ML
N
-5.706 -1.854 M
-1.411 -1.854 L
0 -6 L
1.411 -1.854 L
5.706 -1.854 L
2.283 0.742 L
3.527 4.854 L
0 2.4 L
-3.527 4.854 L
-2.283 0.742 L
cp
S
GR
GS
[0.5 0 0 0.5 283.73999 317.35272] CT
10.0 ML
N
-5.706 -1.854 M
-1.411 -1.854 L
0 -6 L
1.411 -1.854 L
5.706 -1.854 L
2.283 0.742 L
3.527 4.854 L
0 2.4 L
-3.527 4.854 L
-2.283 0.742 L
cp
S
GR
GS
[0.5 0 0 0.5 288.12 314.91986] CT
10.0 ML
N
-5.706 -1.854 M
-1.411 -1.854 L
0 -6 L
1.411 -1.854 L
5.706 -1.854 L
2.283 0.742 L
3.527 4.854 L
0 2.4 L
-3.527 4.854 L
-2.283 0.742 L
cp
S
GR
GS
[0.5 0 0 0.5 292.5 313.88321] CT
10.0 ML
N
-5.706 -1.854 M
-1.411 -1.854 L
0 -6 L
1.411 -1.854 L
5.706 -1.854 L
2.283 0.742 L
3.527 4.854 L
0 2.4 L
-3.527 4.854 L
-2.283 0.742 L
cp
S
GR
GS
[0.5 0 0 0.5 296.88 311.10669] CT
10.0 ML
N
-5.706 -1.854 M
-1.411 -1.854 L
0 -6 L
1.411 -1.854 L
5.706 -1.854 L
2.283 0.742 L
3.527 4.854 L
0 2.4 L
-3.527 4.854 L
-2.283 0.742 L
cp
S
GR
GS
[0.5 0 0 0.5 301.26001 311.31174] CT
10.0 ML
N
-5.706 -1.854 M
-1.411 -1.854 L
0 -6 L
1.411 -1.854 L
5.706 -1.854 L
2.283 0.742 L
3.527 4.854 L
0 2.4 L
-3.527 4.854 L
-2.283 0.742 L
cp
S
GR
GS
[0.5 0 0 0.5 305.64001 307.96115] CT
10.0 ML
N
-5.706 -1.854 M
-1.411 -1.854 L
0 -6 L
1.411 -1.854 L
5.706 -1.854 L
2.283 0.742 L
3.527 4.854 L
0 2.4 L
-3.527 4.854 L
-2.283 0.742 L
cp
S
GR
GS
[0.5 0 0 0.5 310.01999 307.11008] CT
10.0 ML
N
-5.706 -1.854 M
-1.411 -1.854 L
0 -6 L
1.411 -1.854 L
5.706 -1.854 L
2.283 0.742 L
3.527 4.854 L
0 2.4 L
-3.527 4.854 L
-2.283 0.742 L
cp
S
GR
GS
[0.5 0 0 0.5 314.39999 303.82504] CT
10.0 ML
N
-5.706 -1.854 M
-1.411 -1.854 L
0 -6 L
1.411 -1.854 L
5.706 -1.854 L
2.283 0.742 L
3.527 4.854 L
0 2.4 L
-3.527 4.854 L
-2.283 0.742 L
cp
S
GR
GS
[0.5 0 0 0.5 318.78 303.98419] CT
10.0 ML
N
-5.706 -1.854 M
-1.411 -1.854 L
0 -6 L
1.411 -1.854 L
5.706 -1.854 L
2.283 0.742 L
3.527 4.854 L
0 2.4 L
-3.527 4.854 L
-2.283 0.742 L
cp
S
GR
GS
[0.5 0 0 0.5 323.16 299.33997] CT
10.0 ML
N
-5.706 -1.854 M
-1.411 -1.854 L
0 -6 L
1.411 -1.854 L
5.706 -1.854 L
2.283 0.742 L
3.527 4.854 L
0 2.4 L
-3.527 4.854 L
-2.283 0.742 L
cp
S
GR
GS
[0.5 0 0 0.5 327.54001 299.09134] CT
10.0 ML
N
-5.706 -1.854 M
-1.411 -1.854 L
0 -6 L
1.411 -1.854 L
5.706 -1.854 L
2.283 0.742 L
3.527 4.854 L
0 2.4 L
-3.527 4.854 L
-2.283 0.742 L
cp
S
GR
GS
[0.5 0 0 0.5 331.92001 293.54358] CT
10.0 ML
N
-5.706 -1.854 M
-1.411 -1.854 L
0 -6 L
1.411 -1.854 L
5.706 -1.854 L
2.283 0.742 L
3.527 4.854 L
0 2.4 L
-3.527 4.854 L
-2.283 0.742 L
cp
S
GR
GS
[0.5 0 0 0.5 336.29999 295.40009] CT
10.0 ML
N
-5.706 -1.854 M
-1.411 -1.854 L
0 -6 L
1.411 -1.854 L
5.706 -1.854 L
2.283 0.742 L
3.527 4.854 L
0 2.4 L
-3.527 4.854 L
-2.283 0.742 L
cp
S
GR
GS
[0.5 0 0 0.5 340.67999 288.21243] CT
10.0 ML
N
-5.706 -1.854 M
-1.411 -1.854 L
0 -6 L
1.411 -1.854 L
5.706 -1.854 L
2.283 0.742 L
3.527 4.854 L
0 2.4 L
-3.527 4.854 L
-2.283 0.742 L
cp
S
GR
GS
[0.5 0 0 0.5 345.06 289.32993] CT
10.0 ML
N
-5.706 -1.854 M
-1.411 -1.854 L
0 -6 L
1.411 -1.854 L
5.706 -1.854 L
2.283 0.742 L
3.527 4.854 L
0 2.4 L
-3.527 4.854 L
-2.283 0.742 L
cp
S
GR
GS
[0.5 0 0 0.5 349.44 282.01056] CT
10.0 ML
N
-5.706 -1.854 M
-1.411 -1.854 L
0 -6 L
1.411 -1.854 L
5.706 -1.854 L
2.283 0.742 L
3.527 4.854 L
0 2.4 L
-3.527 4.854 L
-2.283 0.742 L
cp
S
GR
GS
[0.5 0 0 0.5 353.82001 283.78775] CT
10.0 ML
N
-5.706 -1.854 M
-1.411 -1.854 L
0 -6 L
1.411 -1.854 L
5.706 -1.854 L
2.283 0.742 L
3.527 4.854 L
0 2.4 L
-3.527 4.854 L
-2.283 0.742 L
cp
S
GR
GS
[0.5 0 0 0.5 358.20001 275.14523] CT
10.0 ML
N
-5.706 -1.854 M
-1.411 -1.854 L
0 -6 L
1.411 -1.854 L
5.706 -1.854 L
2.283 0.742 L
3.527 4.854 L
0 2.4 L
-3.527 4.854 L
-2.283 0.742 L
cp
S
GR
GS
[0.5 0 0 0.5 362.57999 277.94995] CT
10.0 ML
N
-5.706 -1.854 M
-1.411 -1.854 L
0 -6 L
1.411 -1.854 L
5.706 -1.854 L
2.283 0.742 L
3.527 4.854 L
0 2.4 L
-3.527 4.854 L
-2.283 0.742 L
cp
S
GR
GS
[0.5 0 0 0.5 366.95999 269.92896] CT
10.0 ML
N
-5.706 -1.854 M
-1.411 -1.854 L
0 -6 L
1.411 -1.854 L
5.706 -1.854 L
2.283 0.742 L
3.527 4.854 L
0 2.4 L
-3.527 4.854 L
-2.283 0.742 L
cp
S
GR
GS
[0.5 0 0 0.5 371.34 271.87354] CT
10.0 ML
N
-5.706 -1.854 M
-1.411 -1.854 L
0 -6 L
1.411 -1.854 L
5.706 -1.854 L
2.283 0.742 L
3.527 4.854 L
0 2.4 L
-3.527 4.854 L
-2.283 0.742 L
cp
S
GR
GS
[0.5 0 0 0.5 375.72 264.98312] CT
10.0 ML
N
-5.706 -1.854 M
-1.411 -1.854 L
0 -6 L
1.411 -1.854 L
5.706 -1.854 L
2.283 0.742 L
3.527 4.854 L
0 2.4 L
-3.527 4.854 L
-2.283 0.742 L
cp
S
GR
GS
[0.5 0 0 0.5 380.10001 270.03427] CT
10.0 ML
N
-5.706 -1.854 M
-1.411 -1.854 L
0 -6 L
1.411 -1.854 L
5.706 -1.854 L
2.283 0.742 L
3.527 4.854 L
0 2.4 L
-3.527 4.854 L
-2.283 0.742 L
cp
S
GR
GS
[0.5 0 0 0.5 384.48001 257.86154] CT
10.0 ML
N
-5.706 -1.854 M
-1.411 -1.854 L
0 -6 L
1.411 -1.854 L
5.706 -1.854 L
2.283 0.742 L
3.527 4.854 L
0 2.4 L
-3.527 4.854 L
-2.283 0.742 L
cp
S
GR
GS
[0.5 0 0 0.5 388.85999 267.92651] CT
10.0 ML
N
-5.706 -1.854 M
-1.411 -1.854 L
0 -6 L
1.411 -1.854 L
5.706 -1.854 L
2.283 0.742 L
3.527 4.854 L
0 2.4 L
-3.527 4.854 L
-2.283 0.742 L
cp
S
GR
GS
[0.5 0 0 0.5 393.23999 252.38365] CT
10.0 ML
N
-5.706 -1.854 M
-1.411 -1.854 L
0 -6 L
1.411 -1.854 L
5.706 -1.854 L
2.283 0.742 L
3.527 4.854 L
0 2.4 L
-3.527 4.854 L
-2.283 0.742 L
cp
S
GR
GS
[0.5 0 0 0.5 397.62 253.06468] CT
10.0 ML
N
-5.706 -1.854 M
-1.411 -1.854 L
0 -6 L
1.411 -1.854 L
5.706 -1.854 L
2.283 0.742 L
3.527 4.854 L
0 2.4 L
-3.527 4.854 L
-2.283 0.742 L
cp
S
GR
GS
[0.5 0 0 0.5 402 244.13158] CT
10.0 ML
N
-5.706 -1.854 M
-1.411 -1.854 L
0 -6 L
1.411 -1.854 L
5.706 -1.854 L
2.283 0.742 L
3.527 4.854 L
0 2.4 L
-3.527 4.854 L
-2.283 0.742 L
cp
S
GR
GS
[0.5 0 0 0.5 406.38 257.83209] CT
10.0 ML
N
-5.706 -1.854 M
-1.411 -1.854 L
0 -6 L
1.411 -1.854 L
5.706 -1.854 L
2.283 0.742 L
3.527 4.854 L
0 2.4 L
-3.527 4.854 L
-2.283 0.742 L
cp
S
GR
GS
[0.5 0 0 0.5 410.76001 234.26057] CT
10.0 ML
N
-5.706 -1.854 M
-1.411 -1.854 L
0 -6 L
1.411 -1.854 L
5.706 -1.854 L
2.283 0.742 L
3.527 4.854 L
0 2.4 L
-3.527 4.854 L
-2.283 0.742 L
cp
S
GR
GS
[0.5 0 0 0.5 415.14001 243.25027] CT
10.0 ML
N
-5.706 -1.854 M
-1.411 -1.854 L
0 -6 L
1.411 -1.854 L
5.706 -1.854 L
2.283 0.742 L
3.527 4.854 L
0 2.4 L
-3.527 4.854 L
-2.283 0.742 L
cp
S
GR
GS
[0.5 0 0 0.5 419.51999 229.7045] CT
10.0 ML
N
-5.706 -1.854 M
-1.411 -1.854 L
0 -6 L
1.411 -1.854 L
5.706 -1.854 L
2.283 0.742 L
3.527 4.854 L
0 2.4 L
-3.527 4.854 L
-2.283 0.742 L
cp
S
GR
GS
[0.5 0 0 0.5 423.89999 241.72159] CT
10.0 ML
N
-5.706 -1.854 M
-1.411 -1.854 L
0 -6 L
1.411 -1.854 L
5.706 -1.854 L
2.283 0.742 L
3.527 4.854 L
0 2.4 L
-3.527 4.854 L
-2.283 0.742 L
cp
S
GR
GS
[0.5 0 0 0.5 428.28 225.81744] CT
10.0 ML
N
-5.706 -1.854 M
-1.411 -1.854 L
0 -6 L
1.411 -1.854 L
5.706 -1.854 L
2.283 0.742 L
3.527 4.854 L
0 2.4 L
-3.527 4.854 L
-2.283 0.742 L
cp
S
GR
GS
[0.5 0 0 0.5 432.66 236.18715] CT
10.0 ML
N
-5.706 -1.854 M
-1.411 -1.854 L
0 -6 L
1.411 -1.854 L
5.706 -1.854 L
2.283 0.742 L
3.527 4.854 L
0 2.4 L
-3.527 4.854 L
-2.283 0.742 L
cp
S
GR
GS
[0.5 0 0 0.5 437.04001 214.76213] CT
10.0 ML
N
-5.706 -1.854 M
-1.411 -1.854 L
0 -6 L
1.411 -1.854 L
5.706 -1.854 L
2.283 0.742 L
3.527 4.854 L
0 2.4 L
-3.527 4.854 L
-2.283 0.742 L
cp
S
GR
GS
[0.5 0 0 0.5 441.42001 236.45271] CT
10.0 ML
N
-5.706 -1.854 M
-1.411 -1.854 L
0 -6 L
1.411 -1.854 L
5.706 -1.854 L
2.283 0.742 L
3.527 4.854 L
0 2.4 L
-3.527 4.854 L
-2.283 0.742 L
cp
S
GR
GS
[0.5 0 0 0.5 445.79999 208.79707] CT
10.0 ML
N
-5.706 -1.854 M
-1.411 -1.854 L
0 -6 L
1.411 -1.854 L
5.706 -1.854 L
2.283 0.742 L
3.527 4.854 L
0 2.4 L
-3.527 4.854 L
-2.283 0.742 L
cp
S
GR
GS
[0.5 0 0 0.5 450.17999 223.35478] CT
10.0 ML
N
-5.706 -1.854 M
-1.411 -1.854 L
0 -6 L
1.411 -1.854 L
5.706 -1.854 L
2.283 0.742 L
3.527 4.854 L
0 2.4 L
-3.527 4.854 L
-2.283 0.742 L
cp
S
GR
GS
[0.5 0 0 0.5 454.56 201.60233] CT
10.0 ML
N
-5.706 -1.854 M
-1.411 -1.854 L
0 -6 L
1.411 -1.854 L
5.706 -1.854 L
2.283 0.742 L
3.527 4.854 L
0 2.4 L
-3.527 4.854 L
-2.283 0.742 L
cp
S
GR
GS
[0.5 0 0 0.5 458.94 221.59177] CT
10.0 ML
N
-5.706 -1.854 M
-1.411 -1.854 L
0 -6 L
1.411 -1.854 L
5.706 -1.854 L
2.283 0.742 L
3.527 4.854 L
0 2.4 L
-3.527 4.854 L
-2.283 0.742 L
cp
S
GR
GS
[0.5 0 0 0.5 463.32001 194.24196] CT
10.0 ML
N
-5.706 -1.854 M
-1.411 -1.854 L
0 -6 L
1.411 -1.854 L
5.706 -1.854 L
2.283 0.742 L
3.527 4.854 L
0 2.4 L
-3.527 4.854 L
-2.283 0.742 L
cp
S
GR
GS
[0.5 0 0 0.5 467.70001 210.43932] CT
10.0 ML
N
-5.706 -1.854 M
-1.411 -1.854 L
0 -6 L
1.411 -1.854 L
5.706 -1.854 L
2.283 0.742 L
3.527 4.854 L
0 2.4 L
-3.527 4.854 L
-2.283 0.742 L
cp
S
GR
GS
[0.5 0 0 0.5 472.07999 187.97755] CT
10.0 ML
N
-5.706 -1.854 M
-1.411 -1.854 L
0 -6 L
1.411 -1.854 L
5.706 -1.854 L
2.283 0.742 L
3.527 4.854 L
0 2.4 L
-3.527 4.854 L
-2.283 0.742 L
cp
S
GR
GS
[0.5 0 0 0.5 476.45999 210.18924] CT
10.0 ML
N
-5.706 -1.854 M
-1.411 -1.854 L
0 -6 L
1.411 -1.854 L
5.706 -1.854 L
2.283 0.742 L
3.527 4.854 L
0 2.4 L
-3.527 4.854 L
-2.283 0.742 L
cp
S
GR
GS
[0.5 0 0 0.5 480.84 179.05504] CT
10.0 ML
N
-5.706 -1.854 M
-1.411 -1.854 L
0 -6 L
1.411 -1.854 L
5.706 -1.854 L
2.283 0.742 L
3.527 4.854 L
0 2.4 L
-3.527 4.854 L
-2.283 0.742 L
cp
S
GR
GS
[0.5 0 0 0.5 485.22 197.81558] CT
10.0 ML
N
-5.706 -1.854 M
-1.411 -1.854 L
0 -6 L
1.411 -1.854 L
5.706 -1.854 L
2.283 0.742 L
3.527 4.854 L
0 2.4 L
-3.527 4.854 L
-2.283 0.742 L
cp
S
GR
GS
[0.5 0 0 0.5 489.60001 172.54715] CT
10.0 ML
N
-5.706 -1.854 M
-1.411 -1.854 L
0 -6 L
1.411 -1.854 L
5.706 -1.854 L
2.283 0.742 L
3.527 4.854 L
0 2.4 L
-3.527 4.854 L
-2.283 0.742 L
cp
S
GR
GS
[0.5 0 0 0.5 493.98001 184.89485] CT
10.0 ML
N
-5.706 -1.854 M
-1.411 -1.854 L
0 -6 L
1.411 -1.854 L
5.706 -1.854 L
2.283 0.742 L
3.527 4.854 L
0 2.4 L
-3.527 4.854 L
-2.283 0.742 L
cp
S
GR
GS
[0.5 0 0 0.5 498.35999 162.14571] CT
10.0 ML
N
-5.706 -1.854 M
-1.411 -1.854 L
0 -6 L
1.411 -1.854 L
5.706 -1.854 L
2.283 0.742 L
3.527 4.854 L
0 2.4 L
-3.527 4.854 L
-2.283 0.742 L
cp
S
GR
GS
[0.5 0 0 0.5 502.73999 183.92406] CT
10.0 ML
N
-5.706 -1.854 M
-1.411 -1.854 L
0 -6 L
1.411 -1.854 L
5.706 -1.854 L
2.283 0.742 L
3.527 4.854 L
0 2.4 L
-3.527 4.854 L
-2.283 0.742 L
cp
S
GR
GS
[0.5 0 0 0.5 507.12 155.16141] CT
10.0 ML
N
-5.706 -1.854 M
-1.411 -1.854 L
0 -6 L
1.411 -1.854 L
5.706 -1.854 L
2.283 0.742 L
3.527 4.854 L
0 2.4 L
-3.527 4.854 L
-2.283 0.742 L
cp
S
GR
GS
[0.5 0 0 0.5 511.5 184.07895] CT
10.0 ML
N
-5.706 -1.854 M
-1.411 -1.854 L
0 -6 L
1.411 -1.854 L
5.706 -1.854 L
2.283 0.742 L
3.527 4.854 L
0 2.4 L
-3.527 4.854 L
-2.283 0.742 L
cp
S
GR
GS
[0.5 0 0 0.5 0 0] CT
1 GC
N
1007 151 M
1007 75 L
740 75 L
740 151 L
cp
f
GR
GS
[0.5 0 0 0.5 407 45] CT
/Helvetica 18 F
GS
[1 0 0 1 0 0] CT
0 6 moveto 
1 -1 scale
(ert-CORE) t 
GR
GR
GS
[0.5 0 0 0.5 0 0] CT
1 LJ
N
748 90 M
808 90 L
S
GR
GS
[0.5 0 0 0.5 389 45] CT
10.0 ML
N
-4.243 -4.243 M
4.243 4.243 L
-4.243 4.243 M
4.243 -4.243 L
S
GR
GS
[0.5 0 0 0.5 407 56.5] CT
/Helvetica 18 F
GS
[1 0 0 1 0 0] CT
0 6 moveto 
1 -1 scale
(Relibility of a Thing) t 
GR
GR
GS
[0.5 0 0 0.5 0 0] CT
1 LJ
N
748 113 M
808 113 L
S
GR
GS
[0.5 0 0 0.5 389 56.5] CT
N
f-1521356186
f
GR
GS
[0.5 0 0 0.5 407 68] CT
/Helvetica 18 F
GS
[1 0 0 1 0 0] CT
0 6 moveto 
1 -1 scale
(Reliability-Aware IoT) t 
GR
GR
GS
[0.5 0 0 0.5 0 0] CT
1 LJ
N
748 136 M
808 136 L
S
GR
GS
[0.5 0 0 0.5 389 68] CT
10.0 ML
N
-5.706 -1.854 M
-1.411 -1.854 L
0 -6 L
1.411 -1.854 L
5.706 -1.854 L
2.283 0.742 L
3.527 4.854 L
0 2.4 L
-3.527 4.854 L
-2.283 0.742 L
cp
S
GR
GS
[0.5 0 0 0.5 0 0] CT
10.0 ML
N
740 151 M
740 75 L
1007 75 L
1007 151 L
cp
S
GR
%%Trailer
%%Pages: 1
%%EOF
