%!PS-Adobe-3.0 EPSF-3.0
%%Creator: (MATLAB, The Mathworks, Inc. Version 9.10.0.1739362 \(R2021a\) Update 5. Operating System: Linux)
%%Title: ./epsTimeCmplxty300.eps
%%CreationDate: 2021-09-23T13:51:58
%%Pages: (atend)
%%BoundingBox:    42    13   521   377
%%LanguageLevel: 3
%%EndComments
%%BeginProlog
%%BeginResource: procset (Apache XML Graphics Std ProcSet) 1.2 0
%%Version: 1.2 0
%%Copyright: (Copyright 2001-2003,2010 The Apache Software Foundation. License terms: http://www.apache.org/licenses/LICENSE-2.0)
/bd{bind def}bind def
/ld{load def}bd
/GR/grestore ld
/GS/gsave ld
/RM/rmoveto ld
/C/curveto ld
/t/show ld
/L/lineto ld
/ML/setmiterlimit ld
/CT/concat ld
/f/fill ld
/N/newpath ld
/S/stroke ld
/CC/setcmykcolor ld
/A/ashow ld
/cp/closepath ld
/RC/setrgbcolor ld
/LJ/setlinejoin ld
/GC/setgray ld
/LW/setlinewidth ld
/M/moveto ld
/re {4 2 roll M
1 index 0 rlineto
0 exch rlineto
neg 0 rlineto
cp } bd
/_ctm matrix def
/_tm matrix def
/BT { _ctm currentmatrix pop matrix _tm copy pop 0 0 moveto } bd
/ET { _ctm setmatrix } bd
/iTm { _ctm setmatrix _tm concat } bd
/Tm { _tm astore pop iTm 0 0 moveto } bd
/ux 0.0 def
/uy 0.0 def
/F {
  /Tp exch def
  /Tf exch def
  Tf findfont Tp scalefont setfont
  /cf Tf def  /cs Tp def
} bd
/ULS {currentpoint /uy exch def /ux exch def} bd
/ULE {
  /Tcx currentpoint pop def
  gsave
  newpath
  cf findfont cs scalefont dup
  /FontMatrix get 0 get /Ts exch def /FontInfo get dup
  /UnderlinePosition get Ts mul /To exch def
  /UnderlineThickness get Ts mul /Tt exch def
  ux uy To add moveto  Tcx uy To add lineto
  Tt setlinewidth stroke
  grestore
} bd
/OLE {
  /Tcx currentpoint pop def
  gsave
  newpath
  cf findfont cs scalefont dup
  /FontMatrix get 0 get /Ts exch def /FontInfo get dup
  /UnderlinePosition get Ts mul /To exch def
  /UnderlineThickness get Ts mul /Tt exch def
  ux uy To add cs add moveto Tcx uy To add cs add lineto
  Tt setlinewidth stroke
  grestore
} bd
/SOE {
  /Tcx currentpoint pop def
  gsave
  newpath
  cf findfont cs scalefont dup
  /FontMatrix get 0 get /Ts exch def /FontInfo get dup
  /UnderlinePosition get Ts mul /To exch def
  /UnderlineThickness get Ts mul /Tt exch def
  ux uy To add cs 10 mul 26 idiv add moveto Tcx uy To add cs 10 mul 26 idiv add lineto
  Tt setlinewidth stroke
  grestore
} bd
/QT {
/Y22 exch store
/X22 exch store
/Y21 exch store
/X21 exch store
currentpoint
/Y21 load 2 mul add 3 div exch
/X21 load 2 mul add 3 div exch
/X21 load 2 mul /X22 load add 3 div
/Y21 load 2 mul /Y22 load add 3 div
/X22 load /Y22 load curveto
} bd
/SSPD {
dup length /d exch dict def
{
/v exch def
/k exch def
currentpagedevice k known {
/cpdv currentpagedevice k get def
v cpdv ne {
/upd false def
/nullv v type /nulltype eq def
/nullcpdv cpdv type /nulltype eq def
nullv nullcpdv or
{
/upd true def
} {
/sametype v type cpdv type eq def
sametype {
v type /arraytype eq {
/vlen v length def
/cpdvlen cpdv length def
vlen cpdvlen eq {
0 1 vlen 1 sub {
/i exch def
/obj v i get def
/cpdobj cpdv i get def
obj cpdobj ne {
/upd true def
exit
} if
} for
} {
/upd true def
} ifelse
} {
v type /dicttype eq {
v {
/dv exch def
/dk exch def
/cpddv cpdv dk get def
dv cpddv ne {
/upd true def
exit
} if
} forall
} {
/upd true def
} ifelse
} ifelse
} if
} ifelse
upd true eq {
d k v put
} if
} if
} if
} forall
d length 0 gt {
d setpagedevice
} if
} bd
/RE { % /NewFontName [NewEncodingArray] /FontName RE -
  findfont dup length dict begin
  {
    1 index /FID ne
    {def} {pop pop} ifelse
  } forall
  /Encoding exch def
  /FontName 1 index def
  currentdict definefont pop
  end
} bind def
%%EndResource
%%BeginResource: procset (Apache XML Graphics EPS ProcSet) 1.0 0
%%Version: 1.0 0
%%Copyright: (Copyright 2002-2003 The Apache Software Foundation. License terms: http://www.apache.org/licenses/LICENSE-2.0)
/BeginEPSF { %def
/b4_Inc_state save def         % Save state for cleanup
/dict_count countdictstack def % Count objects on dict stack
/op_count count 1 sub def      % Count objects on operand stack
userdict begin                 % Push userdict on dict stack
/showpage { } def              % Redefine showpage, { } = null proc
0 setgray 0 setlinecap         % Prepare graphics state
1 setlinewidth 0 setlinejoin
10 setmiterlimit [ ] 0 setdash newpath
/languagelevel where           % If level not equal to 1 then
{pop languagelevel             % set strokeadjust and
1 ne                           % overprint to their defaults.
{false setstrokeadjust false setoverprint
} if
} if
} bd
/EndEPSF { %def
count op_count sub {pop} repeat            % Clean up stacks
countdictstack dict_count sub {end} repeat
b4_Inc_state restore
} bd
%%EndResource
%FOPBeginFontDict
%%IncludeResource: font Courier-Oblique
%%IncludeResource: font Courier-BoldOblique
%%IncludeResource: font Courier-Bold
%%IncludeResource: font ZapfDingbats
%%IncludeResource: font Symbol
%%IncludeResource: font Helvetica
%%IncludeResource: font Helvetica-Oblique
%%IncludeResource: font Helvetica-Bold
%%IncludeResource: font Helvetica-BoldOblique
%%IncludeResource: font Times-Roman
%%IncludeResource: font Times-Italic
%%IncludeResource: font Times-Bold
%%IncludeResource: font Times-BoldItalic
%%IncludeResource: font Courier
%FOPEndFontDict
%%BeginResource: encoding WinAnsiEncoding
/WinAnsiEncoding [
/.notdef /.notdef /.notdef /.notdef /.notdef
/.notdef /.notdef /.notdef /.notdef /.notdef
/.notdef /.notdef /.notdef /.notdef /.notdef
/.notdef /.notdef /.notdef /.notdef /.notdef
/.notdef /.notdef /.notdef /.notdef /.notdef
/.notdef /.notdef /.notdef /.notdef /.notdef
/.notdef /.notdef /space /exclam /quotedbl
/numbersign /dollar /percent /ampersand /quotesingle
/parenleft /parenright /asterisk /plus /comma
/hyphen /period /slash /zero /one
/two /three /four /five /six
/seven /eight /nine /colon /semicolon
/less /equal /greater /question /at
/A /B /C /D /E
/F /G /H /I /J
/K /L /M /N /O
/P /Q /R /S /T
/U /V /W /X /Y
/Z /bracketleft /backslash /bracketright /asciicircum
/underscore /quoteleft /a /b /c
/d /e /f /g /h
/i /j /k /l /m
/n /o /p /q /r
/s /t /u /v /w
/x /y /z /braceleft /bar
/braceright /asciitilde /bullet /Euro /bullet
/quotesinglbase /florin /quotedblbase /ellipsis /dagger
/daggerdbl /circumflex /perthousand /Scaron /guilsinglleft
/OE /bullet /Zcaron /bullet /bullet
/quoteleft /quoteright /quotedblleft /quotedblright /bullet
/endash /emdash /asciitilde /trademark /scaron
/guilsinglright /oe /bullet /zcaron /Ydieresis
/space /exclamdown /cent /sterling /currency
/yen /brokenbar /section /dieresis /copyright
/ordfeminine /guillemotleft /logicalnot /sfthyphen /registered
/macron /degree /plusminus /twosuperior /threesuperior
/acute /mu /paragraph /middot /cedilla
/onesuperior /ordmasculine /guillemotright /onequarter /onehalf
/threequarters /questiondown /Agrave /Aacute /Acircumflex
/Atilde /Adieresis /Aring /AE /Ccedilla
/Egrave /Eacute /Ecircumflex /Edieresis /Igrave
/Iacute /Icircumflex /Idieresis /Eth /Ntilde
/Ograve /Oacute /Ocircumflex /Otilde /Odieresis
/multiply /Oslash /Ugrave /Uacute /Ucircumflex
/Udieresis /Yacute /Thorn /germandbls /agrave
/aacute /acircumflex /atilde /adieresis /aring
/ae /ccedilla /egrave /eacute /ecircumflex
/edieresis /igrave /iacute /icircumflex /idieresis
/eth /ntilde /ograve /oacute /ocircumflex
/otilde /odieresis /divide /oslash /ugrave
/uacute /ucircumflex /udieresis /yacute /thorn
/ydieresis
] def
%%EndResource
%FOPBeginFontReencode
/Courier-Oblique findfont
dup length dict begin
  {1 index /FID ne {def} {pop pop} ifelse} forall
  /Encoding WinAnsiEncoding def
  currentdict
end
/Courier-Oblique exch definefont pop
/Courier-BoldOblique findfont
dup length dict begin
  {1 index /FID ne {def} {pop pop} ifelse} forall
  /Encoding WinAnsiEncoding def
  currentdict
end
/Courier-BoldOblique exch definefont pop
/Courier-Bold findfont
dup length dict begin
  {1 index /FID ne {def} {pop pop} ifelse} forall
  /Encoding WinAnsiEncoding def
  currentdict
end
/Courier-Bold exch definefont pop
/Helvetica findfont
dup length dict begin
  {1 index /FID ne {def} {pop pop} ifelse} forall
  /Encoding WinAnsiEncoding def
  currentdict
end
/Helvetica exch definefont pop
/Helvetica-Oblique findfont
dup length dict begin
  {1 index /FID ne {def} {pop pop} ifelse} forall
  /Encoding WinAnsiEncoding def
  currentdict
end
/Helvetica-Oblique exch definefont pop
/Helvetica-Bold findfont
dup length dict begin
  {1 index /FID ne {def} {pop pop} ifelse} forall
  /Encoding WinAnsiEncoding def
  currentdict
end
/Helvetica-Bold exch definefont pop
/Helvetica-BoldOblique findfont
dup length dict begin
  {1 index /FID ne {def} {pop pop} ifelse} forall
  /Encoding WinAnsiEncoding def
  currentdict
end
/Helvetica-BoldOblique exch definefont pop
/Times-Roman findfont
dup length dict begin
  {1 index /FID ne {def} {pop pop} ifelse} forall
  /Encoding WinAnsiEncoding def
  currentdict
end
/Times-Roman exch definefont pop
/Times-Italic findfont
dup length dict begin
  {1 index /FID ne {def} {pop pop} ifelse} forall
  /Encoding WinAnsiEncoding def
  currentdict
end
/Times-Italic exch definefont pop
/Times-Bold findfont
dup length dict begin
  {1 index /FID ne {def} {pop pop} ifelse} forall
  /Encoding WinAnsiEncoding def
  currentdict
end
/Times-Bold exch definefont pop
/Times-BoldItalic findfont
dup length dict begin
  {1 index /FID ne {def} {pop pop} ifelse} forall
  /Encoding WinAnsiEncoding def
  currentdict
end
/Times-BoldItalic exch definefont pop
/Courier findfont
dup length dict begin
  {1 index /FID ne {def} {pop pop} ifelse} forall
  /Encoding WinAnsiEncoding def
  currentdict
end
/Courier exch definefont pop
%FOPEndFontReencode
%%EndProlog
%%Page: 1 1
%%PageBoundingBox: 0 0 565 393
%%BeginPageSetup
[1 0 0 -1 0 393] CT
%%EndPageSetup
GS
[0.5 0 0 0.5 0 0] CT
1 GC
N
0 0 1130 786 re
f
GR
GS
[0.5 0 0 0.5 0 0] CT
1 GC
N
0 0 1130 786 re
f
GR
GS
[0.5 0 0 0.5 0 0] CT
1 GC
N
147 700 M
1023 700 L
1023 59 L
147 59 L
cp
f
GR
GS
[0.5 0 0 0.5 0 0] CT
0.851 GC
1 LJ
N
147 700 M
147 59 L
S
GR
GS
[0.5 0 0 0.5 0 0] CT
0.851 GC
1 LJ
N
293 700 M
293 59 L
S
GR
GS
[0.5 0 0 0.5 0 0] CT
0.851 GC
1 LJ
N
439 700 M
439 59 L
S
GR
GS
[0.5 0 0 0.5 0 0] CT
0.851 GC
1 LJ
N
585 700 M
585 59 L
S
GR
GS
[0.5 0 0 0.5 0 0] CT
0.851 GC
1 LJ
N
731 700 M
731 59 L
S
GR
GS
[0.5 0 0 0.5 0 0] CT
0.851 GC
1 LJ
N
877 700 M
877 59 L
S
GR
GS
[0.5 0 0 0.5 0 0] CT
0.851 GC
1 LJ
N
1023 700 M
1023 59 L
S
GR
GS
[0.5 0 0 0.5 0 0] CT
0.851 GC
1 LJ
N
1023 630.217 M
147 630.217 L
S
GR
GS
[0.5 0 0 0.5 0 0] CT
0.851 GC
1 LJ
N
1023 559.017 M
147 559.017 L
S
GR
GS
[0.5 0 0 0.5 0 0] CT
0.851 GC
1 LJ
N
1023 487.817 M
147 487.817 L
S
GR
GS
[0.5 0 0 0.5 0 0] CT
0.851 GC
1 LJ
N
1023 416.617 M
147 416.617 L
S
GR
GS
[0.5 0 0 0.5 0 0] CT
0.851 GC
1 LJ
N
1023 345.417 M
147 345.417 L
S
GR
GS
[0.5 0 0 0.5 0 0] CT
0.851 GC
1 LJ
N
1023 274.217 M
147 274.217 L
S
GR
GS
[0.5 0 0 0.5 0 0] CT
0.851 GC
1 LJ
N
1023 203.017 M
147 203.017 L
S
GR
GS
[0.5 0 0 0.5 0 0] CT
0.851 GC
1 LJ
N
1023 131.817 M
147 131.817 L
S
GR
GS
[0.5 0 0 0.5 0 0] CT
0.851 GC
1 LJ
N
1023 60.617 M
147 60.617 L
S
GR
GS
[0.5 0 0 0.5 0 0] CT
2 setlinecap
1 LJ
N
147 700 M
1023 700 L
S
GR
GS
[0.5 0 0 0.5 0 0] CT
2 setlinecap
1 LJ
N
147 59 M
1023 59 L
S
GR
GS
[0.5 0 0 0.5 0 0] CT
2 setlinecap
1 LJ
N
147 700 M
147 691.24 L
S
GR
GS
[0.5 0 0 0.5 0 0] CT
2 setlinecap
1 LJ
N
293 700 M
293 691.24 L
S
GR
GS
[0.5 0 0 0.5 0 0] CT
2 setlinecap
1 LJ
N
439 700 M
439 691.24 L
S
GR
GS
[0.5 0 0 0.5 0 0] CT
2 setlinecap
1 LJ
N
585 700 M
585 691.24 L
S
GR
GS
[0.5 0 0 0.5 0 0] CT
2 setlinecap
1 LJ
N
731 700 M
731 691.24 L
S
GR
GS
[0.5 0 0 0.5 0 0] CT
2 setlinecap
1 LJ
N
877 700 M
877 691.24 L
S
GR
GS
[0.5 0 0 0.5 0 0] CT
2 setlinecap
1 LJ
N
1023 700 M
1023 691.24 L
S
GR
GS
[0.5 0 0 0.5 0 0] CT
2 setlinecap
1 LJ
N
147 59 M
147 67.76 L
S
GR
GS
[0.5 0 0 0.5 0 0] CT
2 setlinecap
1 LJ
N
293 59 M
293 67.76 L
S
GR
GS
[0.5 0 0 0.5 0 0] CT
2 setlinecap
1 LJ
N
439 59 M
439 67.76 L
S
GR
GS
[0.5 0 0 0.5 0 0] CT
2 setlinecap
1 LJ
N
585 59 M
585 67.76 L
S
GR
GS
[0.5 0 0 0.5 0 0] CT
2 setlinecap
1 LJ
N
731 59 M
731 67.76 L
S
GR
GS
[0.5 0 0 0.5 0 0] CT
2 setlinecap
1 LJ
N
877 59 M
877 67.76 L
S
GR
GS
[0.5 0 0 0.5 0 0] CT
2 setlinecap
1 LJ
N
1023 59 M
1023 67.76 L
S
GR
GS
[0.5 0 0 0.5 73.5 354] CT
/Helvetica 20 F
GS
[1 0 0 1 0 0] CT
-6.5 19 moveto 
1 -1 scale
(0) t 
GR
GR
GS
[0.5 0 0 0.5 146.5 354] CT
/Helvetica 20 F
GS
[1 0 0 1 0 0] CT
-13 19 moveto 
1 -1 scale
(50) t 
GR
GR
GS
[0.5 0 0 0.5 219.5 354] CT
/Helvetica 20 F
GS
[1 0 0 1 0 0] CT
-19.5 19 moveto 
1 -1 scale
(100) t 
GR
GR
GS
[0.5 0 0 0.5 292.5 354] CT
/Helvetica 20 F
GS
[1 0 0 1 0 0] CT
-19.5 19 moveto 
1 -1 scale
(150) t 
GR
GR
GS
[0.5 0 0 0.5 365.5 354] CT
/Helvetica 20 F
GS
[1 0 0 1 0 0] CT
-19.5 19 moveto 
1 -1 scale
(200) t 
GR
GR
GS
[0.5 0 0 0.5 438.5 354] CT
/Helvetica 20 F
GS
[1 0 0 1 0 0] CT
-19.5 19 moveto 
1 -1 scale
(250) t 
GR
GR
GS
[0.5 0 0 0.5 511.5 354] CT
/Helvetica 20 F
GS
[1 0 0 1 0 0] CT
-19.5 19 moveto 
1 -1 scale
(300) t 
GR
GR
GS
[0.5 0 0 0.5 292.50021 367] CT
/Helvetica 22 F
GS
[1 0 0 1 0 0] CT
-123.5 21 moveto 
1 -1 scale
(Number of systems [-]) t 
GR
GR
GS
[0.5 0 0 0.5 0 0] CT
2 setlinecap
1 LJ
N
147 700 M
147 59 L
S
GR
GS
[0.5 0 0 0.5 0 0] CT
2 setlinecap
1 LJ
N
1023 700 M
1023 59 L
S
GR
GS
[0.5 0 0 0.5 0 0] CT
2 setlinecap
1 LJ
N
147 630.217 M
155.76 630.217 L
S
GR
GS
[0.5 0 0 0.5 0 0] CT
2 setlinecap
1 LJ
N
147 559.017 M
155.76 559.017 L
S
GR
GS
[0.5 0 0 0.5 0 0] CT
2 setlinecap
1 LJ
N
147 487.817 M
155.76 487.817 L
S
GR
GS
[0.5 0 0 0.5 0 0] CT
2 setlinecap
1 LJ
N
147 416.617 M
155.76 416.617 L
S
GR
GS
[0.5 0 0 0.5 0 0] CT
2 setlinecap
1 LJ
N
147 345.417 M
155.76 345.417 L
S
GR
GS
[0.5 0 0 0.5 0 0] CT
2 setlinecap
1 LJ
N
147 274.217 M
155.76 274.217 L
S
GR
GS
[0.5 0 0 0.5 0 0] CT
2 setlinecap
1 LJ
N
147 203.017 M
155.76 203.017 L
S
GR
GS
[0.5 0 0 0.5 0 0] CT
2 setlinecap
1 LJ
N
147 131.817 M
155.76 131.817 L
S
GR
GS
[0.5 0 0 0.5 0 0] CT
2 setlinecap
1 LJ
N
147 60.617 M
155.76 60.617 L
S
GR
GS
[0.5 0 0 0.5 0 0] CT
2 setlinecap
1 LJ
N
1023 630.217 M
1014.24 630.217 L
S
GR
GS
[0.5 0 0 0.5 0 0] CT
2 setlinecap
1 LJ
N
1023 559.017 M
1014.24 559.017 L
S
GR
GS
[0.5 0 0 0.5 0 0] CT
2 setlinecap
1 LJ
N
1023 487.817 M
1014.24 487.817 L
S
GR
GS
[0.5 0 0 0.5 0 0] CT
2 setlinecap
1 LJ
N
1023 416.617 M
1014.24 416.617 L
S
GR
GS
[0.5 0 0 0.5 0 0] CT
2 setlinecap
1 LJ
N
1023 345.417 M
1014.24 345.417 L
S
GR
GS
[0.5 0 0 0.5 0 0] CT
2 setlinecap
1 LJ
N
1023 274.217 M
1014.24 274.217 L
S
GR
GS
[0.5 0 0 0.5 0 0] CT
2 setlinecap
1 LJ
N
1023 203.017 M
1014.24 203.017 L
S
GR
GS
[0.5 0 0 0.5 0 0] CT
2 setlinecap
1 LJ
N
1023 131.817 M
1014.24 131.817 L
S
GR
GS
[0.5 0 0 0.5 0 0] CT
2 setlinecap
1 LJ
N
1023 60.617 M
1014.24 60.617 L
S
GR
GS
[0.5 0 0 0.5 69.5 315.10834] CT
/Helvetica 20 F
GS
[1 0 0 1 0 0] CT
-13 7 moveto 
1 -1 scale
(2) t 
GR
GR
GS
[0.5 0 0 0.5 69.5 279.50839] CT
/Helvetica 20 F
GS
[1 0 0 1 0 0] CT
-13 7 moveto 
1 -1 scale
(4) t 
GR
GR
GS
[0.5 0 0 0.5 69.5 243.90843] CT
/Helvetica 20 F
GS
[1 0 0 1 0 0] CT
-13 7 moveto 
1 -1 scale
(6) t 
GR
GR
GS
[0.5 0 0 0.5 69.5 208.30847] CT
/Helvetica 20 F
GS
[1 0 0 1 0 0] CT
-13 7 moveto 
1 -1 scale
(8) t 
GR
GR
GS
[0.5 0 0 0.5 69.5 172.70851] CT
/Helvetica 20 F
GS
[1 0 0 1 0 0] CT
-26 7 moveto 
1 -1 scale
(10) t 
GR
GR
GS
[0.5 0 0 0.5 69.5 137.10855] CT
/Helvetica 20 F
GS
[1 0 0 1 0 0] CT
-26 7 moveto 
1 -1 scale
(12) t 
GR
GR
GS
[0.5 0 0 0.5 69.5 101.50861] CT
/Helvetica 20 F
GS
[1 0 0 1 0 0] CT
-26 7 moveto 
1 -1 scale
(14) t 
GR
GR
GS
[0.5 0 0 0.5 69.5 65.90865] CT
/Helvetica 20 F
GS
[1 0 0 1 0 0] CT
-26 7 moveto 
1 -1 scale
(16) t 
GR
GR
GS
[0.5 0 0 0.5 69.5 30.30869] CT
/Helvetica 20 F
GS
[1 0 0 1 0 0] CT
-26 7 moveto 
1 -1 scale
(18) t 
GR
GR
GS
[0 -0.5 0.5 0 53.5 189.74985] CT
/Helvetica 22 F
GS
[1 0 0 1 0 0] CT
-45.5 -6 moveto 
1 -1 scale
(Time [s]) t 
GR
GR
GS
[0.5 0 0 0.5 73.5 27] CT
N
2.938 -0.578 M
2.938 -0.734 3.031 -0.859 QT
7.203 -5 L
3.031 -9.156 L
2.938 -9.266 2.938 -9.422 QT
2.938 -9.578 3.055 -9.703 QT
3.172 -9.828 3.344 -9.828 QT
3.484 -9.828 3.641 -9.703 QT
7.781 -5.563 L
11.906 -9.703 L
12.078 -9.828 12.203 -9.828 QT
12.359 -9.828 12.477 -9.711 QT
12.594 -9.594 12.594 -9.422 QT
12.594 -9.266 12.5 -9.156 QT
8.344 -5 L
12.5 -0.859 L
12.594 -0.734 12.594 -0.578 QT
12.594 -0.406 12.477 -0.289 QT
12.359 -0.172 12.203 -0.172 QT
12.047 -0.172 11.906 -0.328 QT
7.781 -4.438 L
3.641 -0.328 L
3.5 -0.172 3.344 -0.172 QT
3.172 -0.172 3.055 -0.305 QT
2.938 -0.438 2.938 -0.578 QT
cp
f
GR
GS
[0.5 0 0 0.5 81.5 27] CT
/Helvetica 20 F
GS
[1 0 0 1 0 0] CT
0 0 moveto 
1 -1 scale
(10) t 
GR
GR
GS
[0.5 0 0 0.5 94.5 22] CT
/Helvetica 16 F
GS
[1 0 0 1 0 0] CT
0 0 moveto 
1 -1 scale
(-4) t 
GR
GR
GS
[0.5 0 0 0.5 292.50027 28.125] CT
/Helvetica-Bold 22 F
GS
[1 0 0 1 0 0] CT
-215 -6 moveto 
1 -1 scale
(Reliability models time complexity) t 
GR
GR
GS
[0.5 0 0 0.5 0 0] CT
1 LJ
N
176.2 686.934 M
205.4 674.429 L
234.6 661.679 L
263.8 649.146 L
293 635.978 L
322.2 623.403 L
351.4 610.411 L
380.6 598.111 L
409.8 584.662 L
439 572.831 L
468.2 559.833 L
497.4 547.006 L
526.6 534.334 L
555.8 520.971 L
585 508.844 L
614.2 495.925 L
643.4 483.424 L
672.6 471.414 L
701.8 458.512 L
731 446.019 L
760.2 433.176 L
789.4 420.627 L
818.6 407.755 L
847.8 395.386 L
877 382.33 L
906.2 369.405 L
935.4 356.445 L
964.6 343.962 L
993.8 332.166 L
1023 319.527 L
1023.104 319.484 L
S
GR
GS
[0.5 0 0 0.5 88.1 343.46689] CT
10.0 ML
N
-4.243 -4.243 M
4.243 4.243 L
-4.243 4.243 M
4.243 -4.243 L
S
GR
GS
[0.5 0 0 0.5 102.7 337.21451] CT
10.0 ML
N
-4.243 -4.243 M
4.243 4.243 L
-4.243 4.243 M
4.243 -4.243 L
S
GR
GS
[0.5 0 0 0.5 117.3 330.83957] CT
10.0 ML
N
-4.243 -4.243 M
4.243 4.243 L
-4.243 4.243 M
4.243 -4.243 L
S
GR
GS
[0.5 0 0 0.5 131.89999 324.57303] CT
10.0 ML
N
-4.243 -4.243 M
4.243 4.243 L
-4.243 4.243 M
4.243 -4.243 L
S
GR
GS
[0.5 0 0 0.5 146.5 317.98895] CT
10.0 ML
N
-4.243 -4.243 M
4.243 4.243 L
-4.243 4.243 M
4.243 -4.243 L
S
GR
GS
[0.5 0 0 0.5 161.10001 311.70163] CT
10.0 ML
N
-4.243 -4.243 M
4.243 4.243 L
-4.243 4.243 M
4.243 -4.243 L
S
GR
GS
[0.5 0 0 0.5 175.7 305.20544] CT
10.0 ML
N
-4.243 -4.243 M
4.243 4.243 L
-4.243 4.243 M
4.243 -4.243 L
S
GR
GS
[0.5 0 0 0.5 190.3 299.05542] CT
10.0 ML
N
-4.243 -4.243 M
4.243 4.243 L
-4.243 4.243 M
4.243 -4.243 L
S
GR
GS
[0.5 0 0 0.5 204.89999 292.33102] CT
10.0 ML
N
-4.243 -4.243 M
4.243 4.243 L
-4.243 4.243 M
4.243 -4.243 L
S
GR
GS
[0.5 0 0 0.5 219.5 286.41547] CT
10.0 ML
N
-4.243 -4.243 M
4.243 4.243 L
-4.243 4.243 M
4.243 -4.243 L
S
GR
GS
[0.5 0 0 0.5 234.10001 279.91669] CT
10.0 ML
N
-4.243 -4.243 M
4.243 4.243 L
-4.243 4.243 M
4.243 -4.243 L
S
GR
GS
[0.5 0 0 0.5 248.7 273.50317] CT
10.0 ML
N
-4.243 -4.243 M
4.243 4.243 L
-4.243 4.243 M
4.243 -4.243 L
S
GR
GS
[0.5 0 0 0.5 263.29999 267.16702] CT
10.0 ML
N
-4.243 -4.243 M
4.243 4.243 L
-4.243 4.243 M
4.243 -4.243 L
S
GR
GS
[0.5 0 0 0.5 277.89999 260.48557] CT
10.0 ML
N
-4.243 -4.243 M
4.243 4.243 L
-4.243 4.243 M
4.243 -4.243 L
S
GR
GS
[0.5 0 0 0.5 292.5 254.42218] CT
10.0 ML
N
-4.243 -4.243 M
4.243 4.243 L
-4.243 4.243 M
4.243 -4.243 L
S
GR
GS
[0.5 0 0 0.5 307.10001 247.96274] CT
10.0 ML
N
-4.243 -4.243 M
4.243 4.243 L
-4.243 4.243 M
4.243 -4.243 L
S
GR
GS
[0.5 0 0 0.5 321.70001 241.71223] CT
10.0 ML
N
-4.243 -4.243 M
4.243 4.243 L
-4.243 4.243 M
4.243 -4.243 L
S
GR
GS
[0.5 0 0 0.5 336.29999 235.70721] CT
10.0 ML
N
-4.243 -4.243 M
4.243 4.243 L
-4.243 4.243 M
4.243 -4.243 L
S
GR
GS
[0.5 0 0 0.5 350.89999 229.25597] CT
10.0 ML
N
-4.243 -4.243 M
4.243 4.243 L
-4.243 4.243 M
4.243 -4.243 L
S
GR
GS
[0.5 0 0 0.5 365.5 223.00951] CT
10.0 ML
N
-4.243 -4.243 M
4.243 4.243 L
-4.243 4.243 M
4.243 -4.243 L
S
GR
GS
[0.5 0 0 0.5 380.10001 216.58777] CT
10.0 ML
N
-4.243 -4.243 M
4.243 4.243 L
-4.243 4.243 M
4.243 -4.243 L
S
GR
GS
[0.5 0 0 0.5 394.70001 210.3134] CT
10.0 ML
N
-4.243 -4.243 M
4.243 4.243 L
-4.243 4.243 M
4.243 -4.243 L
S
GR
GS
[0.5 0 0 0.5 409.29999 203.87769] CT
10.0 ML
N
-4.243 -4.243 M
4.243 4.243 L
-4.243 4.243 M
4.243 -4.243 L
S
GR
GS
[0.5 0 0 0.5 423.89999 197.69295] CT
10.0 ML
N
-4.243 -4.243 M
4.243 4.243 L
-4.243 4.243 M
4.243 -4.243 L
S
GR
GS
[0.5 0 0 0.5 438.5 191.16483] CT
10.0 ML
N
-4.243 -4.243 M
4.243 4.243 L
-4.243 4.243 M
4.243 -4.243 L
S
GR
GS
[0.5 0 0 0.5 453.10001 184.70235] CT
10.0 ML
N
-4.243 -4.243 M
4.243 4.243 L
-4.243 4.243 M
4.243 -4.243 L
S
GR
GS
[0.5 0 0 0.5 467.70001 178.22246] CT
10.0 ML
N
-4.243 -4.243 M
4.243 4.243 L
-4.243 4.243 M
4.243 -4.243 L
S
GR
GS
[0.5 0 0 0.5 482.29999 171.98106] CT
10.0 ML
N
-4.243 -4.243 M
4.243 4.243 L
-4.243 4.243 M
4.243 -4.243 L
S
GR
GS
[0.5 0 0 0.5 496.89999 166.08293] CT
10.0 ML
N
-4.243 -4.243 M
4.243 4.243 L
-4.243 4.243 M
4.243 -4.243 L
S
GR
GS
[0.5 0 0 0.5 511.5 159.76346] CT
10.0 ML
N
-4.243 -4.243 M
4.243 4.243 L
-4.243 4.243 M
4.243 -4.243 L
S
GR
GS
[0.5 0 0 0.5 0 0] CT
1 LJ
N
176.2 699.137 M
205.4 696.653 L
234.6 693.18 L
263.8 688.584 L
293 683.637 L
322.2 677.789 L
351.4 671.082 L
380.6 662.925 L
409.8 654.745 L
439 644.834 L
468.2 633.593 L
497.4 621.587 L
526.6 608.094 L
555.8 593.598 L
585 576.908 L
614.2 553.909 L
643.4 543.349 L
672.6 523.398 L
701.8 502.849 L
731 482.041 L
760.2 459.289 L
789.4 436.203 L
818.6 410.89 L
847.8 378.755 L
877 356.241 L
906.2 339.982 L
935.4 290.232 L
964.6 212.731 L
993.8 138.534 L
1023 59 L
1023.021 58.924 L
S
GR
GS
[0.5 0 0 0.5 88.1 349.56866] CT
N
0 -5.5 M
3.038 -5.5 5.5 -3.038 5.5 0 C
5.5 0 L
5.5 3.038 3.038 5.5 0 5.5 C
-3.038 5.5 -5.5 3.038 -5.5 0 C
-5.5 -3.038 -3.038 -5.5 0 -5.5 C
cp
0 -6.5 M
-3.59 -6.5 -6.5 -3.59 -6.5 0 C
-6.5 3.59 -3.59 6.5 0 6.5 C
3.59 6.5 6.5 3.59 6.5 0 C
6.5 0 L
6.5 -3.59 3.59 -6.5 0 -6.5 C
cp
f
GR
GS
[0.5 0 0 0.5 102.7 348.32629] CT
N
/f-1521356186{0 -5.5 M
3.038 -5.5 5.5 -3.038 5.5 0 C
5.5 0 L
5.5 3.038 3.038 5.5 0 5.5 C
-3.038 5.5 -5.5 3.038 -5.5 0 C
-5.5 -3.038 -3.038 -5.5 0 -5.5 C
cp
0 -6.5 M
-3.59 -6.5 -6.5 -3.59 -6.5 0 C
-6.5 3.59 -3.59 6.5 0 6.5 C
3.59 6.5 6.5 3.59 6.5 0 C
6.5 0 L
6.5 -3.59 3.59 -6.5 0 -6.5 C
cp}def
f-1521356186
f
GR
GS
[0.5 0 0 0.5 117.3 346.59006] CT
N
f-1521356186
f
GR
GS
[0.5 0 0 0.5 131.89999 344.29202] CT
N
f-1521356186
f
GR
GS
[0.5 0 0 0.5 146.5 341.81854] CT
N
f-1521356186
f
GR
GS
[0.5 0 0 0.5 161.10001 338.89465] CT
N
f-1521356186
f
GR
GS
[0.5 0 0 0.5 175.7 335.54114] CT
N
f-1521356186
f
GR
GS
[0.5 0 0 0.5 190.3 331.46274] CT
N
f-1521356186
f
GR
GS
[0.5 0 0 0.5 204.89999 327.37234] CT
N
f-1521356186
f
GR
GS
[0.5 0 0 0.5 219.5 322.41718] CT
N
f-1521356186
f
GR
GS
[0.5 0 0 0.5 234.10001 316.79636] CT
N
f-1521356186
f
GR
GS
[0.5 0 0 0.5 248.7 310.7934] CT
N
f-1521356186
f
GR
GS
[0.5 0 0 0.5 263.29999 304.04721] CT
N
f-1521356186
f
GR
GS
[0.5 0 0 0.5 277.89999 296.79922] CT
N
f-1521356186
f
GR
GS
[0.5 0 0 0.5 292.5 288.45404] CT
N
f-1521356186
f
GR
GS
[0.5 0 0 0.5 307.10001 276.95428] CT
N
f-1521356186
f
GR
GS
[0.5 0 0 0.5 321.70001 271.67441] CT
N
f-1521356186
f
GR
GS
[0.5 0 0 0.5 336.29999 261.69907] CT
N
f-1521356186
f
GR
GS
[0.5 0 0 0.5 350.89999 251.4245] CT
N
f-1521356186
f
GR
GS
[0.5 0 0 0.5 365.5 241.0206] CT
N
f-1521356186
f
GR
GS
[0.5 0 0 0.5 380.10001 229.64464] CT
N
f-1521356186
f
GR
GS
[0.5 0 0 0.5 394.70001 218.10127] CT
N
f-1521356186
f
GR
GS
[0.5 0 0 0.5 409.29999 205.4449] CT
N
f-1521356186
f
GR
GS
[0.5 0 0 0.5 423.89999 189.37743] CT
N
f-1521356186
f
GR
GS
[0.5 0 0 0.5 438.5 178.12062] CT
N
f-1521356186
f
GR
GS
[0.5 0 0 0.5 453.10001 169.99112] CT
N
f-1521356186
f
GR
GS
[0.5 0 0 0.5 467.70001 145.11609] CT
N
f-1521356186
f
GR
GS
[0.5 0 0 0.5 482.29999 106.36568] CT
N
f-1521356186
f
GR
GS
[0.5 0 0 0.5 496.89999 69.26714] CT
N
f-1521356186
f
GR
GS
[0.5 0 0 0.5 511.5 29.5] CT
N
f-1521356186
f
GR
GS
[0.5 0 0 0.5 0 0] CT
1 LJ
N
176.2 700 M
205.4 698.22 L
234.6 695.201 L
263.8 690.894 L
293 685.907 L
322.2 679.46 L
351.4 671.768 L
380.6 663.049 L
409.8 653.164 L
439 642.01 L
468.2 629.809 L
497.4 616.154 L
526.6 601.275 L
555.8 585.438 L
585 568.188 L
614.2 550.212 L
643.4 530.527 L
672.6 509.922 L
701.8 488.014 L
731 454.307 L
760.2 428.691 L
789.4 402.837 L
818.6 375.693 L
847.8 348.485 L
877 319.134 L
906.2 288.914 L
935.4 257.848 L
964.6 226.507 L
993.8 190.32 L
1023 156.757 L
1023.104 156.619 L
S
GR
GS
[0.5 0 0 0.5 88.1 350] CT
10.0 ML
N
-5.706 -1.854 M
-1.411 -1.854 L
0 -6 L
1.411 -1.854 L
5.706 -1.854 L
2.283 0.742 L
3.527 4.854 L
0 2.4 L
-3.527 4.854 L
-2.283 0.742 L
cp
S
GR
GS
[0.5 0 0 0.5 102.7 349.10989] CT
10.0 ML
N
-5.706 -1.854 M
-1.411 -1.854 L
0 -6 L
1.411 -1.854 L
5.706 -1.854 L
2.283 0.742 L
3.527 4.854 L
0 2.4 L
-3.527 4.854 L
-2.283 0.742 L
cp
S
GR
GS
[0.5 0 0 0.5 117.3 347.60046] CT
10.0 ML
N
-5.706 -1.854 M
-1.411 -1.854 L
0 -6 L
1.411 -1.854 L
5.706 -1.854 L
2.283 0.742 L
3.527 4.854 L
0 2.4 L
-3.527 4.854 L
-2.283 0.742 L
cp
S
GR
GS
[0.5 0 0 0.5 131.89999 345.44711] CT
10.0 ML
N
-5.706 -1.854 M
-1.411 -1.854 L
0 -6 L
1.411 -1.854 L
5.706 -1.854 L
2.283 0.742 L
3.527 4.854 L
0 2.4 L
-3.527 4.854 L
-2.283 0.742 L
cp
S
GR
GS
[0.5 0 0 0.5 146.5 342.95334] CT
10.0 ML
N
-5.706 -1.854 M
-1.411 -1.854 L
0 -6 L
1.411 -1.854 L
5.706 -1.854 L
2.283 0.742 L
3.527 4.854 L
0 2.4 L
-3.527 4.854 L
-2.283 0.742 L
cp
S
GR
GS
[0.5 0 0 0.5 161.10001 339.72977] CT
10.0 ML
N
-5.706 -1.854 M
-1.411 -1.854 L
0 -6 L
1.411 -1.854 L
5.706 -1.854 L
2.283 0.742 L
3.527 4.854 L
0 2.4 L
-3.527 4.854 L
-2.283 0.742 L
cp
S
GR
GS
[0.5 0 0 0.5 175.7 335.88376] CT
10.0 ML
N
-5.706 -1.854 M
-1.411 -1.854 L
0 -6 L
1.411 -1.854 L
5.706 -1.854 L
2.283 0.742 L
3.527 4.854 L
0 2.4 L
-3.527 4.854 L
-2.283 0.742 L
cp
S
GR
GS
[0.5 0 0 0.5 190.3 331.52475] CT
10.0 ML
N
-5.706 -1.854 M
-1.411 -1.854 L
0 -6 L
1.411 -1.854 L
5.706 -1.854 L
2.283 0.742 L
3.527 4.854 L
0 2.4 L
-3.527 4.854 L
-2.283 0.742 L
cp
S
GR
GS
[0.5 0 0 0.5 204.89999 326.582] CT
10.0 ML
N
-5.706 -1.854 M
-1.411 -1.854 L
0 -6 L
1.411 -1.854 L
5.706 -1.854 L
2.283 0.742 L
3.527 4.854 L
0 2.4 L
-3.527 4.854 L
-2.283 0.742 L
cp
S
GR
GS
[0.5 0 0 0.5 219.5 321.00522] CT
10.0 ML
N
-5.706 -1.854 M
-1.411 -1.854 L
0 -6 L
1.411 -1.854 L
5.706 -1.854 L
2.283 0.742 L
3.527 4.854 L
0 2.4 L
-3.527 4.854 L
-2.283 0.742 L
cp
S
GR
GS
[0.5 0 0 0.5 234.10001 314.90454] CT
10.0 ML
N
-5.706 -1.854 M
-1.411 -1.854 L
0 -6 L
1.411 -1.854 L
5.706 -1.854 L
2.283 0.742 L
3.527 4.854 L
0 2.4 L
-3.527 4.854 L
-2.283 0.742 L
cp
S
GR
GS
[0.5 0 0 0.5 248.7 308.07712] CT
10.0 ML
N
-5.706 -1.854 M
-1.411 -1.854 L
0 -6 L
1.411 -1.854 L
5.706 -1.854 L
2.283 0.742 L
3.527 4.854 L
0 2.4 L
-3.527 4.854 L
-2.283 0.742 L
cp
S
GR
GS
[0.5 0 0 0.5 263.29999 300.63745] CT
10.0 ML
N
-5.706 -1.854 M
-1.411 -1.854 L
0 -6 L
1.411 -1.854 L
5.706 -1.854 L
2.283 0.742 L
3.527 4.854 L
0 2.4 L
-3.527 4.854 L
-2.283 0.742 L
cp
S
GR
GS
[0.5 0 0 0.5 277.89999 292.71884] CT
10.0 ML
N
-5.706 -1.854 M
-1.411 -1.854 L
0 -6 L
1.411 -1.854 L
5.706 -1.854 L
2.283 0.742 L
3.527 4.854 L
0 2.4 L
-3.527 4.854 L
-2.283 0.742 L
cp
S
GR
GS
[0.5 0 0 0.5 292.5 284.09402] CT
10.0 ML
N
-5.706 -1.854 M
-1.411 -1.854 L
0 -6 L
1.411 -1.854 L
5.706 -1.854 L
2.283 0.742 L
3.527 4.854 L
0 2.4 L
-3.527 4.854 L
-2.283 0.742 L
cp
S
GR
GS
[0.5 0 0 0.5 307.10001 275.10623] CT
10.0 ML
N
-5.706 -1.854 M
-1.411 -1.854 L
0 -6 L
1.411 -1.854 L
5.706 -1.854 L
2.283 0.742 L
3.527 4.854 L
0 2.4 L
-3.527 4.854 L
-2.283 0.742 L
cp
S
GR
GS
[0.5 0 0 0.5 321.70001 265.26355] CT
10.0 ML
N
-5.706 -1.854 M
-1.411 -1.854 L
0 -6 L
1.411 -1.854 L
5.706 -1.854 L
2.283 0.742 L
3.527 4.854 L
0 2.4 L
-3.527 4.854 L
-2.283 0.742 L
cp
S
GR
GS
[0.5 0 0 0.5 336.29999 254.96104] CT
10.0 ML
N
-5.706 -1.854 M
-1.411 -1.854 L
0 -6 L
1.411 -1.854 L
5.706 -1.854 L
2.283 0.742 L
3.527 4.854 L
0 2.4 L
-3.527 4.854 L
-2.283 0.742 L
cp
S
GR
GS
[0.5 0 0 0.5 350.89999 244.00725] CT
10.0 ML
N
-5.706 -1.854 M
-1.411 -1.854 L
0 -6 L
1.411 -1.854 L
5.706 -1.854 L
2.283 0.742 L
3.527 4.854 L
0 2.4 L
-3.527 4.854 L
-2.283 0.742 L
cp
S
GR
GS
[0.5 0 0 0.5 365.5 227.15337] CT
10.0 ML
N
-5.706 -1.854 M
-1.411 -1.854 L
0 -6 L
1.411 -1.854 L
5.706 -1.854 L
2.283 0.742 L
3.527 4.854 L
0 2.4 L
-3.527 4.854 L
-2.283 0.742 L
cp
S
GR
GS
[0.5 0 0 0.5 380.10001 214.34555] CT
10.0 ML
N
-5.706 -1.854 M
-1.411 -1.854 L
0 -6 L
1.411 -1.854 L
5.706 -1.854 L
2.283 0.742 L
3.527 4.854 L
0 2.4 L
-3.527 4.854 L
-2.283 0.742 L
cp
S
GR
GS
[0.5 0 0 0.5 394.70001 201.41869] CT
10.0 ML
N
-5.706 -1.854 M
-1.411 -1.854 L
0 -6 L
1.411 -1.854 L
5.706 -1.854 L
2.283 0.742 L
3.527 4.854 L
0 2.4 L
-3.527 4.854 L
-2.283 0.742 L
cp
S
GR
GS
[0.5 0 0 0.5 409.29999 187.84645] CT
10.0 ML
N
-5.706 -1.854 M
-1.411 -1.854 L
0 -6 L
1.411 -1.854 L
5.706 -1.854 L
2.283 0.742 L
3.527 4.854 L
0 2.4 L
-3.527 4.854 L
-2.283 0.742 L
cp
S
GR
GS
[0.5 0 0 0.5 423.89999 174.24252] CT
10.0 ML
N
-5.706 -1.854 M
-1.411 -1.854 L
0 -6 L
1.411 -1.854 L
5.706 -1.854 L
2.283 0.742 L
3.527 4.854 L
0 2.4 L
-3.527 4.854 L
-2.283 0.742 L
cp
S
GR
GS
[0.5 0 0 0.5 438.5 159.56682] CT
10.0 ML
N
-5.706 -1.854 M
-1.411 -1.854 L
0 -6 L
1.411 -1.854 L
5.706 -1.854 L
2.283 0.742 L
3.527 4.854 L
0 2.4 L
-3.527 4.854 L
-2.283 0.742 L
cp
S
GR
GS
[0.5 0 0 0.5 453.10001 144.45683] CT
10.0 ML
N
-5.706 -1.854 M
-1.411 -1.854 L
0 -6 L
1.411 -1.854 L
5.706 -1.854 L
2.283 0.742 L
3.527 4.854 L
0 2.4 L
-3.527 4.854 L
-2.283 0.742 L
cp
S
GR
GS
[0.5 0 0 0.5 467.70001 128.92395] CT
10.0 ML
N
-5.706 -1.854 M
-1.411 -1.854 L
0 -6 L
1.411 -1.854 L
5.706 -1.854 L
2.283 0.742 L
3.527 4.854 L
0 2.4 L
-3.527 4.854 L
-2.283 0.742 L
cp
S
GR
GS
[0.5 0 0 0.5 482.29999 113.25339] CT
10.0 ML
N
-5.706 -1.854 M
-1.411 -1.854 L
0 -6 L
1.411 -1.854 L
5.706 -1.854 L
2.283 0.742 L
3.527 4.854 L
0 2.4 L
-3.527 4.854 L
-2.283 0.742 L
cp
S
GR
GS
[0.5 0 0 0.5 496.89999 95.16002] CT
10.0 ML
N
-5.706 -1.854 M
-1.411 -1.854 L
0 -6 L
1.411 -1.854 L
5.706 -1.854 L
2.283 0.742 L
3.527 4.854 L
0 2.4 L
-3.527 4.854 L
-2.283 0.742 L
cp
S
GR
GS
[0.5 0 0 0.5 511.5 78.3783] CT
10.0 ML
N
-5.706 -1.854 M
-1.411 -1.854 L
0 -6 L
1.411 -1.854 L
5.706 -1.854 L
2.283 0.742 L
3.527 4.854 L
0 2.4 L
-3.527 4.854 L
-2.283 0.742 L
cp
S
GR
GS
[0.5 0 0 0.5 0 0] CT
1 GC
N
1007 151 M
1007 75 L
740 75 L
740 151 L
cp
f
GR
GS
[0.5 0 0 0.5 407 45] CT
/Helvetica 18 F
GS
[1 0 0 1 0 0] CT
0 6 moveto 
1 -1 scale
(ert-CORE) t 
GR
GR
GS
[0.5 0 0 0.5 0 0] CT
1 LJ
N
748 90 M
808 90 L
S
GR
GS
[0.5 0 0 0.5 389 45] CT
10.0 ML
N
-4.243 -4.243 M
4.243 4.243 L
-4.243 4.243 M
4.243 -4.243 L
S
GR
GS
[0.5 0 0 0.5 407 56.5] CT
/Helvetica 18 F
GS
[1 0 0 1 0 0] CT
0 6 moveto 
1 -1 scale
(Relibility of a Thing) t 
GR
GR
GS
[0.5 0 0 0.5 0 0] CT
1 LJ
N
748 113 M
808 113 L
S
GR
GS
[0.5 0 0 0.5 389 56.5] CT
N
f-1521356186
f
GR
GS
[0.5 0 0 0.5 407 68] CT
/Helvetica 18 F
GS
[1 0 0 1 0 0] CT
0 6 moveto 
1 -1 scale
(Reliability-Aware IoT) t 
GR
GR
GS
[0.5 0 0 0.5 0 0] CT
1 LJ
N
748 136 M
808 136 L
S
GR
GS
[0.5 0 0 0.5 389 68] CT
10.0 ML
N
-5.706 -1.854 M
-1.411 -1.854 L
0 -6 L
1.411 -1.854 L
5.706 -1.854 L
2.283 0.742 L
3.527 4.854 L
0 2.4 L
-3.527 4.854 L
-2.283 0.742 L
cp
S
GR
GS
[0.5 0 0 0.5 0 0] CT
10.0 ML
N
740 151 M
740 75 L
1007 75 L
1007 151 L
cp
S
GR
%%Trailer
%%Pages: 1
%%EOF
